# q/kF, S(q) TD-DFT, S(q) QMC
1.000000000000000021e-02,5.302139428592515032e-05,5.321694333064409463e-05
2.000000000000000042e-02,2.126239674722030996e-04,2.134522818089462301e-04
2.999999999999999889e-02,4.783660170365032103e-04,4.821778831050772124e-04
4.000000000000000083e-02,8.502989253543537804e-04,8.613210961953259720e-04
5.000000000000000278e-02,1.328338976745260282e-03,1.352928282100658575e-03
6.000000000000000472e-02,1.912366600516336073e-03,1.958916876269558432e-03
6.999999999999999278e-02,2.602238957079834863e-03,2.680900906010891260e-03
8.000000000000000167e-02,3.397789132753399003e-03,3.520076989850760840e-03
8.999999999999999667e-02,4.298826864350668679e-03,4.477159680978816392e-03
9.999999999999999167e-02,5.305138933154954391e-03,5.552356607200187311e-03
1.100000000000000006e-01,6.416489413221855218e-03,6.745375228253511213e-03
1.199999999999999956e-01,7.632620402580420071e-03,8.055454201452906526e-03
1.300000000000000044e-01,8.953252115838748401e-03,9.481413341989750054e-03
1.400000000000000133e-01,1.037808319363791795e-02,1.102171700844629953e-02
1.500000000000000222e-01,1.190679129172413434e-02,1.267454646026751341e-02
1.600000000000000033e-01,1.353903311876746007e-02,1.443787734436969422e-02
1.700000000000000122e-01,1.527444462821951968e-02,1.630955899363437794e-02
1.800000000000000211e-01,1.711264168254051851e-02,1.828739267978759381e-02
1.900000000000000022e-01,1.905321990355800937e-02,2.036920637386058219e-02
2.000000000000000111e-01,2.109575479862848060e-02,2.255292394318962612e-02
2.100000000000000200e-01,2.323980277206029108e-02,2.483662706599740200e-02
2.200000000000000011e-01,2.548489988222956901e-02,2.721860848129566135e-02
2.300000000000000100e-01,2.783056349312984165e-02,2.969741551852105033e-02
2.400000000000000189e-01,3.027629129601707922e-02,3.227188317057465283e-02
2.500000000000000000e-01,3.282156284436432703e-02,3.494115628594580969e-02
2.600000000000000089e-01,3.546583763635451775e-02,3.770470075845872016e-02
2.700000000000000178e-01,3.820855775210767885e-02,4.056230388340326121e-02
2.800000000000000266e-01,4.104914529036016169e-02,4.351406432182178263e-02
2.900000000000000355e-01,4.398700497501490531e-02,4.656037236537882706e-02
2.999999999999999889e-01,4.702152285438145063e-02,4.970188141730426390e-02
3.099999999999999978e-01,5.015206676826459986e-02,5.293947179552097038e-02
3.200000000000000067e-01,5.337798593752443588e-02,5.627420811811223444e-02
3.300000000000000155e-01,5.669861314859992590e-02,5.970729164566210279e-02
3.400000000000000244e-01,6.011326179061669828e-02,6.324000902786375278e-02
3.500000000000000333e-01,6.362122735504330273e-02,6.687367893262130547e-02
3.600000000000000422e-01,6.722178883568011298e-02,7.060959802553071207e-02
3.699999999999999956e-01,7.091420780470536478e-02,7.444898771827396233e-02
3.800000000000000044e-01,7.469772628120353863e-02,7.839294301945505528e-02
3.900000000000000133e-01,7.857157093287378546e-02,8.244238470506404237e-02
4.000000000000000222e-01,8.253495047360805137e-02,8.659801588323477739e-02
4.100000000000000311e-01,8.658705641619586502e-02,9.086028386488442798e-02
4.200000000000000400e-01,9.072706315827221146e-02,9.522934807418580172e-02
4.299999999999999933e-01,9.495412808843244068e-02,9.970505454660033573e-02
4.400000000000000022e-01,9.926739067253846638e-02,1.042869173732587501e-01
4.500000000000000111e-01,1.036659764506154963e-01,1.089741072642823050e-01
4.600000000000000200e-01,1.081489913392347929e-01,1.137654472251557469e-01
4.700000000000000289e-01,1.127155244236891646e-01,1.186594151737998259e-01
4.800000000000000377e-01,1.173646515089337983e-01,1.236541531751253475e-01
4.899999999999999911e-01,1.220954274668324957e-01,1.287474828373815217e-01
5.000000000000000000e-01,1.269068954265448745e-01,1.339369263025390888e-01
5.100000000000000089e-01,1.317980773665485550e-01,1.392197321724903403e-01
5.200000000000000178e-01,1.367679827566085360e-01,1.445929056445121597e-01
5.300000000000000266e-01,1.418156051419366959e-01,1.500532420830178182e-01
5.400000000000000355e-01,1.469399178992752408e-01,1.555973632293691233e-01
5.500000000000000444e-01,1.521398825960398327e-01,1.612217552461487902e-01
5.600000000000000533e-01,1.574144436680923187e-01,1.669228078051336883e-01
5.700000000000000622e-01,1.627625298023269163e-01,1.726968534572717040e-01
5.800000000000000711e-01,1.681830541176779492e-01,1.785402065660659510e-01
5.899999999999999689e-01,1.736749142194653761e-01,1.844492011405683696e-01
5.999999999999999778e-01,1.792369923565408918e-01,1.904202269683313020e-01
6.099999999999999867e-01,1.848681554877561750e-01,1.964497635198126646e-01
6.199999999999999956e-01,1.905672554350947012e-01,2.025344111716260442e-01
6.300000000000000044e-01,1.963331290181933864e-01,2.086709193745607815e-01
6.400000000000000133e-01,2.021645981247157664e-01,2.148562114715213966e-01
6.500000000000000222e-01,2.080604698646999762e-01,2.210874059487226151e-01
6.600000000000000311e-01,2.140195346402541665e-01,2.273618339791035614e-01
6.700000000000000400e-01,2.200405745530028823e-01,2.336770531887172597e-01
6.800000000000000488e-01,2.261223512260479851e-01,2.400308576437432673e-01
6.900000000000000577e-01,2.322636116373570370e-01,2.464212841169645396e-01
7.000000000000000666e-01,2.384630958343528506e-01,2.528466147474124348e-01
7.100000000000000755e-01,2.447195228039064363e-01,2.593053762550368568e-01
7.199999999999999734e-01,2.510315977614278604e-01,2.657963359134761228e-01
7.299999999999999822e-01,2.573980196822751032e-01,2.723184945182428596e-01
7.399999999999999911e-01,2.638174640981130192e-01,2.788710766149904430e-01
7.500000000000000000e-01,2.702886034705786478e-01,2.854535182732326204e-01
7.600000000000000089e-01,2.768100868151959770e-01,2.920654527052404248e-01
7.700000000000000178e-01,2.833805579875938729e-01,2.987066940382830937e-01
7.800000000000000266e-01,2.899986487907041388e-01,3.053772195513551058e-01
7.900000000000000355e-01,2.966629690114649387e-01,3.120771506855717359e-01
8.000000000000000444e-01,3.033721259567236372e-01,3.188067331310660002e-01
8.100000000000000533e-01,3.101247139078502912e-01,3.255663162830210178e-01
8.200000000000000622e-01,3.169193057820040571e-01,3.323563323460167473e-01
8.300000000000000711e-01,3.237544740848364855e-01,3.391772753496739012e-01
8.400000000000000799e-01,3.306287767942586719e-01,3.460296803202020932e-01
8.499999999999999778e-01,3.375407538572461896e-01,3.529141028323892204e-01
8.599999999999999867e-01,3.444889409969981720e-01,3.598310991453013141e-01
8.699999999999999956e-01,3.514718627590071587e-01,3.667812071028970222e-01
8.800000000000000044e-01,3.584880351313918800e-01,3.737649279583553641e-01
8.900000000000000133e-01,3.655359489504699244e-01,3.807827092584621931e-01
9.000000000000000222e-01,3.726141092695104962e-01,3.878349289022658408e-01
9.100000000000000311e-01,3.797209940970368569e-01,3.949218804666457805e-01
9.200000000000000400e-01,3.868550698376145847e-01,4.020437598706821936e-01
9.300000000000000488e-01,3.940148061956507686e-01,4.092006534309488575e-01
9.400000000000000577e-01,4.011986567558198935e-01,4.163925273412655281e-01
9.500000000000000666e-01,4.084050634256610746e-01,4.236192185931161314e-01
9.600000000000000755e-01,4.156324654092908299e-01,4.308804273369966076e-01
9.699999999999999734e-01,4.228792907056879713e-01,4.381757106704306515e-01
9.799999999999999822e-01,4.301439582099785830e-01,4.455044778253409721e-01
9.899999999999999911e-01,4.374248809849400343e-01,4.528659867158613683e-01
1.000000000000000000e+00,4.447204637991764020e-01,4.602593417975654466e-01
1.010000000000000009e+00,4.520291045021535004e-01,4.676834931803700579e-01
1.020000000000000018e+00,4.593491938227818872e-01,4.751372369300704834e-01
1.030000000000000027e+00,4.666791114304615906e-01,4.826192164874706370e-01
1.040000000000000036e+00,4.740172444706919341e-01,4.901279251293395034e-01
1.050000000000000044e+00,4.813619603541059444e-01,4.976617093918870305e-01
1.060000000000000053e+00,4.887116252739586164e-01,5.052187733749988752e-01
1.070000000000000062e+00,4.960645956132635481e-01,5.127971838440421593e-01
1.080000000000000071e+00,5.034192366804464136e-01,5.203948760455520128e-01
1.090000000000000080e+00,5.107738953378101465e-01,5.280096601534325362e-01
1.100000000000000089e+00,5.181269181885342912e-01,5.356392282633958279e-01
1.110000000000000098e+00,5.254766431480258904e-01,5.432811618550996702e-01
1.120000000000000107e+00,5.328214200008025703e-01,5.509329396437504522e-01
1.130000000000000115e+00,5.401595740887751296e-01,5.585919457457647619e-01
1.140000000000000124e+00,5.474894493013476859e-01,5.662554780862851800e-01
1.150000000000000133e+00,5.548093707977731492e-01,5.739207569799253950e-01
1.160000000000000142e+00,5.621176615887508721e-01,5.815849338199451379e-01
1.169999999999999929e+00,5.694126592380751584e-01,5.892450998151017583e-01
1.179999999999999938e+00,5.766926777830388984e-01,5.968982947176124654e-01
1.189999999999999947e+00,5.839560528947808082e-01,6.045415154899447252e-01
1.199999999999999956e+00,5.912010966389662503e-01,6.121717248624851671e-01
1.209999999999999964e+00,5.984261441896400191e-01,6.197858597384506840e-01
1.219999999999999973e+00,6.056295075981760201e-01,6.273808394067150740e-01
1.229999999999999982e+00,6.128095232593530062e-01,6.349535735274213222e-01
1.239999999999999991e+00,6.199645046295849671e-01,6.425009698593797669e-01
1.250000000000000000e+00,6.270927912360678702e-01,6.500199417022212156e-01
1.260000000000000009e+00,6.341926999574792889e-01,6.575074150301298825e-01
1.270000000000000018e+00,6.412625751604499325e-01,6.649603352976305448e-01
1.280000000000000027e+00,6.483007390350639110e-01,6.723756739014127293e-01
1.290000000000000036e+00,6.553055361209569885e-01,6.797504342854530091e-01
1.300000000000000044e+00,6.622753154217918548e-01,6.870816576798112196e-01
1.310000000000000053e+00,6.692084106855960002e-01,6.943664284663580988e-01
1.320000000000000062e+00,6.761031869525805371e-01,7.016018791673900301e-01
1.330000000000000071e+00,6.829579883667759033e-01,7.087851950555508207e-01
1.340000000000000080e+00,6.897711851029247887e-01,7.159136183857744973e-01
1.350000000000000089e+00,6.965411541634953796e-01,7.229844522520104677e-01
1.360000000000000098e+00,7.032662591564649013e-01,7.299950640733866569e-01
1.370000000000000107e+00,7.099448919961101057e-01,7.369428887161282304e-01
1.380000000000000115e+00,7.165754460881865739e-01,7.438254312590498740e-01
1.390000000000000124e+00,7.231563308600710283e-01,7.506402694117536578e-01
1.400000000000000133e+00,7.296859437136687943e-01,7.573850555958083763e-01
1.410000000000000142e+00,7.361627136022779183e-01,7.640575187001596991e-01
1.419999999999999929e+00,7.425850728704873616e-01,7.706554655228641248e-01
1.429999999999999938e+00,7.489514726029240510e-01,7.771767819119090870e-01
1.439999999999999947e+00,7.552603534761771487e-01,7.836194336184402198e-01
1.449999999999999956e+00,7.615101907288038818e-01,7.899814668761421244e-01
1.459999999999999964e+00,7.676994653054929341e-01,7.962610087208275012e-01
1.469999999999999973e+00,7.738266717389672422e-01,8.024562670644890261e-01
1.479999999999999982e+00,7.798903188598795833e-01,8.085655305381839186e-01
1.489999999999999991e+00,7.858889303110868640e-01,8.145871681181301449e-01
1.500000000000000000e+00,7.918210530457129304e-01,8.205196285493334685e-01
1.510000000000000009e+00,7.976852265347964543e-01,8.263614395809324442e-01
1.520000000000000018e+00,8.034800303955941247e-01,8.321112070272470573e-01
1.530000000000000027e+00,8.092040536235983739e-01,8.377676136682600250e-01
1.540000000000000036e+00,8.148559030562063654e-01,8.433294180029627940e-01
1.550000000000000044e+00,8.204342039510752471e-01,8.487954528686372235e-01
1.560000000000000053e+00,8.259376004689866768e-01,8.541646239387692408e-01
1.570000000000000062e+00,8.313647563862109902e-01,8.594359081118772004e-01
1.580000000000000071e+00,8.367143554552999296e-01,8.646083518030762693e-01
1.590000000000000080e+00,8.419851021322567464e-01,8.696810691497668389e-01
1.600000000000000089e+00,8.471757219116641258e-01,8.746532401423334768e-01
1.610000000000000098e+00,8.522849620226357059e-01,8.795241086902582106e-01
1.620000000000000107e+00,8.573115917628121307e-01,8.842929806335586562e-01
1.630000000000000115e+00,8.622544031067204129e-01,8.889592217089469228e-01
1.640000000000000124e+00,8.671122110799834859e-01,8.935222554796167227e-01
1.650000000000000133e+00,8.718838542648001955e-01,8.979815612370481981e-01
1.660000000000000142e+00,8.765681951301464991e-01,9.023366718827292576e-01
1.670000000000000151e+00,8.811641205419701306e-01,9.065871717972010524e-01
1.679999999999999938e+00,8.856705420890693681e-01,9.107326947033466125e-01
1.689999999999999947e+00,8.900863964597206524e-01,9.147729215303689321e-01
1.699999999999999956e+00,8.944106457725232717e-01,9.187075782844457139e-01
1.709999999999999964e+00,8.986422778832720004e-01,9.225364339315899054e-01
1.719999999999999973e+00,9.027803066950852440e-01,9.262592982978196110e-01
1.729999999999999982e+00,9.068237634176096185e-01,9.298760199913094215e-01
1.739999999999999991e+00,9.107717327122035744e-01,9.333864843507956310e-01
1.750000000000000000e+00,9.146232991386575861e-01,9.367906114241139059e-01
1.760000000000000009e+00,9.183775831271958623e-01,9.400883539803739364e-01
1.770000000000000018e+00,9.220337321876518333e-01,9.432796955589223264e-01
1.780000000000000027e+00,9.255909211237843826e-01,9.463646485578962597e-01
1.790000000000000036e+00,9.290483520033049336e-01,9.493432523648550614e-01
1.800000000000000044e+00,9.324052451500713934e-01,9.522155715316588109e-01
1.810000000000000053e+00,9.356608760081099874e-01,9.549816939954866024e-01
1.820000000000000062e+00,9.388145198500503774e-01,9.576417293475955050e-01
1.830000000000000071e+00,9.418654886873114584e-01,9.601958071511770276e-01
1.840000000000000080e+00,9.448131219542998949e-01,9.626440753094158698e-01
1.850000000000000089e+00,9.476567771074652091e-01,9.649866984846339202e-01
1.860000000000000098e+00,9.503958670833588807e-01,9.672238565691850809e-01
1.870000000000000107e+00,9.530298038533753235e-01,9.693557432085742054e-01
1.880000000000000115e+00,9.555580358109710959e-01,9.713825643770835905e-01
1.890000000000000124e+00,9.579800287107199663e-01,9.733045370060228185e-01
1.900000000000000133e+00,9.602953034474859262e-01,9.751218876645659783e-01
1.910000000000000142e+00,9.625033788279053759e-01,9.768348512929797556e-01
1.920000000000000151e+00,9.646038092081750115e-01,9.784436699879354160e-01
1.929999999999999938e+00,9.665961651663023124e-01,9.799485918394528206e-01
1.939999999999999947e+00,9.684800712739360939e-01,9.813498698189367930e-01
1.949999999999999956e+00,9.702551481515339082e-01,9.826477607176470341e-01
1.959999999999999964e+00,9.719210404238913803e-01,9.838425241348632833e-01
1.969999999999999973e+00,9.734774447212820592e-01,9.849344215149269388e-01
1.979999999999999982e+00,9.749240503157649007e-01,9.859237152322609665e-01
1.989999999999999991e+00,9.762605652085076802e-01,9.868106677234195212e-01
2.000000000000000000e+00,9.774867381466341154e-01,9.875955406651421020e-01
2.009999999999999787e+00,9.786373765223931320e-01,9.883161566973663881e-01
2.020000000000000018e+00,9.797484128133786552e-01,9.890105861900854167e-01
2.029999999999999805e+00,9.808212146886990945e-01,9.896794590529210955e-01
2.040000000000000036e+00,9.818570567052882225e-01,9.903234015862412143e-01
2.049999999999999822e+00,9.828571603830482672e-01,9.909430358726377674e-01
2.059999999999999609e+00,9.838227291612070546e-01,9.915389792075552933e-01
2.069999999999999840e+00,9.847548841589169877e-01,9.921118435678523140e-01
2.079999999999999627e+00,9.856547449976736930e-01,9.926622351170640846e-01
2.089999999999999858e+00,9.865233541060729472e-01,9.931907537461397428e-01
2.099999999999999645e+00,9.873617568252605059e-01,9.936979926484135195e-01
2.109999999999999876e+00,9.881709247923707862e-01,9.941845379275842109e-01
2.119999999999999662e+00,9.889518358311406576e-01,9.946509682374781169e-01
2.129999999999999893e+00,9.897053968158694426e-01,9.950978544523779723e-01
2.139999999999999680e+00,9.904325233940666218e-01,9.955257593667141691e-01
2.149999999999999911e+00,9.911340625765793222e-01,9.959352374229309968e-01
2.159999999999999698e+00,9.918108625468552431e-01,9.963268344663497311e-01
2.169999999999999929e+00,9.924637442069965676e-01,9.967010875258784930e-01
2.179999999999999716e+00,9.930934725335119895e-01,9.970585246194253459e-01
2.189999999999999947e+00,9.937008263768765115e-01,9.973996645829068530e-01
2.199999999999999734e+00,9.942865205845885512e-01,9.977250169217558584e-01
2.209999999999999964e+00,9.948512756407558166e-01,9.980350816838592376e-01
2.219999999999999751e+00,9.953957890671624176e-01,9.983303493528843386e-01
2.229999999999999982e+00,9.959207063948184446e-01,9.986113007609749292e-01
2.239999999999999769e+00,9.964266811541154789e-01,9.988784070198197806e-01
2.250000000000000000e+00,9.969143360943485410e-01,9.991321294691353216e-01
2.259999999999999787e+00,9.973842836264519285e-01,9.993729196416187843e-01
2.270000000000000018e+00,9.978370868512013159e-01,9.996012192434600152e-01
2.279999999999999805e+00,9.982733195508886048e-01,9.998174601495345426e-01
2.290000000000000036e+00,9.986935272399656283e-01,1.000022064412414258e+00
2.299999999999999822e+00,9.990982376426814637e-01,1.000215444284372923e+00
2.310000000000000053e+00,9.994879711555407775e-01,1.000398002251585705e+00
2.319999999999999840e+00,9.998632017417853346e-01,1.000570131079748570e+00
2.329999999999999627e+00,1.000224416948551909e+00,1.000732213870373810e+00
2.339999999999999858e+00,1.000572078750051386e+00,1.000884624127043931e+00
2.349999999999999645e+00,1.000906634012541430e+00,1.001027725830934134e+00
2.359999999999999876e+00,1.001228514912555045e+00,1.001161873524934132e+00
2.369999999999999662e+00,1.001538139474570821e+00,1.001287412405740040e+00
2.379999999999999893e+00,1.001835911950016422e+00,1.001404678423294836e+00
2.389999999999999680e+00,1.002122223335893736e+00,1.001513998386999171e+00
2.399999999999999911e+00,1.002397451753785029e+00,1.001615690078120569e+00
2.409999999999999698e+00,1.002661962890834868e+00,1.001710062367874743e+00
2.419999999999999929e+00,1.002916110374863612e+00,1.001797415340654585e+00
2.429999999999999716e+00,1.003160236223406443e+00,1.001878040421924299e+00
2.439999999999999947e+00,1.003394671148168049e+00,1.001952220510303748e+00
2.449999999999999734e+00,1.003619734997952317e+00,1.002020230113402910e+00
2.459999999999999964e+00,1.003835737068294209e+00,1.002082335486977671e+00
2.469999999999999751e+00,1.004042976459435854e+00,1.002138794777007735e+00
2.479999999999999982e+00,1.004241742414434313e+00,1.002189858164307390e+00
2.489999999999999769e+00,1.004432314660550274e+00,1.002235768011311867e+00
2.500000000000000000e+00,1.004614963714905551e+00,1.002276759010689133e+00
2.509999999999999787e+00,1.004789951162184947e+00,1.002313058335457585e+00
2.520000000000000018e+00,1.004957530005162747e+00,1.002344885790294349e+00
2.529999999999999805e+00,1.005117944912623074e+00,1.002372453963747745e+00
2.540000000000000036e+00,1.005271422549663507e+00,1.002395968381079250e+00
2.549999999999999822e+00,1.005418211713887899e+00,1.002415627657475827e+00
2.560000000000000053e+00,1.005558523792508430e+00,1.002431623651388826e+00
2.569999999999999840e+00,1.005692572861232259e+00,1.002444141617777174e+00
2.579999999999999627e+00,1.005820566010810824e+00,1.002453360361031498e+00
2.589999999999999858e+00,1.005942693562308810e+00,1.002459452387391536e+00
2.599999999999999645e+00,1.006059169258780805e+00,1.002462584056661221e+00
2.609999999999999876e+00,1.006170170539611330e+00,1.002462915733051130e+00
2.619999999999999662e+00,1.006275878744700814e+00,1.002460601934989093e+00
2.629999999999999893e+00,1.006376469309399946e+00,1.002455791483744862e+00
2.639999999999999680e+00,1.006472102002845981e+00,1.002448627650733615e+00
2.649999999999999911e+00,1.006562961020633473e+00,1.002439248303369279e+00
2.659999999999999698e+00,1.006649195291937193e+00,1.002427786049350233e+00
2.669999999999999929e+00,1.006730948626789468e+00,1.002414368379268339e+00
2.679999999999999716e+00,1.006808389839547679e+00,1.002399117807445617e+00
2.689999999999999947e+00,1.006881652960623486e+00,1.002382152010905081e+00
2.699999999999999734e+00,1.006950867446747777e+00,1.002363583966397576e+00
2.709999999999999964e+00,1.007016188229499010e+00,1.002343522085410887e+00
2.719999999999999751e+00,1.007077735942075503e+00,1.002322070347092087e+00
2.729999999999999982e+00,1.007135627087855534e+00,1.002299328429031355e+00
2.739999999999999769e+00,1.007190004100477543e+00,1.002275391835848906e+00
2.750000000000000000e+00,1.007240975544839712e+00,1.002250352025545466e+00
2.759999999999999787e+00,1.007288646266789378e+00,1.002224296533573256e+00
2.770000000000000018e+00,1.007333147427382558e+00,1.002197309094597921e+00
2.779999999999999805e+00,1.007374566729712484e+00,1.002169469761922116e+00
2.790000000000000036e+00,1.007413028485872220e+00,1.002140855024549415e+00
2.799999999999999822e+00,1.007448623717817737e+00,1.002111537921869910e+00
2.810000000000000053e+00,1.007481440336957634e+00,1.002081588155956160e+00
2.819999999999999840e+00,1.007511593141281470e+00,1.002051072201460613e+00
2.829999999999999627e+00,1.007539154045870911e+00,1.002020053413109624e+00
2.839999999999999858e+00,1.007564232062632570e+00,1.001988592130794720e+00
2.849999999999999645e+00,1.007586893490615587e+00,1.001956745782262903e+00
2.859999999999999876e+00,1.007607241935777109e+00,1.001924568983412422e+00
2.869999999999999662e+00,1.007625338447392327e+00,1.001892113636205339e+00
2.879999999999999893e+00,1.007641281597179805e+00,1.001859429024205994e+00
2.889999999999999680e+00,1.007655127513922055e+00,1.001826561905764024e+00
2.899999999999999911e+00,1.007666970053521682e+00,1.001793556604855917e+00
2.909999999999999698e+00,1.007676870745575659e+00,1.001760455099608871e+00
2.919999999999999929e+00,1.007684889053449107e+00,1.001727297108523818e+00
2.929999999999999716e+00,1.007691102202571187e+00,1.001694120174426272e+00
2.939999999999999947e+00,1.007695585487514700e+00,1.001660959746169421e+00
2.949999999999999734e+00,1.007698382154784911e+00,1.001627849258112990e+00
2.959999999999999964e+00,1.007699573593919595e+00,1.001594820207414083e+00
2.969999999999999751e+00,1.007699199313104588e+00,1.001561902229151535e+00
2.979999999999999982e+00,1.007697337041453478e+00,1.001529123169321744e+00
2.989999999999999769e+00,1.007694022759391350e+00,1.001496509155735959e+00
3.000000000000000000e+00,1.007689330784690585e+00,1.001464084666850995e+00
