# q,<omega_p(q)>,q**2/2,diff
1.000000000000000021e-02,3.884362038792336659e-08,3.868061911733739802e-08,1.630012705859685702e-10
2.000000000000000042e-02,1.550479648296543209e-07,1.547224764693495921e-07,3.254883603047288030e-10
2.999999999999999889e-02,3.480483938717127249e-07,3.481255720560364299e-07,-7.717818432370500664e-11
4.000000000000000083e-02,6.189942275225341422e-07,6.188899058773983682e-07,1.043216451357739373e-10
5.000000000000000278e-02,9.670356831432959181e-07,9.670154779334346923e-07,2.020520986122580987e-11
6.000000000000000472e-02,1.392533814752052874e-06,1.392502288224146143e-06,3.152652790673079021e-11
6.999999999999999278e-02,1.895403519389419637e-06,1.895350336749531556e-06,5.318263988808100552e-11
8.000000000000000167e-02,2.475652249203264795e-06,2.475559623509593473e-06,9.262569367132157043e-11
8.999999999999999667e-02,3.133278816792910880e-06,3.133130148504328293e-06,1.486682885825868299e-10
9.999999999999999167e-02,3.868290696080845068e-06,3.868061911733737922e-06,2.287843471071457574e-10
1.100000000000000006e-01,4.680690348082493451e-06,4.680354913197824055e-06,3.354348846693958595e-10
1.199999999999999956e-01,5.570485056695000982e-06,5.570009152896582879e-06,4.759037984181026422e-10
1.300000000000000044e-01,6.537681131557554727e-06,6.537024630830019477e-06,6.565007275352496212e-10
1.400000000000000133e-01,7.582284825529469844e-06,7.581401346998129614e-06,8.834785313402296683e-10
1.500000000000000222e-01,8.704304002240168298e-06,8.703139301400915831e-06,1.164700839252467719e-09
1.600000000000000033e-01,9.903746313996177991e-06,9.902238494038373892e-06,1.507819957804099032e-09
1.700000000000000122e-01,1.118062022821360249e-05,1.117869892491050634e-05,1.921303303096150465e-09
1.800000000000000211e-01,1.253493445387760616e-05,1.253252059401731825e-05,2.413859860287903493e-09
1.900000000000000022e-01,1.396669836252663789e-05,1.396370350135879947e-05,2.994861167838420491e-09
2.000000000000000111e-01,1.547592198364119393e-05,1.547224764693495508e-05,3.674336706238851089e-09
2.100000000000000200e-01,1.706261513137597829e-05,1.705815303074579184e-05,4.462100630186447174e-09
2.200000000000000011e-01,1.872678903940090805e-05,1.872141965279129622e-05,5.369386609611832882e-09
2.300000000000000100e-01,2.046845446036335529e-05,2.046204751307148514e-05,6.406947291870141847e-09
2.400000000000000189e-01,2.228762315903133653e-05,2.228003661158633829e-05,7.586547444998233266e-09
2.500000000000000000e-01,2.418430689914112118e-05,2.417538694833586921e-05,8.919950805251968895e-09
2.600000000000000089e-01,2.615851828013744101e-05,2.614809852332007791e-05,1.041975681736310197e-08
2.700000000000000178e-01,2.821027007291970561e-05,2.819817133653895760e-05,1.209873638074800985e-08
2.800000000000000266e-01,3.033957513723496856e-05,3.032560538799251846e-05,1.396974924245010649e-08
2.900000000000000355e-01,3.254644724103111190e-05,3.253040067768074692e-05,1.604656335036497555e-08
2.999999999999999889e-01,3.483090023535828118e-05,3.481255720560364977e-05,1.834302975463141363e-08
3.099999999999999978e-01,3.719294830544956645e-05,3.717207497176123039e-05,2.087333368833605178e-08
3.200000000000000067e-01,3.963260594031826900e-05,3.960895397615349557e-05,2.365196416477343246e-08
3.300000000000000155e-01,4.214988751339931268e-05,4.212319421878042496e-05,2.669329461888771387e-08
3.400000000000000244e-01,4.474480845956261882e-05,4.471479569964202536e-05,3.001275992059346210e-08
3.500000000000000333e-01,4.741738410941233740e-05,4.738375841873831708e-05,3.362569067402032671e-08
3.600000000000000422e-01,5.016763003717816593e-05,5.013008237606927302e-05,3.754766110889291549e-08
3.699999999999999956e-01,5.299556151932579797e-05,5.295376757163487963e-05,4.179394769091834610e-08
3.800000000000000044e-01,5.590119559349617813e-05,5.585481400543519789e-05,4.638158806098024349e-08
3.900000000000000133e-01,5.888454737896401477e-05,5.883322167747017360e-05,5.132570149384116549e-08
4.000000000000000222e-01,6.194563377699571858e-05,6.188899058773982031e-05,5.664318925589827223e-08
4.100000000000000311e-01,6.508447131601483721e-05,6.502212073624416512e-05,6.235057977067208837e-08
4.200000000000000400e-01,6.830107665845225936e-05,6.823261212298316737e-05,6.846453546909198658e-08
4.299999999999999933e-01,7.159546587006480997e-05,7.152046474795682707e-05,7.500112210798290033e-08
4.400000000000000022e-01,7.496765721406112922e-05,7.488567861116518488e-05,8.197860289594434326e-08
4.500000000000000111e-01,7.841766618001927533e-05,7.832825371260821368e-05,8.941246741106165501e-08
4.600000000000000200e-01,8.194551048014314426e-05,8.184819005228594058e-05,9.732042785720368318e-08
4.700000000000000289e-01,8.555120714967779033e-05,8.544548763019831138e-05,1.057195194794789597e-07
4.800000000000000377e-01,8.923477323838641259e-05,8.912014644634535317e-05,1.146267920410594171e-07
4.899999999999999911e-01,9.299622578817472586e-05,9.287216650072707951e-05,1.240592874476463461e-07
5.000000000000000000e-01,9.683558085173888980e-05,9.670154779334347685e-05,1.340330583954129446e-07
5.100000000000000089e-01,1.007528572813179966e-04,1.006082903241945452e-04,1.445669571234514022e-07
5.200000000000000178e-01,1.047480700066859348e-04,1.045923940932803116e-04,1.556759134056231401e-07
5.300000000000000266e-01,1.088212367927432847e-04,1.086538591006007355e-04,1.673776921425491329e-07
5.400000000000000355e-01,1.129723743306770259e-04,1.127926853461558304e-04,1.796889845211954760e-07
5.500000000000000444e-01,1.172014991765589660e-04,1.170088728299456369e-04,1.926263466133290711e-07
5.600000000000000533e-01,1.215086277317193637e-04,1.213024215519700738e-04,2.062061797492898991e-07
5.700000000000000622e-01,1.258937762206293806e-04,1.256733315122292359e-04,2.204447084001447295e-07
5.800000000000000711e-01,1.303569606701353301e-04,1.301216027107229877e-04,2.353579594123423810e-07
5.899999999999999689e-01,1.348981955446844165e-04,1.346472351474514240e-04,2.509603972329925350e-07
5.999999999999999778e-01,1.395174990517083775e-04,1.392502288224145991e-04,2.672702292937784163e-07
6.099999999999999867e-01,1.442148837626300653e-04,1.439305837356124045e-04,2.843000270176608123e-07
6.199999999999999956e-01,1.489903660399662360e-04,1.486882998870449216e-04,3.020661529213144233e-07
6.300000000000000044e-01,1.538439621337379666e-04,1.535233772767121232e-04,3.205848570258433648e-07
6.400000000000000133e-01,1.587756834209362675e-04,1.584358159046139823e-04,3.398675163222852642e-07
6.500000000000000222e-01,1.637855454305604764e-04,1.634256157707504717e-04,3.599296598100047446e-07
6.600000000000000311e-01,1.688735618435746426e-04,1.684927768751216999e-04,3.807849684529427368e-07
6.700000000000000400e-01,1.740397442225555627e-04,1.736372992177275855e-04,4.024450048279771836e-07
6.800000000000000488e-01,1.792841088696759289e-04,1.788591827985681014e-04,4.249260711078274751e-07
6.900000000000000577e-01,1.846066665642046847e-04,1.841584276176433561e-04,4.482389465613285592e-07
7.000000000000000666e-01,1.900074274317560443e-04,1.895350336749532683e-04,4.723937568027760346e-07
7.100000000000000755e-01,1.954864067530124347e-04,1.949890009704978108e-04,4.974057825146238707e-07
7.199999999999999734e-01,2.010436117570415962e-04,2.005203295042770107e-04,5.232822527645854347e-07
7.299999999999999822e-01,2.066790548949056557e-04,2.061290192762909766e-04,5.500356186146791639e-07
7.399999999999999911e-01,2.123927483244842155e-04,2.118150702865395185e-04,5.776780379446969527e-07
7.500000000000000000e-01,2.181846973764434681e-04,2.175784825350228263e-04,6.062148414206418139e-07
7.600000000000000089e-01,2.240549130503505292e-04,2.234192560217407916e-04,6.356570286097376014e-07
7.700000000000000178e-01,2.300034037206064518e-04,2.293373907466933600e-04,6.660129739130917804e-07
7.800000000000000266e-01,2.360301748141156589e-04,2.353328867098806944e-04,6.972881042349645276e-07
7.900000000000000355e-01,2.421352381430324867e-04,2.414057439113026862e-04,7.294942317298005151e-07
8.000000000000000444e-01,2.483185979653670852e-04,2.475559623509592812e-04,7.626356144078039363e-07
8.100000000000000533e-01,2.545802601843515133e-04,2.537835420288506692e-04,7.967181555008440511e-07
8.200000000000000622e-01,2.609202274650021720e-04,2.600884829449766605e-04,8.317445200255115141e-07
8.300000000000000711e-01,2.673385095184115058e-04,2.664707850993373092e-04,8.677244190741966248e-07
8.400000000000000799e-01,2.738351049862857746e-04,2.729304484919326695e-04,9.046564943531051027e-07
8.499999999999999778e-01,2.804100196689263526e-04,2.794674731227626331e-04,9.425465461637195543e-07
8.599999999999999867e-01,2.870632560547023968e-04,2.860818589918273083e-04,9.813970628750885543e-07
8.699999999999999956e-01,2.937948188445980297e-04,2.927736060991266952e-04,1.021212745471334477e-06
8.800000000000000044e-01,3.006047032855338648e-04,2.995427144446607395e-04,1.061988840873125291e-06
8.900000000000000133e-01,3.074929125286500584e-04,3.063891840284294955e-04,1.103728500220562889e-06
9.000000000000000222e-01,3.144594461011830720e-04,3.133130148504328547e-04,1.146431250750217304e-06
9.100000000000000311e-01,3.215042995698733736e-04,3.203142069106709798e-04,1.190092659202393859e-06
9.200000000000000400e-01,3.286274772541959710e-04,3.273927602091437623e-04,1.234717045052208684e-06
9.300000000000000488e-01,3.358289732206984042e-04,3.345486747458510939e-04,1.280298474847310370e-06
9.400000000000000577e-01,3.431087838844092694e-04,3.417819505207932455e-04,1.326833363616023928e-06
9.500000000000000666e-01,3.504669013531281642e-04,3.490925875339700546e-04,1.374313819158109670e-06
9.600000000000000755e-01,3.579033273350613106e-04,3.564805857853814127e-04,1.422741549679897889e-06
9.699999999999999734e-01,3.654180487547790263e-04,3.639459452750274824e-04,1.472103479751543827e-06
9.799999999999999822e-01,3.730110622637741844e-04,3.714886660029083180e-04,1.522396260865866314e-06
9.899999999999999911e-01,3.806823639865885623e-04,3.791087479690237027e-04,1.573616017564859627e-06
1.000000000000000000e+00,3.884319379249657296e-04,3.868061911733739074e-04,1.625746751591822161e-06
1.010000000000000009e+00,3.962597784495169124e-04,3.945809956159587696e-04,1.678782833558142840e-06
1.020000000000000018e+00,4.041658754305369307e-04,4.024331612967781808e-04,1.732714133758749952e-06
1.030000000000000027e+00,4.121502178337783213e-04,4.103626882158324120e-04,1.787529617945909227e-06
1.040000000000000036e+00,4.202127938394529345e-04,4.183695763731212465e-04,1.843217466331687968e-06
1.050000000000000044e+00,4.283535907557905011e-04,4.264538257686447385e-04,1.899764987145762668e-06
1.060000000000000053e+00,4.365725950749574434e-04,4.346154364024029421e-04,1.957158672554501315e-06
1.070000000000000062e+00,4.448697924588243904e-04,4.428544082743958573e-04,2.015384184428533048e-06
1.080000000000000071e+00,4.532451631937334984e-04,4.511707413846233216e-04,2.074421809110176766e-06
1.090000000000000080e+00,4.616987002180589065e-04,4.595644357330856060e-04,2.134264484973300534e-06
1.100000000000000089e+00,4.702303775478975430e-04,4.680354913197825478e-04,2.194886228114995268e-06
1.110000000000000098e+00,4.788401868493450406e-04,4.765839081447140386e-04,2.256278704631002000e-06
1.120000000000000107e+00,4.875281001368931741e-04,4.852096862078802953e-04,2.318413929012878849e-06
1.130000000000000115e+00,4.962941078043373857e-04,4.939128255092812636e-04,2.381282295056122086e-06
1.140000000000000124e+00,5.051381799277991419e-04,5.026933260489169436e-04,2.444853878882198225e-06
1.150000000000000133e+00,5.140603005038997531e-04,5.115511878267871727e-04,2.509112677112580389e-06
1.160000000000000142e+00,5.230604478116108146e-04,5.204864108428919507e-04,2.574036968718863838e-06
1.169999999999999929e+00,5.321385995218063649e-04,5.294989950972313862e-04,2.639604424574978729e-06
1.179999999999999938e+00,5.412947323356156505e-04,5.385889405898056960e-04,2.705791745809954518e-06
1.189999999999999947e+00,5.505288223635139812e-04,5.477562473206147716e-04,2.772575042899209571e-06
1.199999999999999956e+00,5.598408449296930853e-04,5.570009152896583963e-04,2.839929640034689028e-06
1.209999999999999964e+00,5.692307746007203677e-04,5.663229444969367869e-04,2.907830103783580825e-06
1.219999999999999973e+00,5.786985853183660355e-04,5.757223349424496180e-04,2.976250375916417515e-06
1.229999999999999982e+00,5.882442502725485902e-04,5.851990866261973234e-04,3.045163646351266816e-06
1.239999999999999991e+00,5.978677360092461441e-04,5.947531995481796863e-04,3.114536461066457797e-06
1.250000000000000000e+00,6.075690263411597999e-04,6.043846737083967066e-04,3.184352632763093327e-06
1.260000000000000009e+00,6.173480865797149539e-04,6.140935091068484928e-04,3.254577472866461083e-06
1.270000000000000018e+00,6.272048811687236207e-04,6.238797057435348280e-04,3.325175425188792687e-06
1.280000000000000027e+00,6.371393860973749912e-04,6.337432636184559291e-04,3.396122478919062077e-06
1.290000000000000036e+00,6.471515774677024518e-04,6.436841827316114708e-04,3.467394736090981082e-06
1.300000000000000044e+00,6.572414112392361641e-04,6.537024630830018867e-04,3.538948156234277345e-06
1.310000000000000053e+00,6.674088623490367737e-04,6.637981046726269601e-04,3.610757676409813606e-06
1.320000000000000062e+00,6.776539054124827927e-04,6.739711075004867994e-04,3.682797911995993288e-06
1.330000000000000071e+00,6.879764944705043378e-04,6.842214715665811877e-04,3.755022903923150093e-06
1.340000000000000080e+00,6.983766028569910085e-04,6.945491968709103419e-04,3.827405986080666643e-06
1.350000000000000089e+00,7.088541978105469951e-04,7.049542834134739366e-04,3.899914397073058446e-06
1.360000000000000098e+00,7.194092448070158689e-04,7.154367311942724057e-04,3.972513612743463172e-06
1.370000000000000107e+00,7.300417104787867636e-04,7.259965402133055322e-04,4.045170265481231459e-06
1.380000000000000115e+00,7.407515520894098838e-04,7.366337104705734246e-04,4.117841618836459196e-06
1.390000000000000124e+00,7.515387499081438829e-04,7.473482419660759744e-04,4.190507942067908491e-06
1.400000000000000133e+00,7.624032614297806404e-04,7.581401346998130732e-04,4.263126729967567190e-06
1.410000000000000142e+00,7.733450513380930001e-04,7.690093886717847211e-04,4.335662666308279060e-06
1.419999999999999929e+00,7.843640766175581777e-04,7.799560038819909179e-04,4.408072735567259738e-06
1.429999999999999938e+00,7.954603172474805682e-04,7.909799803304322060e-04,4.480336917048362289e-06
1.439999999999999947e+00,8.066337204032969803e-04,8.020813180171080430e-04,4.552402386188937264e-06
1.449999999999999956e+00,8.178842670591817939e-04,8.132600169420186459e-04,4.624250117163147995e-06
1.459999999999999964e+00,8.292119053077916767e-04,8.245160771051639062e-04,4.695828202627770447e-06
1.469999999999999973e+00,8.406166060069988986e-04,8.358494985065434988e-04,4.767107500455399806e-06
1.479999999999999982e+00,8.520983420433707583e-04,8.472602811461580740e-04,4.838060897212684286e-06
1.489999999999999991e+00,8.636570617590778745e-04,8.587484250240073067e-04,4.908636735070567858e-06
1.500000000000000000e+00,8.752927323932526609e-04,8.703139301400913052e-04,4.978802253161355648e-06
1.510000000000000009e+00,8.870053255207528860e-04,8.819567964944098528e-04,5.048529026343033174e-06
1.520000000000000018e+00,8.987948012944853684e-04,8.936770240869631662e-04,5.117777207522202117e-06
1.530000000000000027e+00,9.106611249722115081e-04,9.054746129177511371e-04,5.186512054460371002e-06
1.540000000000000036e+00,9.226042595835441586e-04,9.173495629867734402e-04,5.254696596770718452e-06
1.550000000000000044e+00,9.346241687614682348e-04,9.293018742940308344e-04,5.322294467437400402e-06
1.560000000000000053e+00,9.467208255950423793e-04,9.413315468395227776e-04,5.389278755519601692e-06
1.570000000000000062e+00,9.588941828567837085e-04,9.534385806232494867e-04,5.455602233534221843e-06
1.580000000000000071e+00,9.711442034952404720e-04,9.656229756452107448e-04,5.521227850029727241e-06
1.590000000000000080e+00,9.834708744783126396e-04,9.778847319054067688e-04,5.586142572905870851e-06
1.600000000000000089e+00,9.958741523339747527e-04,9.902238494038371249e-04,5.650302930137627785e-06
1.610000000000000098e+00,1.008353990093733589e-03,1.002640328140502572e-03,5.713661953231016777e-06
1.620000000000000107e+00,1.020910376682717443e-03,1.015134168115402677e-03,5.776208567314766035e-06
1.630000000000000115e+00,1.033543259119128763e-03,1.027705369328537222e-03,5.837889790591540770e-06
1.640000000000000124e+00,1.046252627815705792e-03,1.040353931779906642e-03,5.898696035799150250e-06
1.650000000000000133e+00,1.059038431071789585e-03,1.053079855469510719e-03,5.958575602278866346e-06
1.660000000000000142e+00,1.071900646035347376e-03,1.065883140397349237e-03,6.017505637998139811e-06
1.670000000000000151e+00,1.084839255232622783e-03,1.078763786563422629e-03,6.075468669200154159e-06
1.679999999999999938e+00,1.097854207675578878e-03,1.091721793967730461e-03,6.132413707848416787e-06
1.689999999999999947e+00,1.110945485144656554e-03,1.104757162610273168e-03,6.188322534383386073e-06
1.699999999999999956e+00,1.124113059814371273e-03,1.117869892491050532e-03,6.243167323320740827e-06
1.709999999999999964e+00,1.137356903980287284e-03,1.131059983610062771e-03,6.296920370224513494e-06
1.719999999999999973e+00,1.150676991112173668e-03,1.144327435967309233e-03,6.349555144864434467e-06
1.729999999999999982e+00,1.164073295468058935e-03,1.157672249562790570e-03,6.401045905268364783e-06
1.739999999999999991e+00,1.177545793033964346e-03,1.171094424396506781e-03,6.451368637457564892e-06
1.750000000000000000e+00,1.191094457796237080e-03,1.184593960468457649e-03,6.500497327779431248e-06
1.760000000000000009e+00,1.204719267457152491e-03,1.198170857778642958e-03,6.548409678509533108e-06
1.770000000000000018e+00,1.218420198782607568e-03,1.211825116327063141e-03,6.595082455544427208e-06
1.780000000000000027e+00,1.232197218000569616e-03,1.225556736113717982e-03,6.640481886851633958e-06
1.790000000000000036e+00,1.246050328901443256e-03,1.239365717138607263e-03,6.684611762835992316e-06
1.800000000000000044e+00,1.259979498812716656e-03,1.253252059401731419e-03,6.727439410985237150e-06
1.810000000000000053e+00,1.273984696024165527e-03,1.267215762903090232e-03,6.768933121075295170e-06
1.820000000000000062e+00,1.288065927924920192e-03,1.281256827642683919e-03,6.809100282236272769e-06
1.830000000000000071e+00,1.302223151477006425e-03,1.295375253620512047e-03,6.847897856494377516e-06
1.840000000000000080e+00,1.316456376177911440e-03,1.309571040836575049e-03,6.885335341336390816e-06
1.850000000000000089e+00,1.330765560535939526e-03,1.323844189290872058e-03,6.921371245067467134e-06
1.860000000000000098e+00,1.345150716112876932e-03,1.338194698983404375e-03,6.956017129472556043e-06
1.870000000000000107e+00,1.359611803257575625e-03,1.352622569914171350e-03,6.989233343404274712e-06
1.880000000000000115e+00,1.374148822308610693e-03,1.367127802083172982e-03,7.021020225437711246e-06
1.890000000000000124e+00,1.388761775693365084e-03,1.381710395490409271e-03,7.051380202955813067e-06
1.900000000000000133e+00,1.403450625048652256e-03,1.396370350135880218e-03,7.080274912772037757e-06
1.910000000000000142e+00,1.418215374686736079e-03,1.411107666019585389e-03,7.107708667150689635e-06
1.920000000000000151e+00,1.433056015790206425e-03,1.425922343141525651e-03,7.133672648680774650e-06
1.929999999999999938e+00,1.447972540765507955e-03,1.440814381501700353e-03,7.158159263807601508e-06
1.939999999999999947e+00,1.462964942514406990e-03,1.455783781100109930e-03,7.181161414297060341e-06
1.949999999999999956e+00,1.478033215833913366e-03,1.470830541936754164e-03,7.202673897159202546e-06
1.959999999999999964e+00,1.493177354986362834e-03,1.485954664011633272e-03,7.222690974729561314e-06
1.969999999999999973e+00,1.508397356960752269e-03,1.501156147324746604e-03,7.241209636005664987e-06
1.979999999999999982e+00,1.523693219188527364e-03,1.516434991876094811e-03,7.258227312432552827e-06
1.989999999999999991e+00,1.539064938479973565e-03,1.531791197665677891e-03,7.273740814295673318e-06
2.000000000000000000e+00,1.554512514339508782e-03,1.547224764693495630e-03,7.287749646013152310e-06
2.009999999999999787e+00,1.570035931793112294e-03,1.562735692959547592e-03,7.300238833564702198e-06
2.020000000000000018e+00,1.585635222922452368e-03,1.578323982463835078e-03,7.311240458617290078e-06
2.029999999999999805e+00,1.601310365918210115e-03,1.593989633206356355e-03,7.320732711853759900e-06
2.040000000000000036e+00,1.617061421386756584e-03,1.609732645187112723e-03,7.328776199643860859e-06
2.049999999999999822e+00,1.632888189218884793e-03,1.625553018406103315e-03,7.335170812781477770e-06
2.059999999999999609e+00,1.648790994973965002e-03,1.641450752863328781e-03,7.340242110636220965e-06
2.069999999999999840e+00,1.664769595424727940e-03,1.657425848558789555e-03,7.343746865938385188e-06
2.079999999999999627e+00,1.680824098104649004e-03,1.673478305492484336e-03,7.345792612164668209e-06
2.089999999999999858e+00,1.696954469116706068e-03,1.689608123664414424e-03,7.346345452291644026e-06
2.099999999999999645e+00,1.655626143648165297e-03,1.705815303074578520e-03,-5.018915942641322299e-05
2.109999999999999876e+00,1.608745650621229385e-03,1.722099843722977707e-03,-1.133541931017483222e-04
2.119999999999999662e+00,1.598069828396246920e-03,1.738461745609610901e-03,-1.403919172133639807e-04
2.129999999999999893e+00,1.598146963973731943e-03,1.754901008734479836e-03,-1.567540447607478939e-04
2.139999999999999680e+00,1.606666104010802225e-03,1.771417633097582562e-03,-1.647515290867803371e-04
2.149999999999999911e+00,1.627328572740494722e-03,1.788011618698920812e-03,-1.606830459584260903e-04
2.159999999999999698e+00,1.678412629739907359e-03,1.804682965538492853e-03,-1.262703357985854938e-04
2.169999999999999929e+00,1.828730585117178216e-03,1.821431673616299984e-03,7.298911500878231193e-06
2.179999999999999716e+00,1.845544395024311399e-03,1.838257742932341557e-03,7.286652091969842565e-06
2.189999999999999947e+00,1.862434205486116455e-03,1.855161173486618437e-03,7.273031999498018318e-06
2.199999999999999734e+00,1.879400052950457424e-03,1.872141965279129324e-03,7.258087671328100621e-06
2.209999999999999964e+00,1.896441910153173543e-03,1.889200118309875519e-03,7.241791843298024320e-06
2.219999999999999751e+00,1.913559813471404393e-03,1.906335632578855721e-03,7.224180892548672309e-06
2.229999999999999982e+00,1.930753779363837686e-03,1.923548508086070797e-03,7.205271277766888555e-06
2.239999999999999769e+00,1.948023832637025849e-03,1.940838744831520314e-03,7.185087805505535261e-06
2.250000000000000000e+00,1.965369981397406280e-03,1.958206342815205572e-03,7.163638582200707733e-06
2.259999999999999787e+00,1.982792248508614009e-03,1.975651302037124187e-03,7.140946471489821590e-06
2.270000000000000018e+00,2.000290651720659698e-03,1.993173622497278110e-03,7.117029223381587943e-06
2.279999999999999805e+00,2.017865210582693841e-03,2.010773304195666474e-03,7.091906387027367004e-06
2.290000000000000036e+00,2.035515948922166432e-03,2.028450347132290145e-03,7.065601789876287120e-06
2.299999999999999822e+00,2.053242870839994128e-03,2.046204751307147823e-03,7.038119532846304205e-06
2.310000000000000053e+00,2.071046006003976828e-03,2.064036516720240376e-03,7.009489283736451692e-06
2.319999999999999840e+00,2.088925388319260151e-03,2.081945643371566936e-03,6.979744947693215101e-06
2.329999999999999627e+00,2.106881039220043564e-03,2.099932131261128803e-03,6.948907958914760791e-06
2.339999999999999858e+00,2.124912970432725999e-03,2.117995980388925545e-03,6.916990043800454180e-06
2.349999999999999645e+00,2.143021206566367472e-03,2.136137190754956727e-03,6.884015811410744423e-06
2.359999999999999876e+00,2.161205739965975023e-03,2.154355762359222784e-03,6.849977606752238879e-06
2.369999999999999662e+00,2.179466649283839496e-03,2.172651695201723715e-03,6.814954082115780992e-06
2.379999999999999893e+00,2.197803921848932168e-03,2.191024989282459087e-03,6.778932566473081650e-06
2.389999999999999680e+00,2.216217572216164135e-03,2.209475644601428031e-03,6.741927614736104024e-06
2.399999999999999911e+00,2.234707638318296496e-03,2.228003661158633585e-03,6.703977159662911217e-06
2.409999999999999698e+00,2.253274257109488202e-03,2.246609038954072279e-03,6.665218155415923718e-06
2.419999999999999929e+00,2.271917117934061422e-03,2.265291777987747147e-03,6.625339946314274392e-06
2.429999999999999716e+00,2.290636778318204132e-03,2.284051878259654722e-03,6.584900058549409546e-06
2.439999999999999947e+00,2.309432675195026777e-03,2.302889339769798472e-03,6.543335425228304775e-06
2.449999999999999734e+00,2.328305170548054109e-03,2.321804162518176229e-03,6.501008029877880512e-06
2.459999999999999964e+00,2.347254266969185914e-03,2.340796346504789294e-03,6.457920464396620791e-06
2.469999999999999751e+00,2.366279973150431544e-03,2.359865891729636365e-03,6.414081420795178512e-06
2.479999999999999982e+00,2.385382236251380132e-03,2.379012798192718745e-03,6.369438058661386348e-06
2.489999999999999769e+00,2.404561150348762024e-03,2.398237065894035566e-03,6.324084454726458526e-06
2.500000000000000000e+00,2.423816737220709470e-03,2.417538694833586826e-03,6.278042387122644008e-06
2.509999999999999787e+00,2.443149022412507542e-03,2.436917685011372094e-03,6.231337401135447762e-06
2.520000000000000018e+00,2.462557994382986743e-03,2.456374036427393971e-03,6.183957955592771921e-06
2.529999999999999805e+00,2.482043705494655066e-03,2.475907749081648120e-03,6.135956413006946053e-06
2.540000000000000036e+00,2.501606173622271910e-03,2.495518822974139312e-03,6.087350648132597991e-06
2.549999999999999822e+00,2.521245419728825998e-03,2.515207258104863210e-03,6.038161623962787911e-06
2.560000000000000053e+00,2.540961495840710505e-03,2.534973054473823716e-03,5.988441366886788908e-06
2.569999999999999840e+00,2.560754375425528060e-03,2.554816212081016929e-03,5.938163344511131203e-06
2.579999999999999627e+00,2.580624119100200734e-03,2.574736730926445016e-03,5.887388173755718490e-06
2.589999999999999858e+00,2.600570764905270598e-03,2.594734611010109278e-03,5.836153895161320243e-06
2.599999999999999645e+00,2.620594286814997061e-03,2.614809852332006680e-03,5.784434482990381821e-06
2.609999999999999876e+00,2.640694739153510388e-03,2.634962454892140257e-03,5.732284261370131084e-06
2.619999999999999662e+00,2.660872166510135865e-03,2.655192418690506973e-03,5.679747819628891414e-06
2.629999999999999893e+00,2.681126542969729330e-03,2.675499743727108998e-03,5.626799242620331848e-06
2.639999999999999680e+00,2.701457922287044903e-03,2.695884430001945897e-03,5.573492285099006238e-06
2.649999999999999911e+00,2.721866347374423799e-03,2.716346477515017670e-03,5.519869859406129758e-06
2.659999999999999698e+00,2.742351789763801742e-03,2.736885886266323883e-03,5.465903497477858641e-06
2.669999999999999929e+00,2.762914300984836442e-03,2.757502656255864971e-03,5.411644728971470170e-06
2.679999999999999716e+00,2.783553901251357640e-03,2.778196787483640500e-03,5.357113767717140013e-06
2.689999999999999947e+00,2.804270612887045135e-03,2.798968279949650903e-03,5.302332937394231560e-06
2.699999999999999734e+00,2.825064487476984521e-03,2.819817133653894879e-03,5.247353823089641323e-06
2.709999999999999964e+00,2.845935488688618176e-03,2.840743348596375464e-03,5.192140092242711336e-06
2.719999999999999751e+00,2.866883670232144282e-03,2.861746924777088755e-03,5.136745455055526099e-06
2.729999999999999982e+00,2.887909048599855612e-03,2.882827862196038655e-03,5.081186403816956992e-06
2.739999999999999769e+00,2.909011645996523610e-03,2.903986160853221261e-03,5.025485143302348828e-06
2.750000000000000000e+00,2.930191513797585166e-03,2.925221820748639609e-03,4.969693048945556663e-06
2.759999999999999787e+00,2.951448611385132370e-03,2.946534841882292397e-03,4.913769502839972908e-06
2.770000000000000018e+00,2.972782991814265467e-03,2.967925224254180060e-03,4.857767560085407554e-06
2.779999999999999805e+00,2.994194672506561225e-03,2.989392967864302596e-03,4.801704642258628614e-06
2.790000000000000036e+00,3.015683672164235201e-03,3.010938072712659574e-03,4.745599451575627237e-06
2.799999999999999822e+00,3.037250011608376606e-03,3.032560538799251425e-03,4.689472809125180136e-06
2.810000000000000053e+00,3.058893737449141278e-03,3.054260366124077718e-03,4.633371325063560114e-06
2.819999999999999840e+00,3.080614810781858066e-03,3.076037554687137583e-03,4.577256094720483226e-06
2.829999999999999627e+00,3.102413278503084789e-03,3.097892104488433624e-03,4.521174014651165030e-06
2.839999999999999858e+00,3.124289157530343950e-03,3.119824015527963672e-03,4.465142002380278335e-06
2.849999999999999645e+00,3.146242466637807437e-03,3.141833287805729027e-03,4.409178832078409355e-06
2.859999999999999876e+00,3.168273221213542806e-03,3.163919921321728824e-03,4.353299891813981748e-06
2.869999999999999662e+00,3.190381439437740916e-03,3.186083916075963061e-03,4.297523361777855211e-06
2.879999999999999893e+00,3.212567136566093877e-03,3.208325272068432172e-03,4.241864497661704952e-06
2.889999999999999680e+00,3.234830329696944829e-03,3.230643989299134856e-03,4.186340397809972663e-06
2.899999999999999911e+00,3.257171066021852593e-03,3.253040067768074584e-03,4.130998253778009333e-06
2.909999999999999698e+00,3.279589296642189834e-03,3.275513507475246583e-03,4.075789166943250691e-06
2.919999999999999929e+00,3.302085068245521823e-03,3.298064308420655625e-03,4.020759824866198401e-06
2.929999999999999716e+00,3.324658395145296125e-03,3.320692470604296939e-03,3.965924540999185566e-06
2.939999999999999947e+00,3.347309292355677996e-03,3.343397994026173995e-03,3.911298329504001026e-06
2.949999999999999734e+00,3.370037772397311681e-03,3.366180878686285925e-03,3.856893711025755761e-06
2.959999999999999964e+00,3.392843849289893174e-03,3.389041124584632296e-03,3.802724705260877858e-06
2.969999999999999751e+00,3.415727535730307251e-03,3.411978731721213541e-03,3.748804009093709838e-06
2.979999999999999982e+00,3.438688845134542718e-03,3.434993700096029227e-03,3.695145038513491381e-06
2.989999999999999769e+00,3.461727788651206353e-03,3.458086029709079787e-03,3.641758942126566145e-06
3.000000000000000000e+00,3.484844413860210387e-03,3.481255720560365221e-03,3.588693299845166496e-06
