# q,<omega_p(q)>,q**2/2,diff
1.000000000000000021e-02,1.147973063377211290e-05,1.150990172610270468e-05,-3.017109233059177341e-08
2.000000000000000042e-02,4.603863910419318063e-05,4.603960690441081871e-05,-9.678002176380763946e-10
2.999999999999999889e-02,1.035904478622327895e-04,1.035891155349243472e-04,1.332327308442332776e-09
4.000000000000000083e-02,1.841616759570341758e-04,1.841584276176432748e-04,3.248339390900982851e-09
5.000000000000000278e-02,2.877554840592721022e-04,2.877475431525677169e-04,7.940906704385301135e-09
6.000000000000000472e-02,4.143730122979179991e-04,4.143564621396974971e-04,1.655015822050196275e-08
6.999999999999999278e-02,5.640159809906070652e-04,5.639851845790324258e-04,3.079641157463942208e-08
8.000000000000000167e-02,7.366863818858162237e-04,7.366337104705730993e-04,5.267141524312440176e-08
8.999999999999999667e-02,9.323865333852525243e-04,9.323020398143190297e-04,8.449357093349464665e-08
9.999999999999999167e-02,1.151119059321746877e-03,1.150990172610270434e-03,1.288867114764436633e-07
1.100000000000000006e-01,1.392886887322960631e-03,1.392698108858427637e-03,1.887784645329942251e-07
1.199999999999999956e-01,1.657693193730762349e-03,1.657425848558789555e-03,2.673451719727940740e-07
1.300000000000000044e-01,1.945541496616826072e-03,1.945173391711357488e-03,3.681049054685830990e-07
1.400000000000000133e-01,2.256435549751593418e-03,2.255940738316130571e-03,4.948114354628475875e-07
1.500000000000000222e-01,2.590379394432765821e-03,2.589727888373109452e-03,6.515060596563697348e-07
1.600000000000000033e-01,2.947377368562746885e-03,2.946534841882292397e-03,8.425266804544875865e-07
1.700000000000000122e-01,3.327434020020086491e-03,3.326361598843682009e-03,1.072421176404481785e-06
1.800000000000000211e-01,3.730554209569714522e-03,3.729208159257276986e-03,1.346050312437535590e-06
1.900000000000000022e-01,4.156742978706690073e-03,4.155074523123077762e-03,1.668455583612310500e-06
2.000000000000000111e-01,4.606005681969217030e-03,4.603960690441083470e-03,2.044991528133560665e-06
2.100000000000000200e-01,5.078347871915430897e-03,5.075866661211294976e-03,2.481210704135920764e-06
2.200000000000000011e-01,5.573775268165682799e-03,5.570792435433710547e-03,2.982832731972251405e-06
2.300000000000000100e-01,6.092293903612018037e-03,6.088738013108331917e-03,3.555890503686119641e-06
2.400000000000000189e-01,6.633909968860597119e-03,6.629703394235159954e-03,4.206574625437164983e-06
2.500000000000000000e-01,7.198629847707685957e-03,7.193688578814191187e-03,4.941268893494769887e-06
2.600000000000000089e-01,7.786460029768192508e-03,7.780693566845429954e-03,5.766462922762553844e-06
2.700000000000000178e-01,8.397407318728804596e-03,8.390718358328873652e-03,6.688960399930943268e-06
2.800000000000000266e-01,9.031478613371415193e-03,9.023762953264522282e-03,7.715660106892910375e-06
2.900000000000000355e-01,9.688680865500997122e-03,9.679827351652377579e-03,8.853513848619543047e-06
2.999999999999999889e-01,1.036902134257078334e-02,1.035891155349243434e-02,1.010978907834900187e-05
3.099999999999999978e-01,1.107250746376075602e-02,1.106101555878469950e-02,1.149190497605652450e-05
3.200000000000000067e-01,1.179914643735493519e-02,1.178613936752916959e-02,1.300706982576560478e-05
3.300000000000000155e-01,1.254894576184830551e-02,1.253428297972584635e-02,1.466278212245916701e-05
3.400000000000000244e-01,1.332191328425461757e-02,1.330544639537472804e-02,1.646688887988953520e-05
3.500000000000000333e-01,1.411805642472885834e-02,1.409962961447581639e-02,1.842681025304195030e-05
3.600000000000000422e-01,1.493738319068632116e-02,1.491683263702910794e-02,2.055055365721321359e-05
3.699999999999999956e-01,1.577990107225426750e-02,1.575705546303460269e-02,2.284560921966480307e-05
3.800000000000000044e-01,1.664561801590853582e-02,1.662029809249231105e-02,2.531992341622477105e-05
3.900000000000000133e-01,1.753454166829750832e-02,1.750656052540221913e-02,2.798114289528919052e-05
4.000000000000000222e-01,1.844668018867751114e-02,1.841584276176433388e-02,3.083742691317725715e-05
4.100000000000000311e-01,1.938204121420229395e-02,1.934814480157865529e-02,3.389641262363865537e-05
4.200000000000000400e-01,2.034063231274305106e-02,2.030346664484517991e-02,3.716566789787115188e-05
4.299999999999999933e-01,2.132246138944246527e-02,2.128180829156390425e-02,4.065309787856102863e-05
4.400000000000000022e-01,2.232753632267133609e-02,2.228316974173484219e-02,4.436658093649389900e-05
4.500000000000000111e-01,2.335586425635335223e-02,2.330755099535798333e-02,4.831326099536889518e-05
4.600000000000000200e-01,2.440745263872210954e-02,2.435495205243332767e-02,5.250058628878187528e-05
4.700000000000000289e-01,2.548230931039720260e-02,2.542537291296088214e-02,5.693639743632045169e-05
4.800000000000000377e-01,2.658044127408728738e-02,2.651881357694063981e-02,6.162769714664756426e-05
4.899999999999999911e-01,2.770185561877326272e-02,2.763527404437259721e-02,6.658157440066550525e-05
5.000000000000000000e-01,2.884655898366241325e-02,2.877475431525676475e-02,7.180466840564850295e-05
5.100000000000000089e-01,3.001455837336362842e-02,2.993725438959313895e-02,7.730398377048947056e-05
5.200000000000000178e-01,3.120586064589220623e-02,3.112277426738171981e-02,8.308637851048641942e-05
5.300000000000000266e-01,3.242047152227528484e-02,3.233131394862250735e-02,8.915757365277748869e-05
5.400000000000000355e-01,3.365839739979582801e-02,3.356287343331549461e-02,9.552396648033339988e-05
5.500000000000000444e-01,3.491964412783755273e-02,3.481745272146069548e-02,1.021914063768572523e-04
5.600000000000000533e-01,3.620421729526045185e-02,3.609505181305808913e-02,1.091654822023627180e-04
5.700000000000000622e-01,3.751212220235425332e-02,3.739567070810770333e-02,1.164514942465499914e-04
5.800000000000000711e-01,3.884336346972392523e-02,3.871930940660951032e-02,1.240540631144149142e-04
5.899999999999999689e-01,4.019794654577814319e-02,4.006596790856351703e-02,1.319786372146261599e-04
5.999999999999999778e-01,4.157587541868531383e-02,4.143564621396973735e-02,1.402292047155764831e-04
6.099999999999999867e-01,4.297715367264767772e-02,4.282834432282817128e-02,1.488093498195064424e-04
6.199999999999999956e-01,4.440178535675756016e-02,4.424406223513879799e-02,1.577231216187621743e-04
6.300000000000000044e-01,4.584977420516034990e-02,4.568279995090164525e-02,1.669742542587046574e-04
6.400000000000000133e-01,4.732112219906867839e-02,4.714455747011667835e-02,1.765647289520000385e-04
6.500000000000000222e-01,4.881583225197082959e-02,4.862933479278393895e-02,1.864974591868906462e-04
6.600000000000000311e-01,5.033390642477119509e-02,5.013713191890338539e-02,1.967745058678097014e-04
6.700000000000000400e-01,5.187534632602545936e-02,5.166794884847505931e-02,2.073974775504000556e-04
6.800000000000000488e-01,5.344015314331907601e-02,5.322178558149891214e-02,2.183675618201638691e-04
6.900000000000000577e-01,5.502832756471765646e-02,5.479864211797499246e-02,2.296854467426640012e-04
7.000000000000000666e-01,5.663986987103496185e-02,5.639851845790326557e-02,2.413514131316962796e-04
7.100000000000000755e-01,5.827477920500459541e-02,5.802141460128375228e-02,2.533646037208431290e-04
7.199999999999999734e-01,5.993305598697342557e-02,5.966733054811641790e-02,2.657254388570076675e-04
7.299999999999999822e-01,6.161469842313593154e-02,6.133626629840131794e-02,2.784321247346135952e-04
7.399999999999999911e-01,6.331970412440707241e-02,6.302822185213841077e-02,2.914822722686616352e-04
7.500000000000000000e-01,6.504807205364576683e-02,6.474319720932772415e-02,3.048748443180426815e-04
7.600000000000000089e-01,6.679979814619327327e-02,6.648119236996924419e-02,3.186057762240290803e-04
7.700000000000000178e-01,6.857487967380479499e-02,6.824220733406294315e-02,3.326723397418518413e-04
7.800000000000000266e-01,7.037331283575457008e-02,7.002624210160887652e-02,3.470707341456935602e-04
7.900000000000000355e-01,7.219509377649901971e-02,7.183329667260698881e-02,3.617971038920309024e-04
8.000000000000000444e-01,7.404021629668901261e-02,7.366337104705733552e-02,3.768452496316770928e-04
8.100000000000000533e-01,7.590867546951760025e-02,7.551646522495986114e-02,3.922102445577391183e-04
8.200000000000000622e-01,7.780046503936090263e-02,7.739257920631462118e-02,4.078858330462814541e-04
8.300000000000000711e-01,7.971557878252434615e-02,7.929171299112154625e-02,4.238657914027998963e-04
8.400000000000000799e-01,8.165400823399850128e-02,8.121386657938071962e-02,4.401416546177816524e-04
8.499999999999999778e-01,8.361574760202317158e-02,8.315903997109204415e-02,4.567076309311274285e-04
8.599999999999999867e-01,8.560078736538072330e-02,8.512723316625561698e-02,4.735541991251063232e-04
8.699999999999999956e-01,8.760911904423979157e-02,8.711844616487136872e-02,4.906728793684228540e-04
8.800000000000000044e-01,8.964073334481433009e-02,8.913267896693936876e-02,5.080543778749613271e-04
8.900000000000000133e-01,9.169561877345991374e-02,9.116993157245953383e-02,5.256872010003799112e-04
9.000000000000000222e-01,9.377376685198915429e-02,9.323020398143193332e-02,5.435628705572209673e-04
9.100000000000000311e-01,9.587516722366691557e-02,9.531349619385651173e-02,5.616710298104038435e-04
9.200000000000000400e-01,9.799980460110055414e-02,9.741980820973331068e-02,5.799963913672434579e-04
9.300000000000000488e-01,1.001476698779478064e-01,9.954914002906230241e-02,5.985298488855039789e-04
9.400000000000000577e-01,1.023187514297433515e-01,1.017014916518435286e-01,6.172597778998228923e-04
9.500000000000000666e-01,1.045130331951869690e-01,1.038768630780769336e-01,6.361701171100353491e-04
9.600000000000000755e-01,1.067305035195455082e-01,1.060752543077625593e-01,6.552492117829489260e-04
9.699999999999999734e-01,1.089711483850265422e-01,1.082966653409003499e-01,6.744830441261923104e-04
9.799999999999999822e-01,1.112349529681297827e-01,1.105410961774903889e-01,6.938567906393938722e-04
9.899999999999999911e-01,1.135219026515907753e-01,1.128085468175326067e-01,7.133558340581686030e-04
1.000000000000000000e+00,1.158319821374382275e-01,1.150990172610270590e-01,7.329648764111684756e-04
1.010000000000000009e+00,1.181651758197701241e-01,1.174125075079737179e-01,7.526683117964061420e-04
1.020000000000000018e+00,1.205214676418421144e-01,1.197490175583725558e-01,7.724500834695585683e-04
1.030000000000000027e+00,1.229008412385049626e-01,1.221085474122236281e-01,7.922938262813344901e-04
1.040000000000000036e+00,1.253032786500644924e-01,1.244910970695268793e-01,8.121815805376131348e-04
1.050000000000000044e+00,1.277287653112128551e-01,1.268966665302823371e-01,8.320987809305180338e-04
1.060000000000000053e+00,1.301772826239583347e-01,1.293252557944900294e-01,8.520268294683053245e-04
1.070000000000000062e+00,1.326488117879330852e-01,1.317768648621499006e-01,8.719469257831846676e-04
1.080000000000000071e+00,1.351433374138132637e-01,1.342514937332619784e-01,8.918436805512852672e-04
1.090000000000000080e+00,1.376608389241966157e-01,1.367491424078262630e-01,9.116965163703527608e-04
1.100000000000000089e+00,1.402013006366134018e-01,1.392698108858427819e-01,9.314897507706199065e-04
1.110000000000000098e+00,1.427647014000652803e-01,1.418134991673114798e-01,9.512022327538005584e-04
1.120000000000000107e+00,1.453510255017954611e-01,1.443802072522323565e-01,9.708182495631045850e-04
1.130000000000000115e+00,1.479602512882027543e-01,1.469699351406054677e-01,9.903161475972865890e-04
1.140000000000000124e+00,1.505923614271462707e-01,1.495826828324308133e-01,1.009678594715457400e-03
1.150000000000000133e+00,1.532473370101197219e-01,1.522184503277083378e-01,1.028886682411384035e-03
1.160000000000000142e+00,1.559251607607475276e-01,1.548772376264380413e-01,1.047923134309486359e-03
1.169999999999999929e+00,1.586258106346318808e-01,1.575590447286198958e-01,1.066765906011984955e-03
1.179999999999999938e+00,1.613492692787371063e-01,1.602638716342540681e-01,1.085397644483038215e-03
1.189999999999999947e+00,1.640955178642965195e-01,1.629917183433404193e-01,1.103799520956100233e-03
1.199999999999999956e+00,1.668645375876782466e-01,1.657425848558789494e-01,1.121952731799297220e-03
1.209999999999999964e+00,1.696563097751159210e-01,1.685164711718696862e-01,1.139838603246234872e-03
1.219999999999999973e+00,1.724708159280132214e-01,1.713133772913126851e-01,1.157438636700536261e-03
1.229999999999999982e+00,1.753080376494519921e-01,1.741333032142078352e-01,1.174734435244156883e-03
1.239999999999999991e+00,1.781679549416976815e-01,1.769762489405551920e-01,1.191706001142489590e-03
1.250000000000000000e+00,1.810505533753675733e-01,1.798422144703547554e-01,1.208338905012817932e-03
1.260000000000000009e+00,1.839558134574729165e-01,1.827311998036065810e-01,1.224613653866335472e-03
1.270000000000000018e+00,1.868837158787127195e-01,1.856432049403105577e-01,1.240510938402161756e-03
1.280000000000000027e+00,1.898342471686317867e-01,1.885782298804667134e-01,1.256017288165073298e-03
1.290000000000000036e+00,1.928073886187406938e-01,1.915362746240751868e-01,1.271113994665507008e-03
1.300000000000000044e+00,1.958031218237077375e-01,1.945173391711357558e-01,1.285782652571981766e-03
1.310000000000000053e+00,1.988214345308049746e-01,1.975214235216485592e-01,1.300011009156415431e-03
1.320000000000000062e+00,2.018623070769191286e-01,2.005485276756135415e-01,1.313779401305587013e-03
1.330000000000000071e+00,2.049257281852064350e-01,2.035986516330308138e-01,1.327076552175621149e-03
1.340000000000000080e+00,2.080116789850766368e-01,2.066717953939002372e-01,1.339883591176399547e-03
1.350000000000000089e+00,2.111201471012483233e-01,2.097679589582218396e-01,1.352188143026483713e-03
1.360000000000000098e+00,2.142511207981118992e-01,2.128871423259956486e-01,1.363978472116250673e-03
1.370000000000000107e+00,2.174045825031588053e-01,2.160293454972217475e-01,1.375237005937057777e-03
1.380000000000000115e+00,2.205805215241222195e-01,2.191945684718999698e-01,1.385953052222249626e-03
1.390000000000000124e+00,2.237789256010492556e-01,2.223828112500304266e-01,1.396114351018828970e-03
1.400000000000000133e+00,2.269997830485725732e-01,2.255940738316130623e-01,1.405709216959510899e-03
1.410000000000000142e+00,2.302430828410632069e-01,2.288283562166479601e-01,1.414726624415246770e-03
1.419999999999999929e+00,2.335088168125977470e-01,2.320856584051349536e-01,1.423158407462793429e-03
1.429999999999999938e+00,2.367969705341523012e-01,2.353659803970742093e-01,1.430990137078091973e-03
1.439999999999999947e+00,2.401075347298055052e-01,2.386693221924656716e-01,1.438212537339833563e-03
1.449999999999999956e+00,2.434405056259729694e-01,2.419956837913093961e-01,1.444821834663573279e-03
1.459999999999999964e+00,2.467958730399603118e-01,2.453450651936052718e-01,1.450807846355040009e-03
1.469999999999999973e+00,2.501736297993077396e-01,2.487174663993533541e-01,1.456163399954385484e-03
1.479999999999999982e+00,2.535737694596692515e-01,2.521128874085536431e-01,1.460882051115608427e-03
1.489999999999999991e+00,2.569962862669032400e-01,2.555313282212061665e-01,1.464958045697073441e-03
1.500000000000000000e+00,2.604411725992772375e-01,2.589727888373108966e-01,1.468383761966340906e-03
1.510000000000000009e+00,2.639084292858369096e-01,2.624372692568677778e-01,1.471160028969131783e-03
1.520000000000000018e+00,2.673980502076366284e-01,2.659247694798769768e-01,1.473280727759651576e-03
1.530000000000000027e+00,2.709100298101432824e-01,2.694352895063382713e-01,1.474740303805011088e-03
1.540000000000000036e+00,2.744443713471875212e-01,2.729688293362517726e-01,1.475542010935748660e-03
1.550000000000000044e+00,2.780010680318156235e-01,2.765253889696174805e-01,1.475679062198143043e-03
1.560000000000000053e+00,2.815801247262355034e-01,2.801049684064355061e-01,1.475156319799997284e-03
1.570000000000000062e+00,2.851815360111031317e-01,2.837075676467056273e-01,1.473968364397504338e-03
1.580000000000000071e+00,2.888053083609456451e-01,2.873331866904279552e-01,1.472121670517689829e-03
1.590000000000000080e+00,2.924514376948081917e-01,2.909818255376024898e-01,1.469612157205701930e-03
1.600000000000000089e+00,2.961199321080457136e-01,2.946534841882293421e-01,1.466447919816371570e-03
1.610000000000000098e+00,2.998107888303265245e-01,2.983481626423082900e-01,1.462626188018234519e-03
1.620000000000000107e+00,3.035240145531197253e-01,3.020658608998394445e-01,1.458153653280280793e-03
1.630000000000000115e+00,3.072596138009675570e-01,3.058065789608228058e-01,1.453034840144751261e-03
1.640000000000000124e+00,3.110175948906148680e-01,3.095703168252584847e-01,1.447278065356383259e-03
1.650000000000000133e+00,3.147979576029295568e-01,3.133570744931462593e-01,1.440883109783297478e-03
1.660000000000000142e+00,3.186007115907775744e-01,3.171668519644861850e-01,1.433859626291389411e-03
1.670000000000000151e+00,3.224258641468683573e-01,3.209996492392783729e-01,1.426214907589984371e-03
1.679999999999999938e+00,3.262734232333678874e-01,3.248554663175227675e-01,1.417956915845119958e-03
1.689999999999999947e+00,3.301433974496892909e-01,3.287343031992193687e-01,1.409094250469922205e-03
1.699999999999999956e+00,3.340357960474651944e-01,3.326361598843681766e-01,1.399636163097017771e-03
1.709999999999999964e+00,3.379506288798806435e-01,3.365610363729691912e-01,1.389592506911452308e-03
1.719999999999999973e+00,3.418879064229260467e-01,3.405089326650224679e-01,1.378973757903578790e-03
1.729999999999999982e+00,3.458476397231069477e-01,3.444798487605278958e-01,1.367790962579051861e-03
1.739999999999999991e+00,3.498298369067868729e-01,3.484737846594854749e-01,1.356052247301398062e-03
1.750000000000000000e+00,3.538345170760668901e-01,3.524907403618954271e-01,1.343776714171462938e-03
1.760000000000000009e+00,3.578616894854854680e-01,3.565307158677574750e-01,1.330973617727992941e-03
1.770000000000000018e+00,3.619113673163990574e-01,3.605937111770716741e-01,1.317656139327383347e-03
1.780000000000000027e+00,3.659835606248604822e-01,3.646797262898381353e-01,1.303834335022346913e-03
1.790000000000000036e+00,3.700782907857188553e-01,3.687887612060568587e-01,1.289529579661996550e-03
1.800000000000000044e+00,3.741955687921911244e-01,3.729208159257277333e-01,1.274752866463391143e-03
1.810000000000000053e+00,3.783354058638640494e-01,3.770758904488507590e-01,1.259515415013290340e-03
1.820000000000000062e+00,3.824978248786266577e-01,3.812539847754260469e-01,1.243840103200610780e-03
1.830000000000000071e+00,3.866828340224550686e-01,3.854550989054535970e-01,1.227735117001471643e-03
1.840000000000000080e+00,3.908904570472245266e-01,3.896792328389332427e-01,1.211224208291283855e-03
1.850000000000000089e+00,3.951207026125913013e-01,3.939263865758651506e-01,1.194316036726150720e-03
1.860000000000000098e+00,3.993735952539656520e-01,3.981965601162492097e-01,1.177035137716442303e-03
1.870000000000000107e+00,4.036491440194553415e-01,4.024897534600855864e-01,1.159390559369755103e-03
1.880000000000000115e+00,4.079473700483201015e-01,4.068059666073741143e-01,1.141403440945987224e-03
1.890000000000000124e+00,4.122682948518461843e-01,4.111451995581147933e-01,1.123095293731390942e-03
1.900000000000000133e+00,4.166119278711567508e-01,4.155074523123077346e-01,1.104475558849016270e-03
1.910000000000000142e+00,4.209782909152194885e-01,4.198927248699529380e-01,1.085566045266550539e-03
1.920000000000000151e+00,4.253674061020416564e-01,4.243010172310502370e-01,1.066388870991419324e-03
1.929999999999999938e+00,4.297792830113221774e-01,4.287323293955996317e-01,1.046953615722545639e-03
1.939999999999999947e+00,4.342139439100972109e-01,4.331866613636013996e-01,1.027282546495811300e-03
1.949999999999999956e+00,4.386714069207950928e-01,4.376640131350554297e-01,1.007393785739663095e-03
1.959999999999999964e+00,4.431516901971370714e-01,4.421643847099615554e-01,9.873054871755160278e-04
1.969999999999999973e+00,4.476548118956206190e-01,4.466877760883198878e-01,9.670358073007312427e-04
1.979999999999999982e+00,4.521807901556721410e-01,4.512341872701304268e-01,9.466028855417141230e-04
1.989999999999999991e+00,4.567296430594532941e-01,4.558036182553932836e-01,9.260248040600105313e-04
2.000000000000000000e+00,4.613013886260130536e-01,4.603960690441082360e-01,9.053195819048176496e-04
2.009999999999999787e+00,4.658960447656013137e-01,4.650115396362752840e-01,8.845051293260297598e-04
2.020000000000000018e+00,4.705136292778036577e-01,4.696500300318948717e-01,8.635992459087860063e-04
2.029999999999999805e+00,4.751541598226908802e-01,4.743115402309663331e-01,8.426195917245471456e-04
2.040000000000000036e+00,4.798176538816671388e-01,4.789960702334902232e-01,8.215836481769156485e-04
2.049999999999999822e+00,4.845041287554681109e-01,4.837036200394660979e-01,8.005087160020130099e-04
2.059999999999999609e+00,4.892135966597392360e-01,4.884341896488942902e-01,7.794070108449457912e-04
2.069999999999999840e+00,4.939460841712898787e-01,4.931877790617748003e-01,7.583051095150783460e-04
2.079999999999999627e+00,4.987016030606155614e-01,4.979643882781072950e-01,7.372147825082664419e-04
2.089999999999999858e+00,5.034801696734614307e-01,5.027640172978922184e-01,7.161523755692122961e-04
2.099999999999999645e+00,5.082817950135332108e-01,5.075866661211291264e-01,6.951288924040843753e-04
2.109999999999999876e+00,5.131065049005060219e-01,5.124323347478184631e-01,6.741701526875587547e-04
2.119999999999999662e+00,5.179543097677360430e-01,5.173010231779598955e-01,6.532865897761475082e-04
2.129999999999999893e+00,5.228252194868691083e-01,5.221927314115536456e-01,6.324880753154626944e-04
2.139999999999999680e+00,5.277192591813349987e-01,5.271074594485993803e-01,6.117997327356183845e-04
2.149999999999999911e+00,5.326364380508459284e-01,5.320452072890975437e-01,5.912307617483847366e-04
2.159999999999999698e+00,5.375767647547829986e-01,5.370059749330476917e-01,5.707898217353069015e-04
2.169999999999999929e+00,5.425402635382188254e-01,5.419897623804502684e-01,5.505011577685570145e-04
2.179999999999999716e+00,5.475269368713638896e-01,5.469965696313047188e-01,5.303672400591707969e-04
2.189999999999999947e+00,5.525368083616556403e-01,5.520263966856117088e-01,5.104116760439314504e-04
2.199999999999999734e+00,5.575698794407464298e-01,5.570792435433709056e-01,4.906358973755242658e-04
2.209999999999999964e+00,5.626261674614855268e-01,5.621551102045823090e-01,4.710572569032178691e-04
2.219999999999999751e+00,5.677056895819126980e-01,5.672539966692456970e-01,4.516929126670010675e-04
2.229999999999999982e+00,5.728084455678066345e-01,5.723759029373615137e-01,4.325426304451207571e-04
2.239999999999999769e+00,5.779344573617497538e-01,5.775208290089292040e-01,4.136283528205497717e-04
2.250000000000000000e+00,5.830837236250239197e-01,5.826887748839494341e-01,3.949487410744856319e-04
2.259999999999999787e+00,5.882562597065227328e-01,5.878797405624216488e-01,3.765191441010840023e-04
2.270000000000000018e+00,5.934520747975935429e-01,5.930937260443465142e-01,3.583487532470286396e-04
2.279999999999999805e+00,5.986711835739437770e-01,5.983307313297230312e-01,3.404522442207458255e-04
2.290000000000000036e+00,6.039135823933980962e-01,6.035907564185520879e-01,3.228259748460082790e-04
2.299999999999999822e+00,6.091792849393662390e-01,6.088738013108331293e-01,3.054836285331097301e-04
2.310000000000000053e+00,6.144682984934101144e-01,6.141798660065664883e-01,2.884324868436261013e-04
2.319999999999999840e+00,6.197806360489280797e-01,6.195089505057519430e-01,2.716855431761366901e-04
2.329999999999999627e+00,6.251162916625231381e-01,6.248610548083894933e-01,2.552368541336447194e-04
2.339999999999999858e+00,6.304752773076307548e-01,6.302361789144795834e-01,2.390983931511714289e-04
2.349999999999999645e+00,6.358575983940873977e-01,6.356343228240218801e-01,2.232755700655175701e-04
2.359999999999999876e+00,6.412632598527531202e-01,6.410554865370162725e-01,2.077733157368477634e-04
2.369999999999999662e+00,6.466922661663819794e-01,6.464996700534627605e-01,1.925961129192188537e-04
2.379999999999999893e+00,6.521446213454541452e-01,6.519668733733616772e-01,1.777479720924679540e-04
2.389999999999999680e+00,6.576203289693087761e-01,6.574570964967124675e-01,1.632324725963085754e-04
2.399999999999999911e+00,6.631193921553966142e-01,6.629703394235157976e-01,1.490527318808165802e-04
2.409999999999999698e+00,6.686418135938908547e-01,6.685066021537710013e-01,1.352114401198534210e-04
2.419999999999999929e+00,6.741875955324008185e-01,6.740658846874787447e-01,1.217108449220738464e-04
2.429999999999999716e+00,6.797567398181812992e-01,6.796481870246385837e-01,1.085527935427155199e-04
2.439999999999999947e+00,6.853492478543912192e-01,6.852535091652507404e-01,9.573868914047878320e-05
2.449999999999999734e+00,6.909651206588699468e-01,6.908818511093147707e-01,8.326954955517607004e-05
2.459999999999999964e+00,6.966043588505405060e-01,6.965332128568313408e-01,7.114599370916518950e-05
2.469999999999999751e+00,7.022669626528931230e-01,7.022075944077997844e-01,5.936824509333860078e-05
2.479999999999999982e+00,7.079529319122561670e-01,7.079049957622207678e-01,4.793615003539919428e-05
2.489999999999999769e+00,7.136622661155658243e-01,7.136254169200936248e-01,3.684919547219944747e-05
2.500000000000000000e+00,7.193949643963987173e-01,7.193688578814190215e-01,2.610651497969573853e-05
2.509999999999999787e+00,7.251510255266919724e-01,7.251353186461965139e-01,1.570688049545854170e-05
2.520000000000000018e+00,7.309304479562380719e-01,7.309247992144263240e-01,5.648741811747903796e-06
2.529999999999999805e+00,7.367332224766398596e-01,7.367372995861080076e-01,-4.077109468147988025e-06
2.540000000000000036e+00,7.425593615159012950e-01,7.425728197612422310e-01,-1.345824534093598146e-05
2.549999999999999822e+00,7.484088552973694464e-01,7.484313597398283280e-01,-2.250444245888161277e-05
2.560000000000000053e+00,7.542817010610096684e-01,7.543129195218668537e-01,-3.121846085718527064e-05
2.569999999999999840e+00,7.601778957434668360e-01,7.602174991073573640e-01,-3.960336389052798722e-05
2.579999999999999627e+00,7.660974284176358395e-01,7.661450984963004140e-01,-4.767007866457451115e-05
2.589999999999999858e+00,7.720403107096820428e-01,7.720957176886956708e-01,-5.540697901362801048e-05
2.599999999999999645e+00,7.780065312483162021e-01,7.780693566845428011e-01,-6.282543622659897409e-05
2.609999999999999876e+00,7.839960859982465502e-01,7.840660154838423601e-01,-6.992948559580991486e-05
2.619999999999999662e+00,7.900089628619056947e-01,7.900856940865939038e-01,-7.673122468820903208e-05
2.629999999999999893e+00,7.960451730624844568e-01,7.961283924927979871e-01,-8.321943031353029596e-05
2.639999999999999680e+00,8.021047041480344753e-01,8.021941107024539441e-01,-8.940655441946887549e-05
2.649999999999999911e+00,8.081875513230828423e-01,8.082828487155623298e-01,-9.529739247948754155e-05
2.659999999999999698e+00,8.142937014948301577e-01,8.143946065321230332e-01,-1.009050372928754769e-04
2.669999999999999929e+00,8.204231656861391553e-01,8.205293841521358322e-01,-1.062184659966769473e-04
2.679999999999999716e+00,8.265759305754148967e-01,8.266871815756006159e-01,-1.112510001857192066e-04
2.689999999999999947e+00,8.327519824701978823e-01,8.328679988025179393e-01,-1.160163323200569252e-04
2.699999999999999734e+00,8.389513323747411766e-01,8.390718358328870252e-01,-1.205034581458486187e-04
2.709999999999999964e+00,8.451739664284952935e-01,8.452986926667087619e-01,-1.247262382134683989e-04
2.719999999999999751e+00,8.514198704283790775e-01,8.515485693039823722e-01,-1.286988756032947379e-04
2.729999999999999982e+00,8.576890554619032159e-01,8.578214657447084113e-01,-1.324102828051954006e-04
2.739999999999999769e+00,8.639815072196415091e-01,8.641173819888867680e-01,-1.358747692452588751e-04
2.750000000000000000e+00,8.702972111039812830e-01,8.704363180365172203e-01,-1.391069325359373110e-04
2.759999999999999787e+00,8.766361783709110123e-01,8.767782738875996573e-01,-1.420955166886450627e-04
2.770000000000000018e+00,8.829983943753038078e-01,8.831432495421345230e-01,-1.448551668307151985e-04
2.779999999999999805e+00,8.893838441860346666e-01,8.895312450001213733e-01,-1.474008140867066885e-04
2.790000000000000036e+00,8.957925393458689989e-01,8.959422602615606523e-01,-1.497209156916534667e-04
2.799999999999999822e+00,9.022244649295956265e-01,9.023762953264519160e-01,-1.518303968562895179e-04
2.810000000000000053e+00,9.086796057880739408e-01,9.088333501947959414e-01,-1.537444067220006261e-04
2.819999999999999840e+00,9.151579738022767030e-01,9.153134248665916184e-01,-1.554510643149153992e-04
2.829999999999999627e+00,9.216595447107633898e-01,9.218165193418393910e-01,-1.569746310760011809e-04
2.839999999999999858e+00,9.281843306909676183e-01,9.283426336205398144e-01,-1.583029295721960494e-04
2.849999999999999645e+00,9.347323165711501902e-01,9.348917677026920003e-01,-1.594511315418101205e-04
2.859999999999999876e+00,9.413034869359843126e-01,9.414639215882968371e-01,-1.604346523125244062e-04
2.869999999999999662e+00,9.478978544545780816e-01,9.480590952773534363e-01,-1.612408227753547862e-04
2.879999999999999893e+00,9.545153943673937436e-01,9.546772887698626864e-01,-1.618944024689428218e-04
2.889999999999999680e+00,9.611561197008147150e-01,9.613185020658240321e-01,-1.623823650093170201e-04
2.899999999999999911e+00,9.678200151799167816e-01,9.679827351652375844e-01,-1.627199853208027847e-04
2.909999999999999698e+00,9.745070653242525749e-01,9.746699880681031214e-01,-1.629227438505465031e-04
2.919999999999999929e+00,9.812172837452169949e-01,9.813802607744210871e-01,-1.629770292040921831e-04
2.929999999999999716e+00,9.879506453372020047e-01,9.881135532841909264e-01,-1.629079469889216369e-04
2.939999999999999947e+00,9.947071641418023802e-01,9.948698655974134164e-01,-1.627014556110362165e-04
2.949999999999999734e+00,1.001486824901471451e+00,1.001649197714087780e+00,-1.623728126163292984e-04
2.959999999999999964e+00,1.008289612203953078e+00,1.008451549634214572e+00,-1.619374302614939864e-04
2.969999999999999751e+00,1.015115540743438238e+00,1.015276921357793460e+00,-1.613806143552221073e-04
2.979999999999999982e+00,1.021964585168617212e+00,1.022125312884824666e+00,-1.607277162074538523e-04
2.989999999999999769e+00,1.028836760643647708e+00,1.028996724215307967e+00,-1.599635716602598734e-04
3.000000000000000000e+00,1.035732052049279650e+00,1.035891155349243586e+00,-1.591032999639363510e-04
