# Re omega, K.-K. Re f_xc, Model Re f_xc
0.000000000000000000,-3126.782756685909134831,-3126.759354737587727868
0.006006006006006006,-2780.262158095712038630,-2776.262098634600079095
0.012012012012012012,-2081.314491661033571290,-2084.211851446527361986
0.018018018018018018,-1596.739254273868482414,-1599.127142069874253139
0.024024024024024024,-1331.289168123545550770,-1330.027939574204083328
0.030030030030030030,-1191.931633950556943091,-1188.956283794344926719
0.036036036036036036,-1118.046515829058762392,-1115.115105000571247729
0.042042042042042038,-1078.269919147316159069,-1076.207721105972723308
0.048048048048048048,-1056.794334487451351379,-1055.840325709920307418
0.054054054054054057,-1045.480373416178963453,-1045.581459495622766553
0.060060060060060060,-1039.929313653232838988,-1040.964219552811755420
0.066066066066066062,-1037.750888026849679591,-1039.544890305492344851
0.072072072072072071,-1037.556131778305825719,-1039.946653666440852248
0.078078078078078081,-1038.534641580965626417,-1041.374284209619190733
0.084084084084084076,-1040.152912805288906384,-1043.359467348650241547
0.090090090090090086,-1042.159794942799862838,-1045.622692088452140524
0.096096096096096095,-1044.343669550052482009,-1047.996052256265102187
0.102102102102102105,-1046.595105754454152702,-1050.378898911544638395
0.108108108108108114,-1048.851930895111081554,-1052.711740580305104231
0.114114114114114110,-1051.042190983431510176,-1054.960554847281628099
0.120120120120120119,-1053.172267560051523105,-1057.107185227645686609
0.126126126126126115,-1055.199404235295105536,-1059.143372296454344905
0.132132132132132124,-1057.147356565198151657,-1061.066997194093346479
0.138138138138138133,-1058.989979861476058431,-1062.879694800521747311
0.144144144144144143,-1060.742534034318623526,-1064.585327387007737343
0.150150150150150152,-1062.394021963751356452,-1066.189005682730339686
0.156156156156156162,-1063.952090132623197860,-1067.696461860598674320
0.162162162162162171,-1065.435909972691888470,-1069.113650661345673143
0.168168168168168153,-1066.828512188436206998,-1070.446499319800523153
0.174174174174174162,-1068.137216259987781086,-1071.700754900888568955
0.180180180180180172,-1069.392025122381028268,-1072.881895451732361835
0.186186186186186181,-1070.556939184734574155,-1073.995082846519153463
0.192192192192192191,-1071.679659720471363471,-1075.045142670208861091
0.198198198198198200,-1072.749376693504473224,-1076.036561396138722557
0.204204204204204209,-1073.753742380624998987,-1076.973494364669022616
0.210210210210210219,-1074.705892845096741439,-1077.859780239026349591
0.216216216216216228,-1075.599320408827907158,-1078.698959069049124082
0.222222222222222210,-1076.463424410444076784,-1079.494292072961115991
0.228228228228228219,-1077.282761978320650087,-1080.248781908475166347
0.234234234234234229,-1078.057719049176967019,-1080.965192651222423592
0.240240240240240238,-1078.799408981634769589,-1081.646068999904173324
0.246246246246246248,-1079.504100541910702304,-1082.293754430133276401
0.252252252252252229,-1080.174763729735104789,-1082.910408154086098875
0.258258258258258266,-1080.819313665905156086,-1083.498020832170141148
0.264264264264264248,-1081.435794361023681631,-1084.058429040524288212
0.270270270270270285,-1082.024264992036250987,-1084.593328534309875977
0.276276276276276267,-1082.577578519268399759,-1085.104286368303746713
0.282282282282282304,-1083.115525754308691830,-1085.592751948021941644
0.288288288288288286,-1083.633437266071496197,-1086.060067089765425408
0.294294294294294267,-1084.135608891593392400,-1086.507475168822338674
0.300300300300300305,-1084.607193150578041241,-1086.936129433180440174
0.306306306306306286,-1085.061679544617845750,-1087.347100556523855630
0.312312312312312323,-1085.489705133826646488,-1087.741383499770563503
0.318318318318318305,-1085.922015227496331136,-1088.119903745408464601
0.324324324324324342,-1086.324816652377421633,-1088.483522963770838032
0.330330330330330324,-1086.706835822619950704,-1088.833044165325418362
0.336336336336336306,-1087.090566383908480930,-1089.169216388199856738
0.342342342342342343,-1087.446553620576196408,-1089.492738965593161993
0.348348348348348325,-1087.792210318592879048,-1089.804265413462189827
0.354354354354354362,-1088.121645952786138878,-1090.104406974956646081
0.360360360360360343,-1088.459203360660694671,-1090.393735854491296777
0.366366366366366381,-1088.770074781792345675,-1090.672788171082402187
0.372372372372372362,-1089.068321086981768531,-1090.942066657620216574
0.378378378378378399,-1089.359274871676234397,-1091.202043130087758982
0.384384384384384381,-1089.645988283088854587,-1091.453160748328627960
0.390390390390390363,-1089.914551749254542301,-1091.695836087806128489
0.396396396396396400,-1090.179409351278991380,-1091.930461039858755612
0.402402402402402382,-1090.438864119673553432,-1092.157404556210849478
0.408408408408408419,-1090.686736829509072777,-1092.377014251938362577
0.414414414414414400,-1090.927623094599994147,-1092.589617879686784363
0.420420420420420438,-1091.159553117551013202,-1092.795524686684075277
0.426426426426426419,-1091.381234219559473786,-1092.995026664966189855
0.432432432432432456,-1091.595871333330251218,-1093.188399704221865250
0.438438438438438438,-1091.817372885897384549,-1093.375904655756357897
0.444444444444444420,-1092.017808790176104594,-1093.557788315269135637
0.450450450450450457,-1092.219057556615780413,-1093.734284331399521761
0.456456456456456439,-1092.414680530411033033,-1093.905614046348773627
0.462462462462462476,-1092.608230638073791852,-1094.071987274293405790
0.468468468468468457,-1092.780014475915550065,-1094.233603022776151192
0.474474474474474495,-1092.958466445650856258,-1094.390650161785060845
0.480480480480480476,-1093.137106202985023629,-1094.543308044799914569
0.486486486486486458,-1093.308769054830690948,-1094.691747085699944364
0.492492492492492495,-1093.472846285621699280,-1094.836129295079217627
0.498498498498498477,-1093.633722013593796873,-1094.976608779195430543
0.504504504504504458,-1093.790603160182627107,-1095.113332204500466105
0.510510510510510551,-1093.940411604576183890,-1095.246439230439818857
0.516516516516516533,-1094.088928876823729297,-1095.376062912974703067
0.522522522522522515,-1094.232656169803703960,-1095.502330081070795131
0.528528528528528496,-1094.374902270744314592,-1095.625361688207703992
0.534534534534534478,-1094.523944782470380233,-1095.745273140790914113
0.540540540540540571,-1094.630986203012525948,-1095.862174605181508014
0.546546546546546552,-1094.773571359924972057,-1095.976171294933465106
0.552552552552552534,-1094.899877127806348653,-1096.087363739679176433
0.558558558558558516,-1095.023643567089948192,-1096.195848036999905162
0.564564564564564608,-1095.144334673928142365,-1096.301716088504008439
0.570570570570570590,-1095.263345582067131545,-1096.405055821235464464
0.576576576576576572,-1095.378717701432151443,-1096.505951395456122555
0.582582582582582553,-1095.496676214009312389,-1096.604483399746868599
0.588588588588588535,-1095.603178793002825842,-1096.700729034316282196
0.594594594594594628,-1095.701932233357183577,-1096.794762283322597796
0.600600600600600609,-1095.814788766180754465,-1096.886654076962713589
0.606606606606606591,-1095.916554732384838644,-1096.976472444016280861
0.612612612612612573,-1096.010286370606991113,-1097.064282655488568707
0.618618618618618665,-1096.114943314566289700,-1097.150147359942820913
0.624624624624624647,-1096.205893313298702196,-1097.234126711068711302
0.630630630630630629,-1096.300359378471057425,-1097.316278487996896729
0.636636636636636610,-1096.401605038598063402,-1097.396658208828284842
0.642642642642642592,-1096.491562614042095447,-1097.475319237815256201
0.648648648648648685,-1096.579074045245761226,-1097.552312886599338526
0.654654654654654666,-1096.669475909883431086,-1097.627688509882091239
0.660660660660660648,-1096.739100751719661275,-1097.701493595876627296
0.666666666666666630,-1096.834404950010366520,-1097.773773851868327256
0.672672672672672611,-1096.918168841716124007,-1097.844573285181922984
0.678678678678678704,-1096.984293034337497375,-1097.913934279840532326
0.684684684684684686,-1097.074691170394999062,-1097.981897669177669741
0.690690690690690667,-1097.149899713025661185,-1098.048502804642566844
0.696696696696696649,-1097.214614174612734132,-1098.113787621032770403
0.702702702702702742,-1097.296823653790625031,-1098.177788698362292052
0.708708708708708723,-1097.361348091091485912,-1098.240541320561533212
0.714714714714714705,-1097.440822577603285026,-1098.302079531201570717
0.720720720720720687,-1097.509467941023103776,-1098.362436186406512206
0.726726726726726668,-1097.571725114371702148,-1098.421643005123542025
0.732732732732732761,-1097.649120755579815523,-1098.479730616895949424
0.738738738738738743,-1097.705664303382945945,-1098.536728607284885584
0.744744744744744724,-1097.773825859111866521,-1098.592665561070134572
0.750750750750750706,-1097.839701384607906220,-1098.647569103354953768
0.756756756756756799,-1097.889565221935981754,-1098.701465938690262192
0.762762762762762780,-1097.964142673966080110,-1098.754381888328907735
0.768768768768768762,-1098.027320835030423041,-1098.806341925710512442
0.774774774774774744,-1098.075926154322360162,-1098.857370210275803402
0.780780780780780725,-1098.130717628670481645,-1098.907490119696603870
0.786786786786786818,-1098.199507747830466542,-1098.956724280609023481
0.792792792792792800,-1098.246900284138064308,-1099.005094597930792588
0.798798798798798781,-1098.310238572361868137,-1099.052622282832089695
0.804804804804804763,-1098.365816053762273441,-1099.099327879437169031
0.810810810810810856,-1098.425848279415731668,-1099.145231290318179163
0.816816816816816837,-1098.468471733482147101,-1099.190351800845292018
0.822822822822822819,-1098.513108788308727526,-1099.234708102451804734
0.828828828828828801,-1098.570786037637390109,-1099.278318314870602990
0.834834834834834782,-1098.622200609086121403,-1099.321200007391325926
0.840840840840840875,-1098.668857420894255483,-1099.363370219190983335
0.846846846846846857,-1098.716365418674740795,-1099.404845478781908241
0.852852852852852839,-1098.757276898821146460,-1099.445641822621837491
0.858858858858858820,-1098.803586448893838678,-1099.485774812927729727
0.864864864864864913,-1098.853221827570905589,-1099.525259554731292155
0.870870870870870895,-1098.898047786125971470,-1099.564110712215097010
0.876876876876876876,-1098.945072985354727280,-1099.602342524362029508
0.882882882882882858,-1098.988859141988996271,-1099.639968819952173362
0.888888888888888840,-1099.028954391448223760,-1099.677003031938284039
0.894894894894894932,-1099.074852478207276363,-1099.713458211229635708
0.900900900900900914,-1099.107034991643786270,-1099.749347039911071988
0.906906906906906896,-1099.145574281226117819,-1099.784681843925227440
0.912912912912912877,-1099.200045451795404006,-1099.819474605242021426
0.918918918918918859,-1099.233795180192828411,-1099.853736973538616439
0.924924924924924952,-1099.273638798284764562,-1099.887480277414852026
0.930930930930930933,-1099.313491368537825110,-1099.920715535161889420
0.936936936936936915,-1099.349869168774830541,-1099.953453465107259035
0.942942942942942897,-1099.388295220276404507,-1099.985704495554728055
0.948948948948948989,-1099.416858053494252090,-1100.017478774336041170
0.954954954954954971,-1099.459904463448992828,-1100.048786177992496960
0.960960960960960953,-1099.496063324733540867,-1100.079636320605686706
0.966966966966966934,-1099.534510623683218000,-1100.110038562286263186
0.972972972972972916,-1099.566435125713496745,-1100.140002017343022089
0.978978978978979009,-1099.602592939727401244,-1100.169535562141618357
0.984984984984984990,-1099.634913626735624348,-1100.198647842667696750
0.990990990990990972,-1099.669051452387293466,-1100.227347281807851687
0.996996996996996954,-1099.705599628076015506,-1100.255642086359557652
1.003003003003003046,-1099.737351650253685875,-1100.283540253782120999
1.009009009009008917,-1099.769126359416759442,-1100.311049578698884943
1.015015015015015010,-1099.797814523324404945,-1100.338177659163648059
1.021021021021021102,-1099.831536352023704239,-1100.364931902696980615
1.027027027027026973,-1099.873185103896503279,-1100.391319532105853796
1.033033033033033066,-1099.891224259944465302,-1100.417347591094539894
1.039039039039038936,-1099.920271406385154478,-1100.443022949673377298
1.045045045045045029,-1099.948981359713343409,-1100.468352309376541598
1.051051051051051122,-1099.977871836034637454,-1100.493342208295416640
1.057057057057056992,-1100.007082010078875101,-1100.517999025934159363
1.063063063063063085,-1100.036284245663637194,-1100.542328987896325998
1.069069069069068956,-1100.063979635445093663,-1100.566338170408471342
1.075075075075075048,-1100.091318341143050930,-1100.590032504685950698
1.081081081081081141,-1100.117817581147619421,-1100.613417781150701558
1.087087087087087012,-1100.145109749624225515,-1100.636499653502596630
1.093093093093093104,-1100.169320827173578436,-1100.659283642653917923
1.099099099099099197,-1100.197433523798508759,-1100.681775140528770862
1.105105105105105068,-1100.223464167693464333,-1100.703979413736533388
1.111111111111111160,-1100.248984560998451343,-1100.725901607120249537
1.117117117117117031,-1100.274751077126211385,-1100.747546747188380323
1.123123123123123124,-1100.297653382111320752,-1100.768919745430821422
1.129129129129129216,-1100.321510940563712211,-1100.790025401527827853
1.135135135135135087,-1100.346760722423823609,-1100.810868406451163537
1.141141141141141180,-1100.371832168329547130,-1100.831453345466343308
1.147147147147147050,-1100.402995955593723920,-1100.851784701034830505
1.153153153153153143,-1100.419209520772028554,-1100.871866855623920856
1.159159159159159236,-1100.440633059143692662,-1100.891704094426813754
1.165165165165165106,-1100.463614045950180298,-1100.911300607992870937
1.171171171171171199,-1100.487536507826689558,-1100.930660494777612257
1.177177177177177070,-1100.505885519525236305,-1100.949787763608583191
1.183183183183183163,-1100.534437373405580729,-1100.968686336075734289
1.189189189189189255,-1100.548184403992763691,-1100.987360048845857818
1.195195195195195126,-1100.585761804679350462,-1101.005812655904492203
1.201201201201201219,-1100.599821410692584323,-1101.024047830728250119
1.207207207207207089,-1100.616397791115105065,-1101.042069168390298728
1.213213213213213182,-1100.640507996185078810,-1101.059880187601038415
1.219219219219219275,-1100.657184568412048975,-1101.077484332684889523
1.225225225225225145,-1100.677132207241356809,-1101.094884975498871427
1.231231231231231238,-1100.697033153937809402,-1101.112085417291382328
1.237237237237237331,-1100.721577012659736283,-1101.129088890504590381
1.243243243243243201,-1100.741119505184542504,-1101.145898560524756249
1.249249249249249294,-1100.756907818835088619,-1101.162517527377531223
1.255255255255255165,-1100.780306157817676649,-1101.178948827373915265
1.261261261261261257,-1100.793072802112419595,-1101.195195434707557069
1.267267267267267350,-1100.810830806353351363,-1101.211260263004760418
1.273273273273273221,-1100.844477097386743480,-1101.227146166828788409
1.279279279279279313,-1100.862699503671137791,-1101.242855943139829833
1.285285285285285184,-1100.880710231394459697,-1101.258392332712674033
1.291291291291291277,-1100.887505595386073765,-1101.273758021514140637
1.297297297297297369,-1100.900885717630444560,-1101.288955642039127270
1.303303303303303240,-1100.925349241667163369,-1101.303987774609595363
1.309309309309309333,-1100.942633964295282567,-1101.318856948635357185
1.315315315315315203,-1100.966264024318888914,-1101.333565643840074699
1.321321321321321296,-1100.971850642434901602,-1101.348116291451333382
1.327327327327327389,-1100.999938699028689371,-1101.362511275358428975
1.333333333333333259,-1101.008564218216179142,-1101.376752933235366072
1.339339339339339352,-1101.025709789394568361,-1101.390843557635207617
1.345345345345345223,-1101.041932099998803096,-1101.404785397052592089
1.351351351351351315,-1101.057395458886503548,-1101.418580656955327868
1.357357357357357408,-1101.070935122232640424,-1101.432231500790749124
1.363363363363363279,-1101.086788937432174862,-1101.445740050960921508
1.369369369369369371,-1101.113045091763979144,-1101.459108389773746239
1.375375375375375464,-1101.118469275573943378,-1101.472338560367006721
1.381381381381381335,-1101.136687025071751123,-1101.485432567606949306
1.387387387387387427,-1101.149476638436908615,-1101.498392378962989824
1.393393393393393298,-1101.164115977029268834,-1101.511219925359910121
1.399399399399399391,-1101.181253134436019536,-1101.523917102004361368
1.405405405405405483,-1101.196097949607292321,-1101.536485769192722728
1.411411411411411354,-1101.210632574559440400,-1101.548927753095313165
1.417417417417417447,-1101.222353550478601392,-1101.561244846519684870
1.423423423423423317,-1101.236081015884792578,-1101.573438809655272053
1.429429429429429410,-1101.253016177020981559,-1101.585511370796666597
1.435435435435435503,-1101.266939283947976946,-1101.597464227050522823
1.441441441441441373,-1101.280574943473538951,-1101.609299045020179619
1.447447447447447466,-1101.291833869291167503,-1101.621017461476412791
1.453453453453453337,-1101.305625846843213367,-1101.632621084009088008
1.459459459459459429,-1101.318834975287927591,-1101.644111491661078617
1.465465465465465522,-1101.336960187072463668,-1101.655490235547858902
1.471471471471471393,-1101.349968418609023502,-1101.666758839459589581
1.477477477477477485,-1101.358351437031615205,-1101.677918800449560877
1.483483483483483578,-1101.372157564551343967,-1101.688971589406037310
1.489489489489489449,-1101.383266033636118664,-1101.699918651610914822
1.495495495495495542,-1101.401283202433887709,-1101.710761407283598601
1.501501501501501412,-1101.413785396087405388,-1101.721501252111011127
1.507507507507507505,-1101.426177463480144070,-1101.732139557765776772
1.513513513513513598,-1101.433959328372111486,-1101.742677672410309242
1.519519519519519468,-1101.446388742057024501,-1101.753116921187938715
1.525525525525525561,-1101.466924679606563586,-1101.763458606703352416
1.531531531531531432,-1101.474573725182381168,-1101.773704009490984390
1.537537537537537524,-1101.491625785291489592,-1101.783854388470444974
1.543543543543543617,-1101.492752236236810859,-1101.793910981392400572
1.549549549549549488,-1101.505648140097036958,-1101.803875005273312127
1.555555555555555580,-1101.521256653943055426,-1101.813747656819259646
1.561561561561561451,-1101.527151741786383354,-1101.823530112839534922
1.567567567567567544,-1101.543914001769735478,-1101.833223530650911925
1.573573573573573636,-1101.551345271997206510,-1101.842829048471458009
1.579579579579579507,-1101.561961344647670558,-1101.852347785805477542
1.585585585585585600,-1101.572435230299561226,-1101.861780843819360598
1.591591591591591470,-1101.583267612757026654,-1101.871129305707427193
1.597597597597597563,-1101.592591328958633312,-1101.880394237051405071
1.603603603603603656,-1101.605706881472542591,-1101.889576686168993547
1.609609609609609526,-1101.613924516975203005,-1101.898677684455833514
1.615615615615615619,-1101.626621392435481539,-1101.907698246718837254
1.621621621621621712,-1101.634923055885792564,-1101.916639371502242284
1.627627627627627582,-1101.649586716763451477,-1101.925502041405479758
1.633633633633633675,-1101.655582677703705485,-1101.934287223393994282
1.639639639639639546,-1101.668496015770188023,-1101.942995869103469886
1.645645645645645638,-1101.678453577715799838,-1101.951628915136097930
1.651651651651651731,-1101.685867893817203367,-1101.960187283350705911
1.657657657657657602,-1101.695794149062521683,-1101.968671881146747182
1.663663663663663694,-1101.705612310584683655,-1101.977083601739650476
1.669669669669669565,-1101.715362971677222959,-1101.985423324433440939
1.675675675675675658,-1101.725427444080423811,-1101.993691914884038852
1.681681681681681750,-1101.729738522865318373,-1102.001890225358465614
1.687687687687687621,-1101.746125644520589049,-1102.010019094987683275
1.693693693693693714,-1101.746376983883465073,-1102.018079350013522344
1.699699699699699584,-1101.757921002465081983,-1102.026071804031289503
1.705705705705705677,-1101.775637193237344036,-1102.033997258224644611
1.711711711711711770,-1101.786791201260257367,-1102.041856501598431350
1.717717717717717640,-1101.794984190400782609,-1102.049650311204004538
1.723723723723723733,-1101.794648349903582130,-1102.057379452360237337
1.729729729729729826,-1101.813420348291856499,-1102.065044678870435746
1.735735735735735696,-1101.817328745306667770,-1102.072646733233113991
1.741741741741741789,-1101.828635074002022520,-1102.080186346849814072
1.747747747747747660,-1101.838064264132754033,-1102.087664240227468326
1.753753753753753752,-1101.843516434940283943,-1102.095081123176214533
1.759759759759759845,-1101.853564801887387148,-1102.102437695004255147
1.765765765765765716,-1101.862085296479335739,-1102.109734644706122708
1.771771771771771808,-1101.870573707878520509,-1102.116972651150035745
1.777777777777777679,-1101.879174891331786057,-1102.124152383258888221
1.783783783783783772,-1101.878388044427765635,-1102.131274500188055754
1.789789789789789864,-1101.895514969611895140,-1102.138339651499791216
1.795795795795795735,-1101.904380124497720317,-1102.145348477334437121
1.801801801801801828,-1101.908015164834296229,-1102.152301608576181025
1.807807807807807698,-1101.917332401530075003,-1102.159199667016991953
1.813813813813813791,-1101.925708453319884939,-1102.166043265517146210
1.819819819819819884,-1101.935818393970976103,-1102.172833008161205726
1.825825825825825754,-1101.943696925052563529,-1102.179569490411950028
1.831831831831831847,-1101.951924175014937646,-1102.186253299260670246
1.837837837837837718,-1101.958635758190439446,-1102.192885013374507253
1.843843843843843811,-1101.965576075261651567,-1102.199465203239697075
1.849849849849849903,-1101.975410139036057444,-1102.205994431304588943
1.855855855855855774,-1101.981512483324422647,-1102.212473252116069489
1.861861861861861867,-1101.989035679243443155,-1102.218902212456669076
1.867867867867867959,-1101.995847492519260413,-1102.225281851476665906
1.873873873873873830,-1102.003227705866038377,-1102.231612700824143758
1.879879879879879923,-1102.012870559311750185,-1102.237895284772775994
1.885885885885885793,-1102.020142543093243148,-1102.244130120346653712
1.891891891891891886,-1102.019833674759638598,-1102.250317717443067522
1.897897897897897979,-1102.037429965636420093,-1102.256458578951878735
1.903903903903903849,-1102.040544416870716304,-1102.262553200873753667
1.909909909909909942,-1102.045993365028152766,-1102.268602072434987349
1.915915915915915813,-1102.057233040321079898,-1102.274605676201190363
1.921921921921921905,-1102.059054771184264609,-1102.280564488187110328
1.927927927927927998,-1102.066293568921764745,-1102.286478977966680759
1.933933933933933869,-1102.077251234694813320,-1102.292349608777612957
1.939939939939939961,-1102.084053135503381782,-1102.298176837627579516
1.945945945945945832,-1102.087446858454995890,-1102.303961115395622983
1.951951951951951925,-1102.094059987893160724,-1102.309702886932882393
1.957957957957958017,-1102.103630280332481561,-1102.315402591161046075
1.963963963963963888,-1102.106542633071057935,-1102.321060661168530714
1.969969969969969981,-1102.114974386152425723,-1102.326677524305978295
1.975975975975975851,-1102.123445592416146610,-1102.332253602278342441
1.981981981981981944,-1102.130649305120186909,-1102.337789311236292633
1.987987987987988037,-1102.133449406850559171,-1102.343285061866026808
1.993993993993993907,-1102.143452711035024549,-1102.348741259475900733
2.000000000000000000,-1102.155064437288501722,-1102.354158304083966868
2.006006006006006093,-1102.156032584066906566,-1102.359536590500738384
2.012012012012012185,-1102.159901635757933036,-1102.364876508413090050
2.018018018018017834,-1102.168403990152228289,-1102.370178442465430635
2.024024024024023927,-1102.172562284270952659,-1102.375442772338601571
2.030030030030030019,-1102.183951208967300772,-1102.380669872829230371
2.036036036036036112,-1102.184847947003618174,-1102.385860113925900805
2.042042042042042205,-1102.185015827896904739,-1102.391013860884186215
2.048048048048047853,-1102.196577847410480899,-1102.396131474301910202
2.054054054054053946,-1102.202566383595467414,-1102.401213310189859840
2.060060060060060039,-1102.204873204409750542,-1102.406259720044772621
2.066066066066066131,-1102.220272211063957002,-1102.411271050918458059
2.072072072072072224,-1102.219884414251509952,-1102.416247645486464535
2.078078078078077873,-1102.231775004799374074,-1102.421189842115836655
2.084084084084083965,-1102.237485128715661631,-1102.426097974930826240
2.090090090090090058,-1102.237533667345132926,-1102.430972373878375947
2.096096096096096151,-1102.242405408040895054,-1102.435813364792011271
2.102102102102102243,-1102.242362658854062829,-1102.440621269454140929
2.108108108108107892,-1102.253513907086926338,-1102.445396405657220384
2.114114114114113985,-1102.259315825950579892,-1102.450139087265370108
2.120120120120120077,-1102.270968188055348946,-1102.454849624272810615
2.126126126126126170,-1102.276405993679873063,-1102.459528322862297500
2.132132132132132263,-1102.281810419181510952,-1102.464175485462646975
2.138138138138137911,-1102.287181059797603666,-1102.468791410804897168
2.144144144144144004,-1102.292517920734781001,-1102.473376393977559928
2.150150150150150097,-1102.293000856104299601,-1102.477930726480281010
2.156156156156156189,-1102.295411997087740019,-1102.482454696278409756
2.162162162162162282,-1102.301358553987711275,-1102.486948587854385551
2.168168168168167931,-1102.306381952523906875,-1102.491412682259579014
2.174174174174174023,-1102.312192470412128387,-1102.495847257164768962
2.180180180180180116,-1102.318167932473215842,-1102.500252586909937236
2.186186186186186209,-1102.328913121862342450,-1102.504628942552926674
2.192192192192192302,-1102.333975026887628701,-1102.508976591917871701
2.198198198198198394,-1102.333548369012760304,-1102.513295799641355188
2.204204204204204043,-1102.344251604756209417,-1102.517586827220156920
2.210210210210210136,-1102.346239155640432728,-1102.521849933055818838
2.216216216216216228,-1102.347745084437065088,-1102.526085372499210280
2.222222222222222321,-1102.353001522605381979,-1102.530293397895320595
2.228228228228228414,-1102.359638194902572650,-1102.534474258626687515
2.234234234234234062,-1102.365228430063325504,-1102.538628201154324415
2.240240240240240155,-1102.370053906508474029,-1102.542755469061376061
2.246246246246246248,-1102.377901090400655448,-1102.546856303093363749
2.252252252252252340,-1102.382629932201325573,-1102.550930941198430446
2.258258258258258433,-1102.387338653285723922,-1102.554979618567131183
2.264264264264264082,-1102.391983969299417367,-1102.559002567671996076
2.270270270270270174,-1102.396640427017018737,-1102.563000018305501726
2.276276276276276267,-1102.395525456552604737,-1102.566972197617815254
2.282282282282282360,-1102.400042973268682545,-1102.570919330153856208
2.288288288288288452,-1102.404573446214726573,-1102.574841637890131096
2.294294294294294101,-1102.417026085299312399,-1102.578739340270658431
2.300300300300300194,-1102.415002058982736344,-1102.582612654241984274
2.306306306306306286,-1102.417944188053070320,-1102.586461794287743032
2.312312312312312379,-1102.428627559832875704,-1102.590286972463445636
2.318318318318318472,-1102.433051954237043901,-1102.594088398429903464
2.324324324324324120,-1102.437460479854962614,-1102.597866279485742780
2.330330330330330213,-1102.441836433431490150,-1102.601620820600601292
2.336336336336336306,-1102.446165123674518327,-1102.605352224446960463
2.342342342342342398,-1102.445757384223270492,-1102.609060691430840961
2.348348348348348491,-1102.450059284257122272,-1102.612746419724544467
2.354354354354354140,-1102.455020461534104470,-1102.616409605294848006
2.360360360360360232,-1102.458348917422654267,-1102.620050441934836272
2.366366366366366325,-1102.462258302689861011,-1102.623669121292323325
2.372372372372372418,-1102.473934665347314876,-1102.627265832899638553
2.378378378378378510,-1102.478083535511132141,-1102.630840764201366255
2.384384384384384159,-1102.471855561198481155,-1102.634394100582994724
2.390390390390390252,-1102.486335881327704556,-1102.637926025398428465
2.396396396396396344,-1102.490411726442744111,-1102.641436719997273030
2.402402402402402437,-1102.483264070279346925,-1102.644926363751210374
2.408408408408408530,-1102.488053938438952173,-1102.648395134081283686
2.414414414414414178,-1102.502502626642808536,-1102.651843206482453752
2.420420420420420271,-1102.494952537128483527,-1102.655270754550883794
2.426426426426426364,-1102.502449056933983229,-1102.658677950007131585
2.432432432432432456,-1102.506421612313260994,-1102.662064962722752171
2.438438438438438549,-1102.517497428772912826,-1102.665431960743035233
2.444444444444444642,-1102.520621303258167245,-1102.668779110312698322
2.450450450450450290,-1102.515237540864745824,-1102.672106575897259972
2.456456456456456383,-1102.528287536148582149,-1102.675414520208960312
2.462462462462462476,-1102.529416053082968574,-1102.678703104226997311
2.468468468468468568,-1102.528941367333800372,-1102.681972487222310519
2.474474474474474661,-1102.532914145724589616,-1102.685222826778272065
2.480480480480480310,-1102.537591122954836464,-1102.688454278812741904
2.486486486486486402,-1102.541528825655404944,-1102.691666997600577815
2.492492492492492495,-1102.543674391833519621,-1102.694861135793416906
2.498498498498498588,-1102.554594030748830846,-1102.698036844441958237
2.504504504504504681,-1102.555683607731907614,-1102.701194273015062208
2.510510510510510329,-1102.554521478085234776,-1102.704333569420896310
2.516516516516516422,-1102.562462582956186452,-1102.707454880026944011
2.522522522522522515,-1102.570136049091843233,-1102.710558349679331513
2.528528528528528607,-1102.566411268850970373,-1102.713644121721472402
2.534534534534534700,-1102.570140730764933323,-1102.716712338014758643
2.540540540540540349,-1102.577386201373201402,-1102.719763138955840986
2.546546546546546441,-1102.579167245713733791,-1102.722796663495728353
2.552552552552552534,-1102.580066707294463413,-1102.725813049157522983
2.558558558558558627,-1102.583746156892857471,-1102.728812432055747195
2.564564564564564719,-1102.591445086754447402,-1102.731794946911577426
2.570570570570570368,-1102.591611711929999728,-1102.734760727073080488
2.576576576576576461,-1102.592468926257197381,-1102.737709904529538107
2.582582582582582553,-1102.595907351329742596,-1102.740642609930773688
2.588588588588588646,-1102.599321058932900996,-1102.743558972602386348
2.594594594594594739,-1102.606198576586166382,-1102.746459120562349199
2.600600600600600387,-1102.606095795583769359,-1102.749343180537607623
2.606606606606606480,-1102.615138094304938932,-1102.752211277979540682
2.612612612612612573,-1102.618447079643601683,-1102.755063537079877278
2.618618618618618665,-1102.621758096738403765,-1102.757900080785930186
2.624624624624624758,-1102.619462320165439451,-1102.760721030816739585
2.630630630630630407,-1102.624357747203475810,-1102.763526507676260735
2.636636636636636499,-1102.627846282615564633,-1102.766316630670416998
2.642642642642642592,-1102.629260627073335854,-1102.769091517919832768
2.648648648648648685,-1102.632493974507042367,-1102.771851286375067502
2.654654654654654777,-1102.637092347915313439,-1102.774596051830712895
2.660660660660660426,-1102.648021554816978096,-1102.777325928939490041
2.666666666666666519,-1102.651175821000606447,-1102.780041031225891857
2.672672672672672611,-1102.646731927429755160,-1102.782741471098916008
2.678678678678678704,-1102.650671423109315583,-1102.785427359867526320
2.684684684684684797,-1102.652831870454065211,-1102.788098807751111963
2.690690690690690445,-1102.655820586714071396,-1102.790755923895403612
2.696696696696696538,-1102.659329639616089480,-1102.793398816382477889
2.702702702702702631,-1102.667791341626980284,-1102.796027592245764026
2.708708708708708723,-1102.670045578925510199,-1102.798642357481185172
2.714714714714714816,-1102.673842135880477144,-1102.801243217059209201
2.720720720720720909,-1102.671861931427201853,-1102.803830274938491129
2.726726726726726557,-1102.679107780439608177,-1102.806403634076104936
2.732732732732732650,-1102.679093036440463038,-1102.808963396440049110
2.738738738738738743,-1102.683075012326753495,-1102.811509663021524830
2.744744744744744835,-1102.685696884361277625,-1102.814042533845167782
2.750750750750750928,-1102.690910065397702056,-1102.816562107981098961
2.756756756756756577,-1102.688410761493742029,-1102.819068483555838611
2.762762762762762669,-1102.691271140726030353,-1102.821561757763220157
2.768768768768768762,-1102.699613714513589002,-1102.824042026875986267
2.774774774774774855,-1102.702485476752144677,-1102.826509386254656420
2.780780780780780947,-1102.701009421313074199,-1102.828963930360487211
2.786786786786786596,-1102.710402739707888031,-1102.831405752763885175
2.792792792792792689,-1102.713963371957788695,-1102.833834946155775469
2.798798798798798781,-1102.709418683785770554,-1102.836251602356924195
2.804804804804804874,-1102.713829196298092938,-1102.838655812328852335
2.810810810810810967,-1102.716844043615310511,-1102.841047666182930698
2.816816816816816615,-1102.718159073530614478,-1102.843427253190156989
2.822822822822822708,-1102.721151701792223321,-1102.845794661791160252
2.828828828828828801,-1102.724831415856215244,-1102.848149979605295812
2.834834834834834894,-1102.727573537741136533,-1102.850493293440194975
2.840840840840840986,-1102.730288480943045215,-1102.852824689300632599
2.846846846846846635,-1102.733008667288231663,-1102.855144252398076787
2.852852852852852727,-1102.735705359171561213,-1102.857452067158874343
2.858858858858858820,-1102.734394228220025980,-1102.859748217234482581
2.864864864864864913,-1102.739000576893204197,-1102.862032785508290544
2.870870870870871006,-1102.749626947658725840,-1102.864305854105623439
2.876876876876876654,-1102.749314172244794463,-1102.866567504402155464
2.882882882882882747,-1102.749536258267426092,-1102.868817817031413142
2.888888888888888840,-1102.755090319297778478,-1102.871056871893870266
2.894894894894894932,-1102.754214283917463035,-1102.873284748164905977
2.900900900900901025,-1102.756797950067038983,-1102.875501524302308098
2.906906906906906674,-1102.759374491046401090,-1102.877707278055140705
2.912912912912912766,-1102.761321411594963138,-1102.879902086471020084
2.918918918918918859,-1102.763869327429347322,-1102.882086025903845439
2.924924924924924952,-1102.771210365580373036,-1102.884259172021302220
2.930930930930931044,-1102.773823858243986251,-1102.886421599813047578
2.936936936936936693,-1102.772443555881864086,-1102.888573383597531574
2.942942942942942786,-1102.773988847148530112,-1102.890714597029500510
2.948948948948948878,-1102.777279824153765730,-1102.892845313107272887
2.954954954954954971,-1102.786857289878071242,-1102.894965604180015362
2.960960960960961064,-1102.789291819720119747,-1102.897075541954563960
2.966966966966967156,-1102.792331559695867327,-1102.899175197502472656
2.972972972972972805,-1102.794750284145266050,-1102.901264641267289335
2.978978978978978898,-1102.796557482103025905,-1102.903343943070694877
2.984984984984984990,-1102.788587080384104411,-1102.905413172119324372
2.990990990990991083,-1102.793100921785026003,-1102.907472397011815701
2.996996996996997176,-1102.796383241827925303,-1102.909521685745403374
3.003003003003002824,-1102.798971595868579243,-1102.911561105721830245
3.009009009009008917,-1102.800718332198812277,-1102.913590723753486600
3.015015015015015010,-1102.804389051832913538,-1102.915610606070686117
3.021021021021021102,-1102.812171933439230997,-1102.917620818327804955
3.027027027027027195,-1102.812794674724500510,-1102.919621425607829224
3.033033033033032844,-1102.816771448240842801,-1102.921612492430767816
3.039039039039038936,-1102.817408048913193852,-1102.923594082757517754
3.045045045045045029,-1102.819699995089422373,-1102.925566259997140151
3.051051051051051122,-1102.816426720451772781,-1102.927529087012089803
3.057057057057057214,-1102.819042273635432139,-1102.929482626124354283
3.063063063063062863,-1102.821242111631363514,-1102.931426939120683528
3.069069069069068956,-1102.823794651284288193,-1102.933362087258274187
3.075075075075075048,-1102.826209198542073864,-1102.935288131270681333
3.081081081081081141,-1102.835153523517419671,-1102.937205131373502809
3.087087087087087234,-1102.835558691424921562,-1102.939113147268471948
3.093093093093092882,-1102.832869905669667787,-1102.941012238150278790
3.099099099099098975,-1102.839938832622237896,-1102.942902462711344924
3.105105105105105068,-1102.842123815227978412,-1102.944783879146598338
3.111111111111111160,-1102.839105997010847204,-1102.946656545159385132
3.117117117117117253,-1102.841799346208063071,-1102.948520517965789622
3.123123123123122902,-1102.848618180186122117,-1102.950375854300318679
3.129129129129128994,-1102.846499405384975034,-1102.952222610420221827
3.135135135135135087,-1102.848557813118077320,-1102.954060842111402962
3.141141141141141180,-1102.850998373828360855,-1102.955890604691830958
3.147147147147147273,-1102.857126024955960020,-1102.957711953017678752
3.153153153153152921,-1102.855619934391597781,-1102.959524941487188698
3.159159159159159014,-1102.861321186578607012,-1102.961329624045447417
3.165165165165165106,-1102.863405230045145800,-1102.963126054189842762
3.171171171171171199,-1102.867374218409167952,-1102.964914284973019676
3.177177177177177292,-1102.863893977587849804,-1102.966694369009474030
3.183183183183182940,-1102.863681364956846664,-1102.968466358477598988
3.189189189189189033,-1102.868646404863056887,-1102.970230305126278836
3.195195195195195126,-1102.870851707163865285,-1102.971986260277617475
3.201201201201201219,-1102.872091795858295882,-1102.973734274832622759
3.207207207207207311,-1102.877587132448070406,-1102.975474399273707604
3.213213213213213404,-1102.879596585260060237,-1102.977206683671056453
3.219219219219219053,-1102.878669705021593472,-1102.978931177684899012
3.225225225225225145,-1102.883599467689009543,-1102.980647930570057724
3.231231231231231238,-1102.885576123478585941,-1102.982356991180722616
3.237237237237237331,-1102.884204210074585717,-1102.984058407974089278
3.243243243243243423,-1102.886159318806448937,-1102.985752229013542092
3.249249249249249072,-1102.892784524201488239,-1102.987438501973656457
3.255255255255255165,-1102.889906045730640471,-1102.989117274143836767
3.261261261261261257,-1102.891840631268223660,-1102.990788592430817516
3.267267267267267350,-1102.893450296950732081,-1102.992452503364802396
3.273273273273273443,-1102.900507215170591735,-1102.994109053100828532
3.279279279279279091,-1102.894162284991352863,-1102.995758287424223454
3.285285285285285184,-1102.904121282155074368,-1102.997400251752878830
3.291291291291291277,-1102.906230729503249677,-1102.999034991142025319
3.297297297297297369,-1102.900910251479444923,-1103.000662550286961050
3.303303303303303462,-1102.904924307372539261,-1103.002282973526916976
3.309309309309309111,-1102.911835900076994221,-1103.003896304848240106
3.315315315315315203,-1102.909183254784238670,-1103.005502587888258859
3.321321321321321296,-1102.910965707521427248,-1103.007101865938238916
3.327327327327327389,-1102.912813258813457651,-1103.008694181947248580
3.333333333333333481,-1102.919058478830493186,-1103.010279578524887256
3.339339339339339130,-1102.916966113852367926,-1103.011858097945150803
3.345345345345345223,-1102.915704377211341125,-1103.013429782148932645
3.351351351351351315,-1102.924518088129616444,-1103.014994672747661753
3.357357357357357408,-1102.926308867032048511,-1103.016552811027167991
3.363363363363363501,-1102.921633604917133198,-1103.018104237949273738
3.369369369369369149,-1102.929894509957875925,-1103.019648994156113986
3.375375375375375242,-1102.933055414860291421,-1103.021187119972637447
3.381381381381381335,-1102.925795768714806400,-1103.022718655410244537
3.387387387387387427,-1102.929471466387894907,-1103.024243640168378988
3.393393393393393520,-1102.933245727524763424,-1103.025762113639530071
3.399399399399399169,-1102.932864715739469830,-1103.027274114910369462
3.405405405405405261,-1102.934636163847926582,-1103.028779682765389225
3.411411411411411354,-1102.942902761175218984,-1103.030278855689857664
3.417417417417417447,-1102.944623133375671387,-1103.031771671872547813
3.423423423423423539,-1102.946339862280410671,-1103.033258169208465915
3.429429429429429188,-1102.948055557778616276,-1103.034738385301125163
3.435435435435435281,-1102.949755290260327456,-1103.036212357466638423
3.441441441441441373,-1102.944002514260319003,-1103.037680122734855104
3.447447447447447466,-1102.949825835720048417,-1103.039141717852999136
3.453453453453453559,-1102.951592497638557688,-1103.040597179287942708
3.459459459459459651,-1102.950498634067344028,-1103.042046543229389499
3.465465465465465300,-1102.955255110469579449,-1103.043489845591011544
3.471471471471471393,-1102.956852927316049318,-1103.044927122015224086
3.477477477477477485,-1102.956262583514444486,-1103.046358407873640317
3.483483483483483578,-1102.957924664336132992,-1103.047783738270481990
3.489489489489489671,-1102.962243066186374563,-1103.049203148045307898
3.495495495495495319,-1102.961206458298420330,-1103.050616671774832867
3.501501501501501412,-1102.962852394739002193,-1103.052024343776110982
3.507507507507507505,-1102.964661251771985917,-1103.053426198107672462
3.513513513513513598,-1102.966534288471621039,-1103.054822268573616384
3.519519519519519690,-1102.971549435030965469,-1103.056212588724520174
3.525525525525525339,-1102.972660700873120732,-1103.057597191860168095
3.531531531531531432,-1102.971034198720644781,-1103.058976111032052358
3.537537537537537524,-1102.971608282788565703,-1103.060349379045646856
3.543543543543543617,-1102.975637215222377563,-1103.061717028462453527
3.549549549549549710,-1102.977219874429692936,-1103.063079091602276094
3.555555555555555358,-1102.978795315461184146,-1103.064435600545493799
3.561561561561561451,-1102.980369431254302981,-1103.065786587135107766
3.567567567567567544,-1102.980571718923101798,-1103.067132082978787366
3.573573573573573636,-1102.982321130630907646,-1103.068472119451598701
3.579579579579579729,-1102.984015659191300074,-1103.069806727696914095
3.585585585585585378,-1102.985550161123228463,-1103.071135938630277451
3.591591591591591470,-1102.986833653673329536,-1103.072459782939404249
3.597597597597597563,-1102.987863898842533672,-1103.073778291088046899
3.603603603603603656,-1102.991184588571286440,-1103.075091493316676861
3.609609609609609748,-1102.992713296752071983,-1103.076399419644985755
3.615615615615615397,-1102.994230343139406614,-1103.077702099874386477
3.621621621621621490,-1102.995732539131722660,-1103.078999563588922683
3.627627627627627582,-1102.997236290152386573,-1103.080291840157997285
3.633633633633633675,-1102.997712184730517038,-1103.081578958737964058
3.639639639639639768,-1102.999289193203139803,-1103.082860948273946633
3.645645645645645416,-1103.000396353057340093,-1103.084137837501884860
3.651651651651651509,-1103.002075223104611723,-1103.085409654950353797
3.657657657657657602,-1102.999627558046313425,-1103.086676428942155326
3.663663663663663694,-1103.009238166130216996,-1103.087938187597046635
3.669669669669669787,-1103.007597305210083505,-1103.089194958831740223
3.675675675675675436,-1103.008111027852237385,-1103.090446770363769247
3.681681681681681528,-1103.010509949109746231,-1103.091693649711487524
3.687687687687687621,-1103.010643401218203508,-1103.092935624197252764
3.693693693693693714,-1103.011191314680218056,-1103.094172720947653943
3.699699699699699806,-1103.013769359142088433,-1103.095404966896694532
3.705705705705705455,-1103.014606258681624240,-1103.096632388786247247
3.711711711711711548,-1103.016559082177082018,-1103.097855013169009908
3.717717717717717640,-1103.018192051659752906,-1103.099072866408505433
3.723723723723723733,-1103.021170272784274857,-1103.100285974682037704
3.729729729729729826,-1103.025439272491212250,-1103.101494363982283176
3.735735735735735918,-1103.020604222365591340,-1103.102698060117973000
3.741741741741741567,-1103.024738670506394556,-1103.103897088715939390
3.747747747747747660,-1103.024435361872747308,-1103.105091475223161979
3.753753753753753752,-1103.025823499598800481,-1103.106281244907904693
3.759759759759759845,-1103.030785085124080069,-1103.107466422860397870
3.765765765765765938,-1103.029561660025365200,-1103.108647033996476239
3.771771771771771586,-1103.029187807353537210,-1103.109823103056896798
3.777777777777777679,-1103.032551969935411762,-1103.110994654610294674
3.783783783783783772,-1103.034227235796834066,-1103.112161713053410494
3.789789789789789864,-1103.031344066647079671,-1103.113324302614046246
3.795795795795795957,-1103.032710642468146034,-1103.114482447351065275
3.801801801801801606,-1103.035091068578822160,-1103.115636171157120771
3.807807807807807698,-1103.035381223182412214,-1103.116785497758655765
3.813813813813813791,-1103.035236891286103855,-1103.117930450718858992
3.819819819819819884,-1103.047370527830025821,-1103.119071053437664887
3.825825825825825977,-1103.037598436610778663,-1103.120207329153799947
3.831831831831831625,-1103.043724275722752282,-1103.121339300946601725
3.837837837837837718,-1103.044251266485161977,-1103.122466991735791453
3.843843843843843811,-1103.050543634416726491,-1103.123590424285112022
3.849849849849849903,-1103.042630422145066404,-1103.124709621201418486
3.855855855855855996,-1103.053127701533412619,-1103.125824604937179174
3.861861861861861644,-1103.054411332263953227,-1103.126935397791839932
3.867867867867867737,-1103.047420445084298990,-1103.128042021912506243
3.873873873873873830,-1103.056940303833471262,-1103.129144499295534843
3.879879879879879923,-1103.048990470559147070,-1103.130242851787670588
3.885885885885886015,-1103.059491788468449158,-1103.131337101088092822
3.891891891891891664,-1103.055905536004729584,-1103.132427268747733251
3.897897897897897757,-1103.052399175813889087,-1103.133513376172459175
3.903903903903903849,-1103.058079880181821864,-1103.134595444623755611
3.909909909909909942,-1103.070197333355508817,-1103.135673495218725293
3.915915915915916035,-1103.056529968292807098,-1103.136747548933499274
3.921921921921921683,-1103.062803781555430760,-1103.137817626601872689
3.927927927927927776,-1103.073583088790883266,-1103.138883748918487981
3.933933933933933869,-1103.056201512979896506,-1103.139945936439062280
3.939939939939939961,-1103.077494652943187248,-1103.141004209581751638
3.945945945945946054,-1103.062517413342675354,-1103.142058588628060534
3.951951951951951703,-1103.063935841627198897,-1103.143109093724206105
3.957957957957957795,-1103.074302609443520851,-1103.144155744882027648
3.963963963963963888,-1103.066435091904168075,-1103.145198561980578233
3.969969969969969981,-1103.068301956568348032,-1103.146237564766124706
3.975975975975976073,-1103.077899547137803893,-1103.147272772854421419
3.981981981981982166,-1103.070732952730622856,-1103.148304205731392358
3.987987987987987815,-1103.071842838640350237,-1103.149331882753585887
3.993993993993993907,-1103.087350312465787283,-1103.150355823149993739
4.000000000000000000,-1103.074179707729399524,-1103.151376046022733135
4.006006006006005649,-1103.070104009636452247,-1103.152392570347956280
4.012012012012012185,-1103.071380936738250966,-1103.153405414977214605
4.018018018018017834,-1103.078239225512561461,-1103.154414598638140887
4.024024024024024371,-1103.087040277260257426,-1103.155420139935813495
4.030030030030030019,-1103.080716221413240419,-1103.156422057353211130
4.036036036036035668,-1103.081915064627764878,-1103.157420369252804448
4.042042042042042205,-1103.085468818642993938,-1103.158415093876783430
4.048048048048047853,-1103.086618066428172824,-1103.159406249348648998
4.054054054054054390,-1103.087773443695368769,-1103.160393853673895137
4.060060060060060039,-1103.088924304668580589,-1103.161377924741373135
4.066066066066065687,-1103.095212356126921804,-1103.162358480323064214
4.072072072072072224,-1103.096340845070471914,-1103.163335538076580633
4.078078078078077873,-1103.097508830561537252,-1103.164309115544710949
4.084084084084084409,-1103.090609897310741871,-1103.165279230157011625
4.090090090090090058,-1103.099753613461189161,-1103.166245899230943905
4.096096096096095707,-1103.095581767050362032,-1103.167209139971873810
4.102102102102102243,-1103.094924628356011453,-1103.168168969475118502
4.108108108108107892,-1103.107844740816517515,-1103.169125404725264161
4.114114114114114429,-1103.096748929895511537,-1103.170078462598894475
4.120120120120120077,-1103.097961083841255459,-1103.171028159863908513
4.126126126126125726,-1103.098490236791576535,-1103.171974513180884969
4.132132132132132263,-1103.100089387152365816,-1103.172917539104673779
4.138138138138137911,-1103.101191751251917594,-1103.173857254083941370
4.144144144144144448,-1103.109727447494151420,-1103.174793674462307536
4.150150150150150097,-1103.102884089282042623,-1103.175726816480619163
4.156156156156155745,-1103.104228371727003832,-1103.176656696275131253
4.162162162162162282,-1103.109765038658679259,-1103.177583329880917518
4.168168168168167931,-1103.105889688681600092,-1103.178506733230960890
4.174174174174174468,-1103.121133742137772060,-1103.179426922157745139
4.180180180180180116,-1103.115967826289534059,-1103.180343912393482242
4.186186186186185765,-1103.109387391664768074,-1103.181257719571249254
4.192192192192192302,-1103.115093359000866258,-1103.182168359226125176
4.198198198198197950,-1103.125302234383298128,-1103.183075846794963581
4.204204204204204487,-1103.126334203767100917,-1103.183980197617984231
4.210210210210210136,-1103.127362017287623530,-1103.184881426939000448
4.216216216216215784,-1103.119295422146478813,-1103.185779549906783359
4.222222222222222321,-1103.117285223521321313,-1103.186674581574834519
4.228228228228227970,-1103.121381592774923774,-1103.187566536903204906
4.234234234234234506,-1103.119715848322812235,-1103.188455430758267539
4.240240240240240155,-1103.120613958875765093,-1103.189341277914309103
4.246246246246245803,-1103.124471282134436478,-1103.190224093053075194
4.252252252252252340,-1103.122832751267424101,-1103.191103890765816686
4.258258258258257989,-1103.124030957333616243,-1103.191980685553062358
4.264264264264264526,-1103.125428647920671210,-1103.192854491825301011
4.270270270270270174,-1103.126500594190929405,-1103.193725323904573088
4.276276276276275823,-1103.127514375702958205,-1103.194593196023788551
4.282282282282282360,-1103.128492658939421744,-1103.195458122328318495
4.288288288288288008,-1103.129464900415541706,-1103.196320116876904649
4.294294294294294545,-1103.132532255390970022,-1103.197179193641204620
4.300300300300300194,-1103.133527892147412786,-1103.198035366507610888
4.306306306306305842,-1103.132383263516203442,-1103.198888649276796059
4.312312312312312379,-1103.134469167720908445,-1103.199739055665759224
4.318318318318318028,-1103.135458349161808655,-1103.200586599306461721
4.324324324324324564,-1103.137124180638693360,-1103.201431293749010365
4.330330330330330213,-1103.138100986952395033,-1103.202273152459611083
4.336336336336335862,-1103.139079531474862961,-1103.203112188823297402
4.342342342342342398,-1103.140055536076715725,-1103.203948416143475697
4.348348348348348047,-1103.139707650128457317,-1103.204781847642607318
4.354354354354354584,-1103.137811328518637310,-1103.205612496463118077
4.360360360360360232,-1103.141637650356869926,-1103.206440375667853004
4.366366366366366769,-1103.138969431401164911,-1103.207265498240531088
4.372372372372372418,-1103.142189960939504090,-1103.208087877086654771
4.378378378378378066,-1103.143481848064993756,-1103.208907525033737329
4.384384384384384603,-1103.143197851341938076,-1103.209724454831984986
4.390390390390390252,-1103.147577052906399331,-1103.210538679154751662
4.396396396396396788,-1103.148679601107005510,-1103.211350210600130595
4.402402402402402437,-1103.149575096196940649,-1103.212159061689362716
4.408408408408408086,-1103.150692212627063782,-1103.212965244869565140
4.414414414414414622,-1103.151496018856278170,-1103.213768772513049043
4.420420420420420271,-1103.147304583921595622,-1103.214569656918229157
4.426426426426426808,-1103.153352058308200867,-1103.215367910310533262
4.432432432432432456,-1103.154278116206569393,-1103.216163544841720068
4.438438438438438105,-1103.151134135043548667,-1103.216956572592152952
4.444444444444444642,-1103.163133617092398708,-1103.217747005569663088
4.450450450450450290,-1103.164036264495052819,-1103.218534855711141063
4.456456456456456827,-1103.164940831416970468,-1103.219320134882764251
4.462462462462462476,-1103.165836426510622914,-1103.220102854880451559
4.468468468468468124,-1103.166728617601393125,-1103.220883027430545553
4.474474474474474661,-1103.157974144336549216,-1103.221660664189357703
4.480480480480480310,-1103.168494078081948828,-1103.222435776745669500
4.486486486486486847,-1103.159083653571542527,-1103.223208376619368210
4.492492492492492495,-1103.160050938578251589,-1103.223978475262583743
4.498498498498498144,-1103.171146594153242404,-1103.224746084060143403
4.504504504504504681,-1103.160886990972812782,-1103.225511214330481380
4.510510510510510329,-1103.161775770513486350,-1103.226273877325638750
4.516516516516516866,-1103.162609064998832764,-1103.227034084231490851
4.522522522522522515,-1103.163493976071094949,-1103.227791846168884149
4.528528528528528163,-1103.164700341390471294,-1103.228547174193863611
4.534534534534534700,-1103.166882694354626437,-1103.229300079297900083
4.540540540540540349,-1103.162568599440646722,-1103.230050572408345033
4.546546546546546885,-1103.178091454163677554,-1103.230798664389340047
4.552552552552552534,-1103.178953886709678045,-1103.231544366042044203
4.558558558558558182,-1103.165473098293887233,-1103.232287688104634071
4.564564564564564719,-1103.180654984391821927,-1103.233028641253440583
4.570570570570570368,-1103.181503841915855446,-1103.233767236103176401
4.576576576576576905,-1103.182342899813875192,-1103.234503483206935925
4.582582582582582553,-1103.183182861341947500,-1103.235237393056877409
4.588588588588588202,-1103.184017808417138440,-1103.235968976085587201
4.594594594594594739,-1103.177103747111686971,-1103.236698242664488134
4.600600600600600387,-1103.177950112246890058,-1103.237425203106340632
4.606606606606606924,-1103.172688430656762648,-1103.238149867664560588
4.612612612612612573,-1103.187892922273022123,-1103.238872246533219368
4.618618618618618221,-1103.188172023220204210,-1103.239592349849090169
4.624624624624624758,-1103.175677637568924183,-1103.240310187690056409
4.630630630630630407,-1103.176662002076682256,-1103.241025770077385459
4.636636636636636943,-1103.177592766546467828,-1103.241739106974364404
4.642642642642642592,-1103.178493957241244061,-1103.242450208288119029
4.648648648648648241,-1103.179663421548639235,-1103.243159083869159076
4.654654654654654777,-1103.180464015927782384,-1103.243865743512742483
4.660660660660660426,-1103.181270789780228370,-1103.244570196957511143
4.666666666666666963,-1103.194665021132777838,-1103.245272453887992015
4.672672672672672611,-1103.183086903904040810,-1103.245972523933005505
4.678678678678678260,-1103.183955303681614168,-1103.246670416667939207
4.684684684684684797,-1103.197069754138965436,-1103.247366141613383661
4.690690690690690445,-1103.186232153756236585,-1103.248059708236951337
4.696696696696696982,-1103.200738390350124973,-1103.248751125952139773
4.702702702702702631,-1103.201523793775322702,-1103.249440404120150561
4.708708708708708279,-1103.202305433646642996,-1103.250127552049889346
4.714714714714714816,-1103.203084886545639165,-1103.250812578997511082
4.720720720720720465,-1103.201772745223024685,-1103.251495494167329525
4.726726726726727001,-1103.191051096373257678,-1103.252176306712726728
4.732732732732732650,-1103.203331520411666133,-1103.252855025735470917
4.738738738738738299,-1103.198627962255613966,-1103.253531660286853366
4.744744744744744835,-1103.193362907079972501,-1103.254206219367915764
4.750750750750750484,-1103.200185216831187063,-1103.254878711928768098
4.756756756756757021,-1103.194959397023239944,-1103.255549146870862387
4.762762762762762669,-1103.196497556484928282,-1103.256217533045628443
4.768768768768768318,-1103.204564090152189237,-1103.256883879255383363
4.774774774774774855,-1103.198159619343414306,-1103.257548194254241025
4.780780780780780503,-1103.198090665016479761,-1103.258210486747657342
4.786786786786787040,-1103.199382723622647973,-1103.258870765392430258
4.792792792792792689,-1103.200190144672887982,-1103.259529038798518741
4.798798798798798337,-1103.201181810850130205,-1103.260185315528133287
4.804804804804804874,-1103.207102564873821393,-1103.260839604095963296
4.810810810810810523,-1103.202670432409604473,-1103.261491912970541307
4.816816816816817060,-1103.210617974794331531,-1103.262142250573560887
4.822822822822822708,-1103.210808923661261360,-1103.262790625280786116
4.828828828828828357,-1103.205174047588116082,-1103.263437045421824223
4.834834834834834894,-1103.210842976937101412,-1103.264081519281035071
4.840840840840840542,-1103.213045138337747630,-1103.264724055097076416
4.846846846846847079,-1103.214337323462359564,-1103.265364661064495522
4.852852852852852727,-1103.215072881150945250,-1103.266003345332364916
4.858858858858858376,-1103.215816967832779483,-1103.266640116005874006
4.864864864864864913,-1103.216544932726264960,-1103.267274981146101709
4.870870870870870561,-1103.217276323494843382,-1103.267907948770243820
4.876876876876877098,-1103.211984262172563831,-1103.268539026852067764
4.882882882882882747,-1103.212387959872557985,-1103.269168223322367339
4.888888888888889284,-1103.213049044152967326,-1103.269795546068735348
4.894894894894894932,-1103.214018156242218538,-1103.270421002936473087
4.900900900900900581,-1103.214509549982267345,-1103.271044601728362977
4.906906906906907118,-1103.215625289123408947,-1103.271666350205350682
4.912912912912912766,-1103.219075601330132486,-1103.272286256086090361
4.918918918918919303,-1103.219875060517324528,-1103.272904327048536288
4.924924924924924952,-1103.216282810769371281,-1103.273520570728805978
4.930930930930930600,-1103.221461549335117525,-1103.274134994722089687
4.936936936936937137,-1103.225153725516747727,-1103.274747606583332526
4.942942942942942786,-1103.219490397909794410,-1103.275358413827007098
4.948948948948949322,-1103.223442691001764615,-1103.275967423926886113
4.954954954954954971,-1103.224148739825750454,-1103.276574644317179263
4.960960960960960620,-1103.227444426993770321,-1103.277180082392987970
4.966966966966967156,-1103.228675051345362590,-1103.277783745508941138
4.972972972972972805,-1103.229376520654113847,-1103.278385640981696270
4.978978978978979342,-1103.226674971646161794,-1103.278985776088575221
4.984984984984984990,-1103.226832453693759817,-1103.279584158067791577
4.990990990990990639,-1103.227525062543236345,-1103.280180794120269638
4.996996996996997176,-1103.225926971725584735,-1103.280775691407825434
5.003003003003002824,-1103.229365843094228694,-1103.281368857054985710
5.009009009009009361,-1103.230399412402448434,-1103.281960298148760558
5.015015015015015010,-1103.231120259958970564,-1103.282550021738188661
5.021021021021020658,-1103.231421886172711311,-1103.283138034835701546
5.027027027027027195,-1103.229298423630780235,-1103.283724344416668828
5.033033033033032844,-1103.229955483258891036,-1103.284308957419852959
5.039039039039039380,-1103.230588955228313353,-1103.284891880747636606
5.045045045045045029,-1103.231218071955936466,-1103.285473121266250018
5.051051051051050678,-1103.231947872239743447,-1103.286052685805543661
5.057057057057057214,-1103.238351939923404643,-1103.286630581160352449
5.063063063063062863,-1103.233275541795364916,-1103.287206814089358886
5.069069069069069400,-1103.239698445014482786,-1103.287781391316457302
5.075075075075075048,-1103.240361182020478736,-1103.288354319530526482
5.081081081081080697,-1103.234992618418118582,-1103.288925605384974915
5.087087087087087234,-1103.241675290858893277,-1103.289495255499559789
5.093093093093092882,-1103.242321129990841655,-1103.290063276458795372
5.099099099099099419,-1103.240111289818969453,-1103.290629674813544625
5.105105105105105068,-1103.240768430086518492,-1103.291194457080791835
5.111111111111110716,-1103.244292251961269358,-1103.291757629743415237
5.117117117117117253,-1103.244938235972540497,-1103.292319199251096506
5.123123123123122902,-1103.245584489699240294,-1103.292879172020093392
5.129129129129129439,-1103.240794949126438951,-1103.293437554433467085
5.135135135135135087,-1103.240731832134542856,-1103.293994352841764339
5.141141141141140736,-1103.247522815480351710,-1103.294549573562562728
5.147147147147147273,-1103.242117891523321305,-1103.295103222880925387
5.153153153153152921,-1103.242876339907525107,-1103.295655307049855764
5.159159159159159458,-1103.243860507299132223,-1103.296205832290070248
5.165165165165165106,-1103.244537049792825201,-1103.296754804790680282
5.171171171171170755,-1103.245112589370137357,-1103.297302230709192372
5.177177177177177292,-1103.245718452855726355,-1103.297848116171053334
5.183183183183182940,-1103.246353624973608021,-1103.298392467271241912
5.189189189189189477,-1103.252584586745797424,-1103.298935290073359283
5.195195195195195126,-1103.248637788785799785,-1103.299476590609856430
5.201201201201200774,-1103.249301661596064150,-1103.300016374882716264
5.207207207207207311,-1103.254455861790802373,-1103.300554648863453622
5.213213213213212960,-1103.255074224797908755,-1103.301091418493342644
5.219219219219219497,-1103.255699337632677270,-1103.301626689683644145
5.225225225225225145,-1103.256315242932942056,-1103.302160468315150865
5.231231231231230794,-1103.256932116926464005,-1103.302692760239551717
5.237237237237237331,-1103.257544625558921325,-1103.303223571278522286
5.243243243243242979,-1103.258155685218071085,-1103.303752907224634328
5.249249249249249516,-1103.254004560743624097,-1103.304280773841128394
5.255255255255255165,-1103.263536200207909133,-1103.304807176862368578
5.261261261261260813,-1103.264133798868215308,-1103.305332121993842520
5.267267267267267350,-1103.251592635233464534,-1103.305855614912161400
5.273273273273272999,-1103.257868071814300492,-1103.306377661265742063
5.279279279279279535,-1103.252950318043076550,-1103.306898266674579645
5.285285285285285184,-1103.258247569630384533,-1103.307417436730474947
5.291291291291290833,-1103.258925516511681053,-1103.307935176997489179
5.297297297297297369,-1103.259518401126115350,-1103.308451493011716593
5.303303303303303018,-1103.260246571829839013,-1103.308966390281284475
5.309309309309309555,-1103.264763835626808941,-1103.309479874287717394
5.315315315315315203,-1103.260139483366401691,-1103.309991950484572953
5.321321321321320852,-1103.261136063579442634,-1103.310502624298578667
5.327327327327327389,-1103.263652456131012514,-1103.311011901129177204
5.333333333333333037,-1103.262268431666143442,-1103.311519786349663264
5.339339339339339574,-1103.271181208537882412,-1103.312026285305819329
5.345345345345345223,-1103.271760304945473763,-1103.312531403317962031
5.351351351351350871,-1103.264023292296315049,-1103.313035145679577909
5.357357357357357408,-1103.266082919101336302,-1103.313537517657550779
5.363363363363363057,-1103.266666373431689863,-1103.314038524493753357
5.369369369369369593,-1103.274047124205480941,-1103.314538171403455635
5.375375375375375242,-1103.274615724917111947,-1103.315036463576689130
5.381381381381380891,-1103.267979100990714869,-1103.315533406177564757
5.387387387387387427,-1103.263673851711700991,-1103.316029004345409703
5.393393393393393076,-1103.269995746820541171,-1103.316523263193857929
5.399399399399399613,-1103.267605668060696189,-1103.317016187811304917
5.405405405405405261,-1103.265610287561003133,-1103.317507783262271914
5.411411411411411798,-1103.265381772954015105,-1103.317998054585132195
5.417417417417417447,-1103.266905845302744638,-1103.318487006794384797
5.423423423423423095,-1103.267526138899029320,-1103.318974644880427149
5.429429429429429632,-1103.272167768885537953,-1103.319460973808418203
5.435435435435435281,-1103.270773466121454476,-1103.319945998520097419
5.441441441441441818,-1103.280783069501467253,-1103.320429723932875277
5.447447447447447466,-1103.273508257619596407,-1103.320912154940060645
5.453453453453453115,-1103.272776698838470111,-1103.321393296411770280
5.459459459459459651,-1103.282440350922115613,-1103.321873153193791950
5.465465465465465300,-1103.282986961643473478,-1103.322351730109176060
5.471471471471471837,-1103.283531803359437617,-1103.322829031957326151
5.477477477477477485,-1103.284074658839017502,-1103.323305063513998903
5.483483483483483134,-1103.281266003629980332,-1103.323779829532895747
5.489489489489489671,-1103.281814046845738631,-1103.324253334743843880
5.495495495495495319,-1103.282459009371450520,-1103.324725583854615252
5.501501501501501856,-1103.277247434023820460,-1103.325196581549562325
5.507507507507507505,-1103.283435852211823658,-1103.325666332491437061
5.513513513513513153,-1103.283977479313989534,-1103.326134841320026680
5.519519519519519690,-1103.279075052828829939,-1103.326602112652835785
5.525525525525525339,-1103.285162919581807728,-1103.327068151085541103
5.531531531531531876,-1103.280862666728125987,-1103.327532961191764116
5.537537537537537524,-1103.281431110694256859,-1103.327996547522843684
5.543543543543543173,-1103.283305378766954163,-1103.328458914609200292
5.549549549549549710,-1103.281971818468491620,-1103.328920066958744428
5.555555555555555358,-1103.282481473165944408,-1103.329380009058695578
5.561561561561561895,-1103.288358608363978419,-1103.329838745374445352
5.567567567567567544,-1103.284449063560941795,-1103.330296280350239613
5.573573573573573192,-1103.284940319165571054,-1103.330752618409405841
5.579579579579579729,-1103.289942150196338844,-1103.331207763953898393
5.585585585585585378,-1103.285798770986957607,-1103.331661721365207995
5.591591591591591914,-1103.290884070465153854,-1103.332114495003906995
5.597597597597597563,-1103.291405659546626339,-1103.332566089209876736
5.603603603603603212,-1103.287061058660356139,-1103.333016508302989678
5.609609609609609748,-1103.292446929620382434,-1103.333465756581745154
5.615615615615615397,-1103.292964002009966862,-1103.333913838325315737
5.621621621621621934,-1103.293480141061081667,-1103.334360757792410368
5.627627627627627582,-1103.293987436275756409,-1103.334806519221501730
5.633633633633633231,-1103.294501414724891220,-1103.335251126831280999
5.639639639639639768,-1103.290077452358900700,-1103.335694584820885211
5.645645645645645416,-1103.293711172307666857,-1103.336136897369442522
5.651651651651651953,-1103.294627699295233469,-1103.336578068636526950
5.657657657657657602,-1103.295195220203140707,-1103.337018102762385752
5.663663663663663250,-1103.295240388289585098,-1103.337457003867939420
5.669669669669669787,-1103.293029612334976264,-1103.337894776054781687
5.675675675675675436,-1103.293646620045819873,-1103.338331423405179521
5.681681681681681972,-1103.294129071487532201,-1103.338766949982755250
5.687687687687687621,-1103.294664136194114690,-1103.339201359832031812
5.693693693693693270,-1103.295341472201698707,-1103.339634656978660132
5.699699699699699806,-1103.295805523149738292,-1103.340066845429873865
5.705705705705705455,-1103.296296830510300424,-1103.340497929173807279
5.711711711711711992,-1103.301028130653776316,-1103.340927912180632120
5.717717717717717640,-1103.301523276125863049,-1103.341356798401648120
5.723723723723723289,-1103.297630306637302056,-1103.341784591770647239
5.729729729729729826,-1103.302507555443071396,-1103.342211296202094672
5.735735735735735474,-1103.303086017218447523,-1103.342636915593402591
5.741741741741742011,-1103.303485234386471348,-1103.343061453823565898
5.747747747747747660,-1103.302399709146584428,-1103.343484914753844350
5.753753753753753308,-1103.302889274286599175,-1103.343907302227762557
5.759759759759759845,-1103.305029550854214904,-1103.344328620070655234
5.765765765765765494,-1103.305428906768611341,-1103.344748872091031444
5.771771771771772030,-1103.301815151370192325,-1103.345168062079665106
5.777777777777777679,-1103.306416782979795244,-1103.345586193809822362
5.783783783783783328,-1103.306896941655622868,-1103.346003271037488958
5.789789789789789864,-1103.303163634733664367,-1103.346419297501824985
5.795795795795795513,-1103.303672249093779101,-1103.346834276924255391
5.801801801801802050,-1103.303551299745777214,-1103.347248213010061590
5.807807807807807698,-1103.304146373006688009,-1103.347661109446789851
5.813813813813813347,-1103.304609254631031945,-1103.348072969905615537
5.819819819819819884,-1103.305149783625438431,-1103.348483798041343107
5.825825825825825532,-1103.304993058516629389,-1103.348893597491496621
5.831831831831832069,-1103.310704686196686453,-1103.349302371877456608
5.837837837837837718,-1103.306158685096306726,-1103.349710124804005318
5.843843843843843366,-1103.306481657240055938,-1103.350116859859781471
5.849849849849849903,-1103.312111202220876294,-1103.350522580617280255
5.855855855855855552,-1103.307430376362617608,-1103.350927290632398581
5.861861861861862089,-1103.313057142938987454,-1103.351330993445344575
5.867867867867867737,-1103.313521245229594570,-1103.351733692579955459
5.873873873873873386,-1103.313981813607597360,-1103.352135391544834420
5.879879879879879923,-1103.314441056455052603,-1103.352536093832441111
5.885885885885885571,-1103.314901397726998766,-1103.352935802919091657
5.891891891891892108,-1103.310863284483048119,-1103.353334522266095519
5.897897897897897757,-1103.315823249756022051,-1103.353732255318846001
5.903903903903904293,-1103.311789734196963764,-1103.354129005507729744
5.909909909909909942,-1103.312283043128445570,-1103.354524776247217233
5.915915915915915591,-1103.317191058967864592,-1103.354919570936772288
5.921921921921922127,-1103.313227198966615106,-1103.355313392960624697
5.927927927927927776,-1103.313545465981405869,-1103.355706245687997580
5.933933933933934313,-1103.314001261926705411,-1103.356098132472880025
5.939939939939939961,-1103.314409819248794520,-1103.356489056654254455
5.945945945945945610,-1103.314888751521039012,-1103.356879021556551379
5.951951951951952147,-1103.315234911188326805,-1103.357268030489194643
5.957957957957957795,-1103.315789357255198411,-1103.357656086746828805
5.963963963963964332,-1103.320767517061767649,-1103.358043193609546506
5.969969969969969981,-1103.321213397490282659,-1103.358429354342888473
5.975975975975975629,-1103.317121718720500212,-1103.358814572198070891
5.981981981981982166,-1103.322097096538300320,-1103.359198850411758031
5.987987987987987815,-1103.322539932367590154,-1103.359582192206289619
5.993993993993994351,-1103.322978388608589739,-1103.359964600789908218
6.000000000000000000,-1103.323419320550101475,-1103.360346079356304472
