----------------------------------------
Begin Batch Job Prologue Wed Oct 28 10:20:38 EDT 2020
Job ID:           343262
Username:         tuf53878
Group:            perdew
Job Name:         mcp07_corr_en
Resources List:   walltime=00:10:00,nodes=1:ppn=20,neednodes=1:ppn=20
Queue:            normal
Account:          
Nodes:            e037 
----------------------------------------
End Batch Job Prologue Wed Oct 28 10:20:38 EDT 2020
----------------------------------------
----------------------------------------
Begin Batch Job Epilogue Wed Oct 28 10:28:37 EDT 2020
Job ID:           343262
Username:         tuf53878
Group:            perdew
Job Name:         mcp07_corr_en
Session:          16369
Limits:           walltime=00:10:00,nodes=1:ppn=20,neednodes=1:ppn=20
Resources:        cput=01:12:24,vmem=10387796kb,walltime=00:07:59,mem=519784kb,energy_used=0
Queue:            normal
Account:          
----------------------------------------
End Batch Job Epilogue Wed Oct 28 10:28:57 EDT 2020
----------------------------------------
