# x, K-K, Model
0.000000000000000000e+00,7.627685864734033983e-01,7.627597635018132927e-01
6.006006006006005954e-03,7.796055629833290590e-01,7.627107553963714537e-01
1.201201201201201191e-02,7.797700759406446247e-01,7.625637521175844258e-01
1.801801801801801786e-02,7.798462158083627749e-01,7.623188167585842612e-01
2.402402402402402382e-02,7.798341273817435138e-01,7.619760544096723098e-01
3.003003003003002977e-02,7.797340774342622627e-01,7.615356120610542456e-01
3.603603603603603572e-02,7.795460970694929603e-01,7.609976784668862626e-01
4.204204204204203821e-02,7.792705870413673130e-01,7.603624839708545968e-01
4.804804804804804763e-02,7.789079679422059588e-01,7.596303002935657078e-01
5.405405405405405705e-02,7.784586155445225586e-01,7.588014402820920656e-01
6.006006006006005954e-02,7.779227528420267213e-01,7.578762576220753333e-01
6.606606606606606202e-02,7.773008420006916053e-01,7.568551465128420253e-01
7.207207207207207145e-02,7.765937019296426103e-01,7.557385413060572210e-01
7.807807807807808087e-02,7.758012756447137948e-01,7.545269161084884324e-01
8.408408408408407642e-02,7.749237857291496612e-01,7.532207843495084543e-01
9.009009009009008584e-02,7.739628792547655900e-01,7.518206983140277577e-01
9.609609609609609526e-02,7.729193191457224277e-01,7.503272486415832887e-01
1.021021021021021047e-01,7.717923148616561146e-01,7.487410637923795909e-01
1.081081081081081141e-01,7.705843096390250224e-01,7.470628094811125885e-01
1.141141141141141097e-01,7.692944618191397410e-01,7.452931880794577690e-01
1.201201201201201191e-01,7.679250250327953609e-01,7.434329379881491340e-01
1.261261261261261146e-01,7.664764552371451378e-01,7.414828329796178119e-01
1.321321321321321240e-01,7.649483115184482207e-01,7.394436815121945283e-01
1.381381381381381335e-01,7.633415813640318515e-01,7.373163260169266486e-01
1.441441441441441429e-01,7.616591047662947256e-01,7.351016421580850446e-01
1.501501501501501523e-01,7.599001760962191820e-01,7.328005380684738945e-01
1.561561561561561617e-01,7.580664465304892685e-01,7.304139535606899436e-01
1.621621621621621712e-01,7.561597950791947298e-01,7.279428593154979588e-01
1.681681681681681528e-01,7.541779709821301303e-01,7.253882560485170883e-01
1.741741741741741623e-01,7.521256582062583185e-01,7.227511736564382616e-01
1.801801801801801717e-01,7.500030965865198684e-01,7.200326703440055320e-01
1.861861861861861811e-01,7.478085866965282769e-01,7.172338317330183566e-01
1.921921921921921905e-01,7.455464593326112110e-01,7.143557699546191353e-01
1.981981981981981999e-01,7.432165393929688335e-01,7.113996227261470962e-01
2.042042042042042094e-01,7.408207280482078660e-01,7.083665524138433867e-01
2.102102102102102188e-01,7.383593347393135886e-01,7.052577450827069994e-01
2.162162162162162282e-01,7.358339015643033942e-01,7.020744095347898339e-01
2.222222222222222099e-01,7.332457194996545580e-01,6.988177763372374063e-01
2.282282282282282193e-01,7.305977131201436547e-01,6.954890968413667274e-01
2.342342342342342287e-01,7.278865502418758737e-01,6.920896421940750942e-01
2.402402402402402382e-01,7.251197987557257418e-01,6.886207023428623231e-01
2.462462462462462476e-01,7.222907865707971498e-01,6.850835850357498424e-01
2.522522522522522292e-01,7.194088134737832707e-01,6.814796148173521972e-01
2.582582582582582664e-01,7.164708634932248632e-01,6.778101320223607340e-01
2.642642642642642481e-01,7.134808320474472776e-01,6.740764917676691503e-01
2.702702702702702853e-01,7.104331638847765085e-01,6.702800629443611546e-01
2.762762762762762669e-01,7.073372737399198362e-01,6.664222272107568346e-01
2.822822822822823041e-01,7.041927864592386621e-01,6.625043779876929051e-01
2.882882882882882858e-01,7.009947552205988419e-01,6.585279194571920236e-01
2.942942942942942675e-01,6.977533154452626452e-01,6.544942655656396102e-01
3.003003003003003046e-01,6.944650632236841759e-01,6.504048390325783968e-01
3.063063063063062863e-01,6.911325315888300347e-01,6.462610703661790801e-01
3.123123123123123235e-01,6.877584090406624329e-01,6.420643968864386819e-01
3.183183183183183051e-01,6.843413758506158295e-01,6.378162617571070392e-01
3.243243243243243423e-01,6.808794825754536095e-01,6.335181130273216388e-01
3.303303303303303240e-01,6.773844140813000125e-01,6.291714026838921558e-01
3.363363363363363057e-01,6.738463224605129032e-01,6.247775857151401935e-01
3.423423423423423428e-01,6.702755832912132838e-01,6.203381191871700784e-01
3.483483483483483245e-01,6.666677519665504814e-01,6.158544613334006046e-01
3.543543543543543617e-01,6.630239061642159148e-01,6.113280706581574186e-01
3.603603603603603434e-01,6.593496362134236843e-01,6.067604050550876593e-01
3.663663663663663805e-01,6.556441268477954942e-01,6.021529209411126127e-01
3.723723723723723622e-01,6.519079390670011742e-01,5.975070724066064987e-01
3.783783783783783994e-01,6.481428451997346407e-01,5.928243103824409888e-01
3.843843843843843811e-01,6.443497956722787912e-01,5.881060818244993049e-01
3.903903903903903627e-01,6.405296846915389253e-01,5.833538289162262247e-01
3.963963963963963999e-01,6.366899051555442446e-01,5.785689882897347980e-01
4.024024024024023816e-01,6.328187296041599685e-01,5.737529902659618264e-01
4.084084084084084187e-01,6.289292447113594697e-01,5.689072581143085339e-01
4.144144144144144004e-01,6.250177372938399145e-01,5.640332073321829842e-01
4.204204204204204376e-01,6.210848216342735872e-01,5.591322449448058451e-01
4.264264264264264193e-01,6.171407138672441173e-01,5.542057688256138981e-01
4.324324324324324564e-01,6.131671144968192655e-01,5.492551670375482864e-01
4.384384384384384381e-01,6.091827409472791999e-01,5.442818171954889594e-01
4.444444444444444198e-01,6.051824920937421970e-01,5.392870858500463660e-01
4.504504504504504570e-01,6.011692976660565346e-01,5.342723278928992459e-01
4.564564564564564386e-01,5.971434496927885416e-01,5.292388859838190740e-01
4.624624624624624758e-01,5.930994344273313734e-01,5.241880899994962872e-01
4.684684684684684575e-01,5.890449297210529345e-01,5.191212565042492288e-01
4.744744744744744946e-01,5.849909779459002701e-01,5.140396882426554459e-01
4.804804804804804763e-01,5.809219551933542114e-01,5.089446736541238803e-01
4.864864864864864580e-01,5.768400185232850363e-01,5.038374864093891903e-01
4.924924924924924952e-01,5.727562935644019415e-01,4.987193849688796865e-01
4.984984984984984768e-01,5.686643146209943156e-01,4.935916121628856623e-01
5.045045045045044585e-01,5.645692447978900574e-01,4.884553947934190954e-01
5.105105105105105512e-01,5.604703533047652453e-01,4.833119432576397645e-01
5.165165165165165329e-01,5.563682144272265040e-01,4.781624511926844678e-01
5.225225225225225145e-01,5.522637790400412028e-01,4.730080951417241497e-01
5.285285285285284962e-01,5.481590033608746415e-01,4.678500342410380486e-01
5.345345345345344779e-01,5.440516645516630945e-01,4.626894099278821004e-01
5.405405405405405705e-01,5.399472722968076122e-01,4.575273456688990215e-01
5.465465465465465522e-01,5.358435134715150427e-01,4.523649467088045051e-01
5.525525525525525339e-01,5.317423108553439581e-01,4.472032998390590985e-01
5.585585585585585155e-01,5.276446580194441571e-01,4.420434731862196154e-01
5.645645645645646082e-01,5.235492876563601072e-01,4.368865160196494513e-01
5.705705705705705899e-01,5.194609809798740319e-01,4.317334585782491851e-01
5.765765765765765716e-01,5.153756869098943261e-01,4.265853119158500295e-01
5.825825825825825532e-01,5.112989274199755130e-01,4.214430677649113610e-01
5.885885885885885349e-01,5.072267928447613539e-01,4.163076984181368068e-01
5.945945945945946276e-01,5.031642702533317690e-01,4.111801566276223618e-01
6.006006006006006093e-01,4.991077630708074531e-01,4.060613755211350817e-01
6.066066066066065909e-01,4.950605182135744964e-01,4.009522685351120663e-01
6.126126126126125726e-01,4.910240073665529947e-01,3.958537293639631249e-01
6.186186186186186653e-01,4.869965322916941508e-01,3.907666319252501852e-01
6.246246246246246470e-01,4.829809683584425639e-01,3.856918303403151227e-01
6.306306306306306286e-01,4.789767401326561758e-01,3.806301589299132537e-01
6.366366366366366103e-01,4.749836532676041667e-01,3.755824322244173952e-01
6.426426426426425920e-01,4.710039609539383720e-01,3.705494449881428509e-01
6.486486486486486847e-01,4.670367242437979960e-01,3.655319722573484031e-01
6.546546546546546663e-01,4.630817497529983728e-01,3.605307693914605593e-01
6.606606606606606480e-01,4.591440014083205123e-01,3.555465721370713594e-01
6.666666666666666297e-01,4.552187621691357600e-01,3.505800967042600469e-01
6.726726726726726113e-01,4.513090431930844582e-01,3.456320398547835793e-01
6.786786786786787040e-01,4.474146236258042530e-01,3.407030790016882249e-01
6.846846846846846857e-01,4.435364969101239230e-01,3.357938723198931608e-01
6.906906906906906674e-01,4.396736387111264688e-01,3.309050588672989290e-01
6.966966966966966490e-01,4.358296171952656950e-01,3.260372587159779956e-01
7.027027027027027417e-01,4.319997014902337007e-01,3.211910730930068736e-01
7.087087087087087234e-01,4.281891500908874826e-01,3.163670845305032731e-01
7.147147147147147050e-01,4.243962175428138139e-01,3.115658570244369541e-01
7.207207207207206867e-01,4.206211754889356280e-01,3.067879362017882916e-01
7.267267267267266684e-01,4.168660307338503124e-01,3.020338494956301689e-01
7.327327327327327611e-01,4.131279731308152292e-01,2.973041063277223062e-01
7.387387387387387427e-01,4.094099097326476810e-01,2.925991982982036332e-01
7.447447447447447244e-01,4.057133585431689782e-01,2.879195993819829713e-01
7.507507507507507061e-01,4.020324598019066054e-01,2.832657661314310071e-01
7.567567567567567988e-01,3.983746233424536598e-01,2.786381378849845381e-01
7.627627627627627804e-01,3.947321587248629471e-01,2.740371369812815705e-01
7.687687687687687621e-01,3.911179053298219910e-01,2.694631689784542372e-01
7.747747747747747438e-01,3.875146393484547036e-01,2.649166228782121046e-01
7.807807807807807254e-01,3.839432157718264960e-01,2.603978713543603773e-01
7.867867867867868181e-01,3.803890213886028659e-01,2.559072709854010030e-01
7.927927927927927998e-01,3.768539648004358145e-01,2.514451624908793925e-01
7.987987987987987815e-01,3.733424473004132715e-01,2.470118709711393579e-01
8.048048048048047631e-01,3.698518367045916522e-01,2.426077061501677734e-01
8.108108108108108558e-01,3.663822835180832738e-01,2.382329626212104923e-01
8.168168168168168375e-01,3.629361062743063360e-01,2.338879200948555670e-01
8.228228228228228192e-01,3.595111543855857850e-01,2.295728436492851798e-01
8.288288288288288008e-01,3.561083404399728591e-01,2.252879839824095953e-01
8.348348348348347825e-01,3.527262964319133887e-01,2.210335776656031093e-01
8.408408408408408752e-01,3.493697689870239875e-01,2.168098473987717101e-01
8.468468468468468568e-01,3.460369310065996573e-01,2.126170022664924941e-01
8.528528528528528385e-01,3.427211687531495077e-01,2.084552379949701773e-01
8.588588588588588202e-01,3.394282770193062793e-01,2.043247372095703396e-01
8.648648648648649129e-01,3.361655993062251935e-01,2.002256696926921764e-01
8.708708708708708945e-01,3.329214085844927618e-01,1.961581926417571287e-01
8.768768768768768762e-01,3.296996940663448616e-01,1.921224509270939018e-01
8.828828828828828579e-01,3.265023738763269123e-01,1.881185773495147873e-01
8.888888888888888395e-01,3.233261811061897695e-01,1.841466928973794215e-01
8.948948948948949322e-01,3.201740526979956480e-01,1.802069070029581332e-01
9.009009009009009139e-01,3.170448519102589402e-01,1.762993177979088888e-01
9.069069069069068956e-01,3.139384928043113532e-01,1.724240123676942515e-01
9.129129129129128772e-01,3.108567745776066871e-01,1.685810670047704907e-01
9.189189189189188589e-01,3.077963791961000339e-01,1.647705474603911313e-01
9.249249249249249516e-01,3.047623376970438613e-01,1.609925091948708198e-01
9.309309309309309333e-01,3.017455097980707990e-01,1.572469976261693103e-01
9.369369369369369149e-01,2.987584066571976060e-01,1.535340483766559350e-01
9.429429429429428966e-01,2.957886076097194228e-01,1.498536875179278804e-01
9.489489489489489893e-01,2.928439664711454671e-01,1.462059318135588981e-01
9.549549549549549710e-01,2.899238295727925019e-01,1.425907889596650657e-01
9.609609609609609526e-01,2.870224365387974430e-01,1.390082578231772725e-01
9.669669669669669343e-01,2.841500806547666014e-01,1.354583286777218398e-01
9.729729729729729160e-01,2.812958623292450278e-01,1.319409834370111612e-01
9.789789789789790087e-01,2.784672126342196963e-01,1.284561958856587638e-01
9.849849849849849903e-01,2.756606452371515026e-01,1.250039319073340538e-01
9.909909909909909720e-01,2.728739743012040253e-01,1.215841497101801116e-01
9.969969969969969537e-01,2.701138162424583933e-01,1.181968000494258708e-01
1.003003003003003046e+00,2.673762800853261012e-01,1.148418264471245398e-01
1.009009009009008917e+00,2.646584443691624711e-01,1.115191654089610906e-01
1.015015015015015010e+00,2.619644917790325267e-01,1.082287466380714019e-01
1.021021021021021102e+00,2.592924086299345787e-01,1.049704932458271900e-01
1.027027027027026973e+00,2.566410051725246388e-01,1.017443219595382392e-01
1.033033033033033066e+00,2.540138463156356718e-01,9.855014332703503077e-02
1.039039039039038936e+00,2.514123623332830681e-01,9.538786191809529857e-02
1.045045045045045029e+00,2.488265087079916671e-01,9.225737652268312106e-02
1.051051051051051122e+00,2.462662751768335267e-01,8.915858034597591575e-02
1.057057057057056992e+00,2.437247476775694921e-01,8.609136120015382920e-02
1.063063063063063085e+00,2.412071630741889905e-01,8.305560169293525752e-02
1.069069069069068956e+00,2.387125231411700854e-01,8.005117941284346783e-02
1.075075075075075048e+00,2.362378731745974625e-01,7.707796711119090094e-02
1.081081081081081141e+00,2.337857992211697378e-01,7.413583288077622846e-02
1.087087087087087012e+00,2.313521980703133751e-01,7.122464033128780847e-02
1.093093093093093104e+00,2.289416783489841845e-01,6.834424876141173555e-02
1.099099099099099197e+00,2.265518840838054992e-01,6.549451332764884282e-02
1.105105105105105068e+00,2.241840652946401335e-01,6.267528520984154417e-02
1.111111111111111160e+00,2.218363869507685437e-01,5.988641177342018951e-02
1.117117117117117031e+00,2.195081216298065407e-01,5.712773672837915401e-02
1.123123123123123124e+00,2.172014626009045046e-01,5.439910028499179290e-02
1.129129129129129216e+00,2.149139507035895125e-01,5.170033930628355895e-02
1.135135135135135087e+00,2.126503163700467491e-01,4.903128745727618892e-02
1.141141141141141180e+00,2.104048713867908149e-01,4.639177535102340794e-02
1.147147147147147050e+00,2.081781208650686221e-01,4.378163069146039088e-02
1.153153153153153143e+00,2.059728030816595779e-01,4.120067841308736739e-02
1.159159159159159236e+00,2.037861985345555960e-01,3.864874081751406426e-02
1.165165165165165106e+00,2.016217304893636597e-01,3.612563770688979187e-02
1.171171171171171199e+00,1.994753632314107961e-01,3.363118651424759631e-02
1.177177177177177070e+00,1.973464744221171407e-01,3.116520243079234573e-02
1.183183183183183163e+00,1.952385565456578320e-01,2.872749853016108579e-02
1.189189189189189255e+00,1.931509819467705780e-01,2.631788588969088266e-02
1.195195195195195126e+00,1.910820349665711404e-01,2.393617370872385200e-02
1.201201201201201219e+00,1.890313670502427323e-01,2.158216942398499816e-02
1.207207207207207089e+00,1.869968142144547152e-01,1.925567882206852960e-02
1.213213213213213182e+00,1.849840153084285344e-01,1.695650614906679329e-02
1.219219219219219275e+00,1.829894225491051629e-01,1.468445421738049338e-02
1.225225225225225145e+00,1.810148178364819893e-01,1.243932450974620865e-02
1.231231231231231238e+00,1.790564372597580334e-01,1.022091728051994358e-02
1.237237237237237331e+00,1.771164261501047277e-01,8.029031654256571504e-03
1.243243243243243201e+00,1.751937953832413686e-01,5.863465721622529957e-03
1.249249249249249294e+00,1.732889377892070093e-01,3.724016632682725352e-03
1.255255255255255165e+00,1.714037060743159036e-01,1.610480687602786846e-03
1.261261261261261257e+00,1.695339355690609340e-01,-4.773465751950633118e-04
1.267267267267267350e+00,1.676816371315464904e-01,-2.539670293379176370e-03
1.273273273273273221e+00,1.658476465673950628e-01,-4.576696197519083444e-03
1.279279279279279313e+00,1.640302740348604238e-01,-6.588630530318283912e-03
1.285285285285285184e+00,1.622291984340090698e-01,-8.575679968225818212e-03
1.291291291291291277e+00,1.604458113803683417e-01,-1.053805154538799138e-02
1.297297297297297369e+00,1.586795501926403507e-01,-1.247595257989578613e-02
1.303303303303303240e+00,1.569283155447123990e-01,-1.438959060228824950e-02
1.309309309309309333e+00,1.551943433276103124e-01,-1.627917328626962701e-02
1.315315315315315203e+00,1.534778641136780308e-01,-1.814490838159775465e-02
1.321321321321321296e+00,1.517773161669966342e-01,-1.998700364910454760e-02
1.327327327327327389e+00,1.500918619602627513e-01,-2.180566679780421985e-02
1.333333333333333259e+00,1.484205343496064755e-01,-2.360110542405106579e-02
1.339339339339339352e+00,1.467674008935850594e-01,-2.537352695270380515e-02
1.345345345345345223e+00,1.451328066144589035e-01,-2.712313858025647284e-02
1.351351351351351315e+00,1.435110425581685445e-01,-2.885014721989587541e-02
1.357357357357357408e+00,1.419008661650279779e-01,-3.055475944844431718e-02
1.363363363363363279e+00,1.403079304186057030e-01,-3.223718145514876954e-02
1.369369369369369371e+00,1.387303093778172736e-01,-3.389761899227664715e-02
1.375375375375375464e+00,1.371678266060078755e-01,-3.553627732747818846e-02
1.381381381381381335e+00,1.356219934518224091e-01,-3.715336119787800845e-02
1.387387387387387427e+00,1.340896514743795676e-01,-3.874907476585628952e-02
1.393393393393393298e+00,1.325704768127670963e-01,-4.032362157648185924e-02
1.399399399399399391e+00,1.310678202407546677e-01,-4.187720451655971288e-02
1.405405405405405483e+00,1.295783673329698460e-01,-4.341002577525519129e-02
1.411411411411411354e+00,1.281053610972271717e-01,-4.492228680625925952e-02
1.417417417417417447e+00,1.266443779215067345e-01,-4.641418829145699948e-02
1.423423423423423317e+00,1.251942204412221094e-01,-4.788593010606442130e-02
1.429429429429429410e+00,1.237622460232529892e-01,-4.933771128519861410e-02
1.435435435435435503e+00,1.223419839893677002e-01,-5.076972999184461988e-02
1.441441441441441373e+00,1.209388823163703719e-01,-5.218218348618701430e-02
1.447447447447447466e+00,1.195459889872335923e-01,-5.357526809627029957e-02
1.453453453453453337e+00,1.181657165446643315e-01,-5.494917918995546186e-02
1.459459459459459429e+00,1.167991350353301261e-01,-5.630411114814038581e-02
1.465465465465465522e+00,1.154464721948995493e-01,-5.764025733921013250e-02
1.471471471471471393e+00,1.141079546566292346e-01,-5.895781009468727824e-02
1.477477477477477485e+00,1.127811532140737261e-01,-6.025696068604943084e-02
1.483483483483483578e+00,1.114660258703793067e-01,-6.153789930268337843e-02
1.489489489489489449e+00,1.101631983321132435e-01,-6.280081503094618600e-02
1.495495495495495542e+00,1.088743831063770512e-01,-6.404589583430307653e-02
1.501501501501501412e+00,1.075978453143382474e-01,-6.527332853451198180e-02
1.507507507507507505e+00,1.063326151700195038e-01,-6.648329879382831875e-02
1.513513513513513598e+00,1.050809515129713517e-01,-6.767599109819896763e-02
1.519519519519519468e+00,1.038392380392514081e-01,-6.885158874141975027e-02
1.525525525525525561e+00,1.026112609125842817e-01,-7.001027381022865981e-02
1.531531531531531432e+00,1.013954524902069415e-01,-7.115222717030793287e-02
1.537537537537537524e+00,1.001896001654023344e-01,-7.227762845316916540e-02
1.543543543543543617e+00,9.899642442137199239e-02,-7.338665604389565944e-02
1.549549549549549488e+00,9.781164098436230525e-02,-7.447948706971699306e-02
1.555555555555555580e+00,9.664087005641078254e-02,-7.555629738939133311e-02
1.561561561561561451e+00,9.548320983470622025e-02,-7.661726158337096859e-02
1.567567567567567544e+00,9.433389296330071949e-02,-7.766255294472808324e-02
1.573573573573573636e+00,9.319756867262855848e-02,-7.869234347081671688e-02
1.579579579579579507e+00,9.206810324860305317e-02,-7.970680385564971049e-02
1.585585585585585600e+00,9.095321710297209206e-02,-8.070610348296707037e-02
1.591591591591591470e+00,8.984836361378269187e-02,-8.169041041997480990e-02
1.597597597597597563e+00,8.875522924995747631e-02,-8.265989141173341048e-02
1.603603603603603656e+00,8.767046360908548053e-02,-8.361471187617393330e-02
1.609609609609609526e+00,8.659546132498109616e-02,-8.455503589972328260e-02
1.615615615615615619e+00,8.553319062787295701e-02,-8.548102623351738760e-02
1.621621621621621712e+00,8.448034805600541930e-02,-8.639284429018359579e-02
1.627627627627627582e+00,8.343743735553871277e-02,-8.729065014117322330e-02
1.633633633633633675e+00,8.240445256483265590e-02,-8.817460251462624909e-02
1.639639639639639546e+00,8.138119125503905094e-02,-8.904485879374902935e-02
1.645645645645645638e+00,8.036836165063206139e-02,-8.990157501568912801e-02
1.651651651651651731e+00,7.936442855816629172e-02,-9.074490587088800131e-02
1.657657657657657602e+00,7.837151758174258631e-02,-9.157500470289700600e-02
1.663663663663663694e+00,7.738667377344135567e-02,-9.239202350863857938e-02
1.669669669669669565e+00,7.641133701624379382e-02,-9.319611293909751959e-02
1.675675675675675658e+00,7.544536040987930015e-02,-9.398742230042676782e-02
1.681681681681681750e+00,7.448932638429275888e-02,-9.476609955545227393e-02
1.687687687687687621e+00,7.354319130179221009e-02,-9.553229132556216585e-02
1.693693693693693714e+00,7.260414656229201291e-02,-9.628614289296659468e-02
1.699699699699699584e+00,7.167431922208508666e-02,-9.702779820331237925e-02
1.705705705705705677e+00,7.075447470094807512e-02,-9.775739986864127873e-02
1.711711711711711770e+00,6.984292719352608314e-02,-9.847508917067610001e-02
1.717717717717717640e+00,6.894177795836219091e-02,-9.918100606442376010e-02
1.723723723723723733e+00,6.804668293927036704e-02,-9.987528918208099515e-02
1.729729729729729826e+00,6.716136990291840525e-02,-1.005580758372316696e-01
1.735735735735735696e+00,6.628288327168267713e-02,-1.012295020293229181e-01
1.741741741741741789e+00,6.541444297406300012e-02,-1.018897024484088226e-01
1.747747747747747660e+00,6.455531961520424855e-02,-1.025388104801503858e-01
1.753753753753753752e+00,6.370316229026398713e-02,-1.031769582110605155e-01
1.759759759759759845e+00,6.285972265039534157e-02,-1.038042764339834750e-01
1.765765765765765716e+00,6.202170212409509331e-02,-1.044208946537983074e-01
1.771771771771771808e+00,6.119434516182029049e-02,-1.050269410933362679e-01
1.777777777777777679e+00,6.037553045031372745e-02,-1.056225426995023586e-01
1.783783783783783772e+00,5.956420521493352438e-02,-1.062078251495911091e-01
1.789789789789789864e+00,5.875943274931267474e-02,-1.067829128577879316e-01
1.795795795795795735e+00,5.796067884116762325e-02,-1.073479289818463911e-01
1.801801801801801828e+00,5.717145017839739968e-02,-1.079029954299332850e-01
1.807807807807807698e+00,5.639183636126005733e-02,-1.084482328676322077e-01
1.813813813813813791e+00,5.561758906029572874e-02,-1.089837607250984525e-01
1.819819819819819884e+00,5.485043619020737310e-02,-1.095096972043560213e-01
1.825825825825825754e+00,5.408852133096327813e-02,-1.100261592867301796e-01
1.831831831831831847e+00,5.333557710042244326e-02,-1.105332627404068263e-01
1.837837837837837718e+00,5.259260849179419467e-02,-1.110311221281126554e-01
1.843843843843843811e+00,5.185489881100270593e-02,-1.115198508149079365e-01
1.849849849849849903e+00,5.112434637774215807e-02,-1.119995609760856964e-01
1.855855855855855774e+00,5.039759892447345097e-02,-1.124703636051701955e-01
1.861861861861861867e+00,4.968024327563808767e-02,-1.129323685220090384e-01
1.867867867867867959e+00,4.897001831604419486e-02,-1.133856843809516873e-01
1.873873873873873830e+00,4.826876506296295943e-02,-1.138304186791091605e-01
1.879879879879879923e+00,4.757159463116684972e-02,-1.142666777646884763e-01
1.885885885885885793e+00,4.687887587537738904e-02,-1.146945668453966671e-01
1.891891891891891886e+00,4.619583082258248152e-02,-1.151141899969087279e-01
1.897897897897897979e+00,4.551846994247889244e-02,-1.155256501713937262e-01
1.903903903903903849e+00,4.484871003728918559e-02,-1.159290492060951333e-01
1.909909909909909942e+00,4.418376338066668657e-02,-1.163244878319590753e-01
1.915915915915915813e+00,4.352373957984104896e-02,-1.167120656823064651e-01
1.921921921921921905e+00,4.287225856175955890e-02,-1.170918813015445620e-01
1.927927927927927998e+00,4.222576684760864091e-02,-1.174640321539128784e-01
1.933933933933933869e+00,4.158809856832632740e-02,-1.178286146322596317e-01
1.939939939939939961e+00,4.095375387680118273e-02,-1.181857240668444387e-01
1.945945945945945832e+00,4.033081227720475975e-02,-1.185354547341629927e-01
1.951951951951951925e+00,3.970196331553953878e-02,-1.188778998657904623e-01
1.957957957957958017e+00,3.908592448558129845e-02,-1.192131516572390720e-01
1.963963963963963888e+00,3.847770459718805741e-02,-1.195413012768268834e-01
1.969969969969969981e+00,3.787319854174571454e-02,-1.198624388745543751e-01
1.975975975975975851e+00,3.727250697252420392e-02,-1.201766535909846861e-01
1.981981981981981944e+00,3.667906855445093178e-02,-1.204840335661251927e-01
1.987987987987988037e+00,3.609168349148375587e-02,-1.207846659483070434e-01
1.993993993993993907e+00,3.551154482895022002e-02,-1.210786369030593945e-01
2.000000000000000000e+00,3.493453397727060844e-02,-1.213660316219757757e-01
2.006006006006006093e+00,3.436154108782810829e-02,-1.216469343315697282e-01
2.012012012012012185e+00,3.379721245277717695e-02,-1.219214283021172879e-01
2.018018018018017834e+00,3.323655482319966270e-02,-1.221895958564832435e-01
2.024024024024023927e+00,3.267964571739920970e-02,-1.224515183789294664e-01
2.030030030030030019e+00,3.213120542842566596e-02,-1.227072763239021036e-01
2.036036036036036112e+00,3.158506296119544671e-02,-1.229569492247963580e-01
2.042042042042042205e+00,3.104717440517724622e-02,-1.232006157026959703e-01
2.048048048048047853e+00,3.051253940702928005e-02,-1.234383534750852912e-01
2.054054054054053946e+00,2.998055105352124411e-02,-1.236702393645329884e-01
2.060060060060060039e+00,2.945728291813880240e-02,-1.238963493073440697e-01
2.066066066066066131e+00,2.893601952915775613e-02,-1.241167583621795578e-01
2.072072072072072224e+00,2.842273657026330239e-02,-1.243315407186414145e-01
2.078078078078077873e+00,2.791312425524713342e-02,-1.245407697058214247e-01
2.084084084084083965e+00,2.740604501903522866e-02,-1.247445178008124433e-01
2.090090090090090058e+00,2.690632249026068262e-02,-1.249428566371801885e-01
2.096096096096096151e+00,2.640912705164859264e-02,-1.251358570133946913e-01
2.102102102102102243e+00,2.591885154252119433e-02,-1.253235889012194459e-01
2.108108108108107892e+00,2.543277987079401239e-02,-1.255061214540574843e-01
2.114114114114113985e+00,2.495017608906289000e-02,-1.256835230152530403e-01
2.120120120120120077e+00,2.447344405587797631e-02,-1.258558611263470017e-01
2.126126126126126170e+00,2.399924153314482098e-02,-1.260232025352863161e-01
2.132132132132132263e+00,2.353125323504829530e-02,-1.261856132045850454e-01
2.138138138138137911e+00,2.306562897430931847e-02,-1.263431583194368490e-01
2.144144144144144004e+00,2.260303238947844462e-02,-1.264959022957777013e-01
2.150150150150150097e+00,2.215015463953041996e-02,-1.266439087882979542e-01
2.156156156156156189e+00,2.169719592957736545e-02,-1.267872406984029143e-01
2.162162162162162282e+00,2.125136427404307818e-02,-1.269259601821216277e-01
2.168168168168167931e+00,2.080852120263121732e-02,-1.270601286579619016e-01
2.174174174174174023e+00,2.035101400707082370e-02,-1.271898068147127581e-01
2.180180180180180116e+00,1.994593725036013579e-02,-1.273150546191915422e-01
2.186186186186186209e+00,1.948476056825236558e-02,-1.274359313239373792e-01
2.192192192192192302e+00,1.907609091897445597e-02,-1.275524954748480932e-01
2.198198198198198394e+00,1.865138381479909679e-02,-1.276648049187620870e-01
2.204204204204204043e+00,1.823030179444830312e-02,-1.277729168109833224e-01
2.210210210210210136e+00,1.782016495229339290e-02,-1.278768876227500684e-01
2.216216216216216228e+00,1.740321556056984714e-02,-1.279767731486458060e-01
2.222222222222222321e+00,1.699928933811787127e-02,-1.280726285139532072e-01
2.228228228228228414e+00,1.659448243466557157e-02,-1.281645081819499099e-01
2.234234234234234062e+00,1.619449195151017457e-02,-1.282524659611461171e-01
2.240240240240240155e+00,1.579918847256643263e-02,-1.283365550124642429e-01
2.246246246246246248e+00,1.540483903004761373e-02,-1.284168278563593002e-01
2.252252252252252340e+00,1.501734470719141672e-02,-1.284933363798809458e-01
2.258258258258258433e+00,1.463046394608648500e-02,-1.285661318436763512e-01
2.264264264264264082e+00,1.424826517101722423e-02,-1.286352648889339811e-01
2.270270270270270174e+00,1.387021727323528228e-02,-1.287007855442680315e-01
2.276276276276276267e+00,1.349465913275828093e-02,-1.287627432325437193e-01
2.282282282282282360e+00,1.312427484765976357e-02,-1.288211867776431763e-01
2.288288288288288452e+00,1.276896066935507418e-02,-1.288761644111715288e-01
2.294294294294294101e+00,1.240446941735712412e-02,-1.289277237791041364e-01
2.300300300300300194e+00,1.203034788886380921e-02,-1.289759119483739336e-01
2.306306306306306286e+00,1.167144694189464760e-02,-1.290207754133995133e-01
2.312312312312312379e+00,1.131765769160936186e-02,-1.290623601025537581e-01
2.318318318318318472e+00,1.096327794113417277e-02,-1.291007113845734355e-01
2.324324324324324120e+00,1.061531647677539138e-02,-1.291358740749092293e-01
2.330330330330330213e+00,1.027344342475893478e-02,-1.291678924420166519e-01
2.336336336336336306e+00,9.928334012614569576e-03,-1.291968102135885588e-01
2.342342342342342398e+00,9.592537983573722407e-03,-1.292226705827277666e-01
2.348348348348348491e+00,9.253999384567307418e-03,-1.292455162140621616e-01
2.354354354354354140e+00,8.921703205383345325e-03,-1.292653892498002166e-01
2.360360360360360232e+00,8.595287594094074349e-03,-1.292823313157286658e-01
2.366366366366366325e+00,8.265743125776546171e-03,-1.292963835271520867e-01
2.372372372372372418e+00,7.945221261542078500e-03,-1.293075864947742237e-01
2.378378378378378510e+00,7.622090179389156943e-03,-1.293159803305218847e-01
2.384384384384384159e+00,7.304627497226114617e-03,-1.293216046533108288e-01
2.390390390390390252e+00,6.992742619986958182e-03,-1.293244985947553105e-01
2.396396396396396344e+00,6.678108086587259372e-03,-1.293247008048194480e-01
2.402402402402402437e+00,6.372245377810249571e-03,-1.293222494574129966e-01
2.408408408408408530e+00,6.063553519643363234e-03,-1.293171822559295858e-01
2.414414414414414178e+00,5.760769306625385458e-03,-1.293095364387298329e-01
2.420420420420420271e+00,5.462477581350399548e-03,-1.292993487845675860e-01
2.426426426426426364e+00,5.161358180727880149e-03,-1.292866556179614601e-01
2.432432432432432456e+00,4.870018906168859830e-03,-1.292714928145103914e-01
2.438438438438438549e+00,4.574795604975858028e-03,-1.292538958061546506e-01
2.444444444444444642e+00,4.288598505078633667e-03,-1.292338995863822337e-01
2.450450450450450290e+00,4.001527829967990550e-03,-1.292115387153805195e-01
2.456456456456456383e+00,3.714042180146163042e-03,-1.291868473251347182e-01
2.462462462462462476e+00,3.435271793025864318e-03,-1.291598591244718375e-01
2.468468468468468568e+00,3.152481618548002695e-03,-1.291306074040521334e-01
2.474474474474474661e+00,2.879190942928054001e-03,-1.290991250413071612e-01
2.480480480480480310e+00,2.604597048591804787e-03,-1.290654445053255883e-01
2.486486486486486402e+00,2.330275954661712671e-03,-1.290295978616864681e-01
2.492492492492492495e+00,2.064823988828425744e-03,-1.289916167772411359e-01
2.498498498498498588e+00,1.794901618042049835e-03,-1.289515325248433431e-01
2.504504504504504681e+00,1.536022504844464795e-03,-1.289093759880284018e-01
2.510510510510510329e+00,1.270754306306761013e-03,-1.288651776656417058e-01
2.516516516516516422e+00,1.013299973073223618e-03,-1.288189676764167069e-01
2.522522522522522515e+00,7.531588334373215182e-04,-1.287707757635034311e-01
2.528528528528528607e+00,5.012327286186104344e-04,-1.287206312989470913e-01
2.534534534534534700e+00,2.483576147106762895e-04,-1.286685632881175989e-01
2.540540540540540349e+00,-3.314442695861734429e-06,-1.286146003740903376e-01
2.546546546546546441e+00,-2.495200861443854445e-04,-1.285587708419788922e-01
2.552552552552552534e+00,-4.953851575122904163e-04,-1.285011026232193154e-01
2.558558558558558627e+00,-7.383436679458948038e-04,-1.284416232998072394e-01
2.564564564564564719e+00,-9.804019483172323520e-04,-1.283803601084875512e-01
2.570570570570570368e+00,-1.218738387660757037e-03,-1.283173399448975793e-01
2.576576576576576461e+00,-1.459073952195394548e-03,-1.282525893676637330e-01
2.582582582582582553e+00,-1.690603930274567172e-03,-1.281861346024521509e-01
2.588588588588588646e+00,-1.926073024524384411e-03,-1.281180015459741084e-01
2.594594594594594739e+00,-2.154106625672641984e-03,-1.280482157699457113e-01
2.600600600600600387e+00,-2.382428169355685962e-03,-1.279768025250036245e-01
2.606606606606606480e+00,-2.610075497666956151e-03,-1.279037867445755317e-01
2.612612612612612573e+00,-2.831278406169614875e-03,-1.278291930487076566e-01
2.618618618618618665e+00,-3.054654617128723954e-03,-1.277530457478477099e-01
2.624624624624624758e+00,-3.273447447749972591e-03,-1.276753688465857295e-01
2.630630630630630407e+00,-3.492323476716064929e-03,-1.275961860473512621e-01
2.636636636636636499e+00,-3.709828528887205816e-03,-1.275155207540689117e-01
2.642642642642642592e+00,-3.922353307225466372e-03,-1.274333960757716155e-01
2.648648648648648685e+00,-4.136492082028678414e-03,-1.273498348301722594e-01
2.654654654654654777e+00,-4.345378191369898661e-03,-1.272648595471946587e-01
2.660660660660660426e+00,-4.553196345782994925e-03,-1.271784924724633226e-01
2.666666666666666519e+00,-4.760522654069912485e-03,-1.270907555707528891e-01
2.672672672672672611e+00,-4.964721207089959829e-03,-1.270016705293982584e-01
2.678678678678678704e+00,-5.168163129958233334e-03,-1.269112587616640364e-01
2.684684684684684797e+00,-5.368208966639961832e-03,-1.268195414100762031e-01
2.690690690690690445e+00,-5.566942549369901204e-03,-1.267265393497134518e-01
2.696696696696696538e+00,-5.765795030568548335e-03,-1.266322731914617805e-01
2.702702702702702631e+00,-5.960198318003390866e-03,-1.265367632852297253e-01
2.708708708708708723e+00,-6.153740322193370499e-03,-1.264400297231267067e-01
2.714714714714714816e+00,-6.346144908895269554e-03,-1.263420923426040177e-01
2.720720720720720909e+00,-6.536344324846788713e-03,-1.262429707295589787e-01
2.726726726726726557e+00,-6.724849568806907582e-03,-1.261426842214024013e-01
2.732732732732732650e+00,-6.909746289821542230e-03,-1.260412519100903017e-01
2.738738738738738743e+00,-7.096633186764595737e-03,-1.259386926451195599e-01
2.744744744744744835e+00,-7.278785024864823164e-03,-1.258350250364886624e-01
2.750750750750750928e+00,-7.463565088184462466e-03,-1.257302674576230295e-01
2.756756756756756577e+00,-7.643466635280625650e-03,-1.256244380482659240e-01
2.762762762762762669e+00,-7.819172618484483347e-03,-1.255175547173353057e-01
2.768768768768768762e+00,-7.998687828935511362e-03,-1.254096351457464620e-01
2.774774774774774855e+00,-8.168635947761921506e-03,-1.253006967892014711e-01
2.780780780780780947e+00,-8.347358288718510072e-03,-1.251907568809451921e-01
2.786786786786786596e+00,-8.518935225438790948e-03,-1.250798324344887802e-01
2.792792792792792689e+00,-8.686401160136603475e-03,-1.249679402463004102e-01
2.798798798798798781e+00,-8.858060557282507533e-03,-1.248550968984642323e-01
2.804804804804804874e+00,-9.021568944394649930e-03,-1.247413187613074931e-01
2.810810810810810967e+00,-9.190755936521232197e-03,-1.246266219959960286e-01
2.816816816816816615e+00,-9.355206029141659163e-03,-1.245110225570991574e-01
2.822822822822822708e+00,-9.515672024424685557e-03,-1.243945361951232925e-01
2.828828828828828801e+00,-9.679259367923024465e-03,-1.242771784590157996e-01
2.834834834834834894e+00,-9.836194832583888478e-03,-1.241589646986382550e-01
2.840840840840840986e+00,-9.997398145388721249e-03,-1.240399100672104349e-01
2.846846846846846635e+00,-1.015456299799396417e-02,-1.239200295237247312e-01
2.852852852852852727e+00,-1.030744836939668369e-02,-1.237993378353313412e-01
2.858858858858858820e+00,-1.046389174546057989e-02,-1.236778495796952010e-01
2.864864864864864913e+00,-1.061361280076244563e-02,-1.235555791473240406e-01
2.870870870870871006e+00,-1.076812199356284167e-02,-1.234325407438688627e-01
2.876876876876876654e+00,-1.091795206920315696e-02,-1.233087483923959865e-01
2.882882882882882747e+00,-1.106342623420120477e-02,-1.231842159356323213e-01
2.888888888888888840e+00,-1.121425100255565507e-02,-1.230589570381830783e-01
2.894894894894894932e+00,-1.135626991592874994e-02,-1.229329851887228375e-01
2.900900900900901025e+00,-1.150429729433877571e-02,-1.228063137021600804e-01
2.906906906906906674e+00,-1.164748572389071556e-02,-1.226789557217752707e-01
2.912912912912912766e+00,-1.178673558396469215e-02,-1.225509242213334016e-01
2.918918918918918859e+00,-1.192881982904986544e-02,-1.224222320071707143e-01
2.924924924924924952e+00,-1.206677993827154870e-02,-1.222928917202558974e-01
2.930930930930931044e+00,-1.220610229143410594e-02,-1.221629158382267349e-01
2.936936936936936693e+00,-1.234287339831704501e-02,-1.220323166774014562e-01
2.942942942942942786e+00,-1.247701154281521431e-02,-1.219011063947660761e-01
2.948948948948948878e+00,-1.261261877296505386e-02,-1.217692969899372701e-01
2.954954954954954971e+00,-1.274439882831938410e-02,-1.216369003071015031e-01
2.960960960960961064e+00,-1.287634785732061360e-02,-1.215039280369304558e-01
2.966966966966967156e+00,-1.300646246525587538e-02,-1.213703917184731917e-01
2.972972972972972805e+00,-1.313582251538135924e-02,-1.212363027410251620e-01
2.978978978978978898e+00,-1.326544589777433475e-02,-1.211016723459743677e-01
2.984984984984984990e+00,-1.339010796707263209e-02,-1.209665116286253866e-01
2.990990990990991083e+00,-1.351816898685843579e-02,-1.208308315400004190e-01
2.996996996996997176e+00,-1.364115923810812342e-02,-1.206946428886189748e-01
3.003003003003002824e+00,-1.376478004506576959e-02,-1.205579563422555373e-01
3.009009009009008917e+00,-1.388916517682780259e-02,-1.204207824296757157e-01
3.015015015015015010e+00,-1.400938145189293584e-02,-1.202831315423512071e-01
3.021021021021021102e+00,-1.414317726207878906e-02,-1.201450139361538300e-01
3.027027027027027195e+00,-1.424888102151457975e-02,-1.200064397330287691e-01
3.033033033033032844e+00,-1.436580617272268344e-02,-1.198674189226472675e-01
3.039039039039038936e+00,-1.448428720676704640e-02,-1.197279613640391538e-01
3.045045045045045029e+00,-1.459908489994029765e-02,-1.195880767872054690e-01
3.051051051051051122e+00,-1.471459003551956433e-02,-1.194477747947109425e-01
3.057057057057057214e+00,-1.482736757757619449e-02,-1.193070648632575947e-01
3.063063063063062863e+00,-1.493962568070657075e-02,-1.191659563452382442e-01
3.069069069069068956e+00,-1.505267780336991788e-02,-1.190244584702714881e-01
3.075075075075075048e+00,-1.516211486579265195e-02,-1.188825803467178366e-01
3.081081081081081141e+00,-1.527268052141565052e-02,-1.187403309631770432e-01
3.087087087087087234e+00,-1.538053478212992112e-02,-1.185977191899669769e-01
3.093093093093092882e+00,-1.548763373916691756e-02,-1.184547537805846623e-01
3.099099099099098975e+00,-1.559560333069626506e-02,-1.183114433731489584e-01
3.105105105105105068e+00,-1.568844432814135020e-02,-1.181677964918259188e-01
3.111111111111111160e+00,-1.580671139818322357e-02,-1.180238215482364017e-01
3.117117117117117253e+00,-1.590783387948756927e-02,-1.178795268428461662e-01
3.123123123123122902e+00,-1.601117344253270153e-02,-1.177349205663395237e-01
3.129129129129128994e+00,-1.611616932225911139e-02,-1.175900108009751560e-01
3.135135135135135087e+00,-1.621299804852316395e-02,-1.174448055219263903e-01
3.141141141141141180e+00,-1.631529520657308899e-02,-1.172993125986038637e-01
3.147147147147147273e+00,-1.641201676095367309e-02,-1.171535397959626024e-01
3.153153153153152921e+00,-1.650929256596385744e-02,-1.170074947757929890e-01
3.159159159159159014e+00,-1.660847438121636557e-02,-1.168611850979953543e-01
3.165165165165165106e+00,-1.670288634523163854e-02,-1.167146182218395112e-01
3.171171171171171199e+00,-1.679992444442800215e-02,-1.165678015072082463e-01
3.177177177177177292e+00,-1.689223323146767444e-02,-1.164207422158258787e-01
3.183183183183182940e+00,-1.698432667635722468e-02,-1.162734475124713313e-01
3.189189189189189033e+00,-1.708206896961839485e-02,-1.161259244661767276e-01
3.195195195195195126e+00,-1.716876907187183179e-02,-1.159781800514107786e-01
3.201201201201201219e+00,-1.726416170243708428e-02,-1.158302211492476252e-01
3.207207207207207311e+00,-1.734921163751701120e-02,-1.156820545485218177e-01
3.213213213213213404e+00,-1.744414280488461311e-02,-1.155336869469682642e-01
3.219219219219219053e+00,-1.753237173790867312e-02,-1.153851249523486916e-01
3.225225225225225145e+00,-1.761533592854585065e-02,-1.152363750835641160e-01
3.231231231231231238e+00,-1.770495672067546114e-02,-1.150874437717534088e-01
3.237237237237237331e+00,-1.778365050371751022e-02,-1.149383373613785536e-01
3.243243243243243423e+00,-1.787670246568546367e-02,-1.147890621112964415e-01
3.249249249249249072e+00,-1.796054616704394896e-02,-1.146396241958173023e-01
3.255255255255255165e+00,-1.803802431007311621e-02,-1.144900297057504096e-01
3.261261261261261257e+00,-1.812697342567833741e-02,-1.143402846494366298e-01
3.267267267267267350e+00,-1.820241320377951472e-02,-1.141903949537682456e-01
3.273273273273273443e+00,-1.829033323775231673e-02,-1.140403664651964272e-01
3.279279279279279091e+00,-1.836983283968536204e-02,-1.138902049507260761e-01
3.285285285285285184e+00,-1.844392414458103507e-02,-1.137399160988984692e-01
3.291291291291291277e+00,-1.852777154341434668e-02,-1.135895055207618159e-01
3.297297297297297369e+00,-1.860061017777721315e-02,-1.134389787508296582e-01
3.303303303303303462e+00,-1.868316234683126478e-02,-1.132883412480278768e-01
3.309309309309309111e+00,-1.875961629017193488e-02,-1.131375983966296378e-01
3.315315315315315203e+00,-1.883044922191589796e-02,-1.129867555071790153e-01
3.321321321321321296e+00,-1.891020209490694437e-02,-1.128358178174028725e-01
3.327327327327327389e+00,-1.897931729589857203e-02,-1.126847904931121414e-01
3.333333333333333481e+00,-1.905799232229366327e-02,-1.125336786290914992e-01
3.339339339339339130e+00,-1.913128022930206742e-02,-1.123824872499781385e-01
3.345345345345345223e+00,-1.919739997499168502e-02,-1.122312213111298501e-01
3.351351351351351315e+00,-1.927254896128007336e-02,-1.120798856994823373e-01
3.357357357357357408e+00,-1.934058702452525966e-02,-1.119284852343959691e-01
3.363363363363363501e+00,-1.941369946753549250e-02,-1.117770246684921254e-01
3.369369369369369149e+00,-1.948284097078335081e-02,-1.116255086884789666e-01
3.375375375375375242e+00,-1.954989143145354630e-02,-1.114739419159676975e-01
3.381381381381381335e+00,-1.961981135632943560e-02,-1.113223289082779649e-01
3.387387387387387427e+00,-1.968467941068715102e-02,-1.111706741592339009e-01
3.393393393393393520e+00,-1.975362824657779515e-02,-1.110189820999500365e-01
3.399399399399399169e+00,-1.981974208024303921e-02,-1.108672570996079021e-01
3.405405405405405261e+00,-1.988322433294754249e-02,-1.107155034662225257e-01
3.411411411411411354e+00,-1.994947752220565043e-02,-1.105637254473999936e-01
3.417417417417417447e+00,-2.001209425787232876e-02,-1.104119272310854216e-01
3.423423423423423539e+00,-2.007711154260864023e-02,-1.102601129463018775e-01
3.429429429429429188e+00,-2.014046449537468253e-02,-1.101082866638798674e-01
3.435435435435435281e+00,-2.019961412651310670e-02,-1.099564523971783142e-01
3.441441441441441373e+00,-2.026449121697340358e-02,-1.098046141027963218e-01
3.447447447447447466e+00,-2.032493627840343403e-02,-1.096527756812762378e-01
3.453453453453453559e+00,-2.038610109800508344e-02,-1.095009409777983056e-01
3.459459459459459651e+00,-2.044586699669979218e-02,-1.093491137828662835e-01
3.465465465465465300e+00,-2.050535685293318131e-02,-1.091972978329852628e-01
3.471471471471471393e+00,-2.056210422339806165e-02,-1.090454968113303974e-01
3.477477477477477485e+00,-2.062049165899669870e-02,-1.088937143484082076e-01
3.483483483483483578e+00,-2.067719186422163277e-02,-1.087419540227090586e-01
3.489489489489489671e+00,-2.073694231185152850e-02,-1.085902193613520889e-01
3.495495495495495319e+00,-2.079245805291485283e-02,-1.084385138407220200e-01
3.501501501501501412e+00,-2.084607474208595781e-02,-1.082868408870980570e-01
3.507507507507507505e+00,-2.090508918938909985e-02,-1.081352038772751545e-01
3.513513513513513598e+00,-2.095804520770239501e-02,-1.079836061391778318e-01
3.519519519519519690e+00,-2.101019472196182306e-02,-1.078320509524660215e-01
3.525525525525525339e+00,-2.106193311961619338e-02,-1.076805415491338402e-01
3.531531531531531432e+00,-2.111920908596095006e-02,-1.075290811141009217e-01
3.537537537537537524e+00,-2.116917073184819073e-02,-1.073776727857961855e-01
3.543543543543543617e+00,-2.122385666902949081e-02,-1.072263196567350974e-01
3.549549549549549710e+00,-2.127179638160117334e-02,-1.070750247740891031e-01
3.555555555555555358e+00,-2.132243301661026699e-02,-1.069237911402485253e-01
3.561561561561561451e+00,-2.137645048157437930e-02,-1.067726217133784239e-01
3.567567567567567544e+00,-2.142309039960913625e-02,-1.066215194079676715e-01
3.573573573573573636e+00,-2.148412211683396397e-02,-1.064704870953712135e-01
3.579579579579579729e+00,-2.152209735268209231e-02,-1.063195276043457371e-01
3.585585585585585378e+00,-2.156974665390007026e-02,-1.061686437215787482e-01
3.591591591591591470e+00,-2.162105180385307315e-02,-1.060178381922111807e-01
3.597597597597597563e+00,-2.166498215022330531e-02,-1.058671137203536367e-01
3.603603603603603656e+00,-2.171506109884337871e-02,-1.057164729695960759e-01
3.609609609609609748e+00,-2.175987737180311646e-02,-1.055659185635116071e-01
3.615615615615615397e+00,-2.180668156012348369e-02,-1.054154530861539096e-01
3.621621621621621490e+00,-2.185239206910366203e-02,-1.052650790825483684e-01
3.627627627627627582e+00,-2.189680045293836141e-02,-1.051147990591776854e-01
3.633633633633633675e+00,-2.194161192478338157e-02,-1.049646154844610518e-01
3.639639639639639768e+00,-2.198169839619815505e-02,-1.048145307892276862e-01
3.645645645645645416e+00,-2.202645426272415927e-02,-1.046645473671847237e-01
3.651651651651651509e+00,-2.207215697872268179e-02,-1.045146675753788612e-01
3.657657657657657602e+00,-2.211304042278845056e-02,-1.043648937346529221e-01
3.663663663663663694e+00,-2.215743975132175234e-02,-1.042152281300967182e-01
3.669669669669669787e+00,-2.219670954809559518e-02,-1.040656730114918604e-01
3.675675675675675436e+00,-2.223646688185587986e-02,-1.039162305937519765e-01
3.681681681681681528e+00,-2.228090575032052462e-02,-1.037669030573567797e-01
3.687687687687687621e+00,-2.231820926170820923e-02,-1.036176925487814343e-01
3.693693693693693714e+00,-2.236116440602151437e-02,-1.034686011809202444e-01
3.699699699699699806e+00,-2.239814248116452078e-02,-1.033196310335052492e-01
3.705705705705705455e+00,-2.243759441532858917e-02,-1.031707841535200176e-01
3.711711711711711548e+00,-2.247795073547914288e-02,-1.030220625556078490e-01
3.717717717717717640e+00,-2.251424087605116350e-02,-1.028734682224754782e-01
3.723723723723723733e+00,-2.255419779901405783e-02,-1.027250031052915902e-01
3.729729729729729826e+00,-2.258920762834683293e-02,-1.025766691240804912e-01
3.735735735735735918e+00,-2.262843990977283365e-02,-1.024284681681110892e-01
3.741741741741741567e+00,-2.266487912438646182e-02,-1.022804020962810034e-01
3.747747747747747660e+00,-2.269872721078210892e-02,-1.021324727374959274e-01
3.753753753753753752e+00,-2.273510336798055878e-02,-1.019846818910446623e-01
3.759759759759759845e+00,-2.276981552615669341e-02,-1.018370313269692101e-01
3.765765765765765938e+00,-2.280549106088616135e-02,-1.016895227864306056e-01
3.771771771771771586e+00,-2.283993287487129722e-02,-1.015421579820702247e-01
3.777777777777777679e+00,-2.287357793990261665e-02,-1.013949385983664991e-01
3.783783783783783772e+00,-2.290786700053935518e-02,-1.012478662919876482e-01
3.789789789789789864e+00,-2.294054759208728408e-02,-1.011009426921397891e-01
3.795795795795795957e+00,-2.297386995532909454e-02,-1.009541694009109397e-01
3.801801801801801606e+00,-2.300659559419988495e-02,-1.008075479936109270e-01
3.807807807807807698e+00,-2.304011651905005578e-02,-1.006610800191067995e-01
3.813813813813813791e+00,-2.307182704969170522e-02,-1.005147670001547006e-01
3.819819819819819884e+00,-2.310004981175688143e-02,-1.003686104337271345e-01
3.825825825825825977e+00,-2.313509403301731646e-02,-1.002226117913366660e-01
3.831831831831831625e+00,-2.316551587940950119e-02,-1.000767725193555252e-01
3.837837837837837718e+00,-2.319287415961622870e-02,-9.993109403933124468e-02
3.843843843843843811e+00,-2.322612415563079027e-02,-9.978557774829859006e-02
3.849849849849849903e+00,-2.325436538652661533e-02,-9.964022501908763318e-02
3.855855855855855996e+00,-2.328503286877893139e-02,-9.949503720062810586e-02
3.861861861861861644e+00,-2.331391221563271915e-02,-9.935001561825003435e-02
3.867867867867867737e+00,-2.334061081069999100e-02,-9.920516157398064083e-02
3.873873873873873830e+00,-2.337303581032319777e-02,-9.906047634683780301e-02
3.879879879879879923e+00,-2.339544651382047952e-02,-9.891596119311987789e-02
3.885885885885886015e+00,-2.342000268257494328e-02,-9.877161734669188953e-02
3.891891891891891664e+00,-2.344741893074024988e-02,-9.862744601926846932e-02
3.897897897897897757e+00,-2.348182515282562152e-02,-9.848344840069303552e-02
3.903903903903903849e+00,-2.350923735771220241e-02,-9.833962565921393340e-02
3.909909909909909942e+00,-2.353210038314778804e-02,-9.819597894175703667e-02
3.915915915915916035e+00,-2.355988395506670649e-02,-9.805250937419500434e-02
3.921921921921921683e+00,-2.358591104202023558e-02,-9.790921806161347052e-02
3.927927927927927776e+00,-2.360963252268080334e-02,-9.776610608857352891e-02
3.933933933933933869e+00,-2.363563952797112511e-02,-9.762317451937191359e-02
3.939939939939939961e+00,-2.366008447771025813e-02,-9.748042439829693317e-02
3.945945945945946054e+00,-2.368482157331053273e-02,-9.733785674988221226e-02
3.951951951951951703e+00,-2.370895152913016224e-02,-9.719547257915678307e-02
3.957957957957957795e+00,-2.373164068895815618e-02,-9.705327287189244312e-02
3.963963963963963888e+00,-2.375580427623580695e-02,-9.691125859484807370e-02
3.969969969969969981e+00,-2.377876421378136498e-02,-9.676943069601083580e-02
3.975975975975976073e+00,-2.380206711274143044e-02,-9.662779010483461828e-02
3.981981981981982166e+00,-2.382377150017808004e-02,-9.648633773247546064e-02
3.987987987987987815e+00,-2.384698015028698104e-02,-9.634507447202438069e-02
3.993993993993993907e+00,-2.386931978778257871e-02,-9.620400119873699640e-02
4.000000000000000000e+00,-2.388874002998402427e-02,-9.606311877026062207e-02
4.006006006006005649e+00,-2.391132042872977023e-02,-9.592242802685865821e-02
4.012012012012012185e+00,-2.393592697575543105e-02,-9.578192979163208109e-02
4.018018018018017834e+00,-2.395708654383427866e-02,-9.564162487073836483e-02
4.024024024024024371e+00,-2.397402125826788091e-02,-9.550151405360766954e-02
4.030030030030030019e+00,-2.399447000699653568e-02,-9.536159811315669810e-02
4.036036036036035668e+00,-2.401469065499143435e-02,-9.522187780599933316e-02
4.042042042042042205e+00,-2.403754966527556561e-02,-9.508235387265555338e-02
4.048048048048047853e+00,-2.405713662357156918e-02,-9.494302703775722718e-02
4.054054054054054390e+00,-2.407182513788058004e-02,-9.480389801025149166e-02
4.060060060060060039e+00,-2.409332771686972796e-02,-9.466496748360203606e-02
4.066066066066065687e+00,-2.411109010205659403e-02,-9.452623613598740149e-02
4.072072072072072224e+00,-2.413217492913202408e-02,-9.438770463049736548e-02
4.078078078078077873e+00,-2.415032921012776404e-02,-9.424937361532678692e-02
4.084084084084084409e+00,-2.416623668272560241e-02,-9.411124372396689752e-02
4.090090090090090058e+00,-2.418406601640580786e-02,-9.397331557539467806e-02
4.096096096096095707e+00,-2.420144609813669467e-02,-9.383558977425957015e-02
4.102102102102102243e+00,-2.422061398196292265e-02,-9.369806691106824514e-02
4.108108108108107892e+00,-2.423737832103309287e-02,-9.356074756236691659e-02
4.114114114114114429e+00,-2.425187636206424177e-02,-9.342363229092151555e-02
4.120120120120120077e+00,-2.426823200915326217e-02,-9.328672164589582594e-02
4.126126126126125726e+00,-2.428503925712537093e-02,-9.315001616302717724e-02
4.132132132132132263e+00,-2.430294515253137236e-02,-9.301351636480030549e-02
4.138138138138137911e+00,-2.431923568665852325e-02,-9.287722276061909088e-02
4.144144144144144448e+00,-2.433152011538514820e-02,-9.274113584697585289e-02
4.150150150150150097e+00,-2.434709461451749907e-02,-9.260525610761922988e-02
4.156156156156155745e+00,-2.436115820560651180e-02,-9.246958401371936642e-02
4.162162162162162282e+00,-2.437894995237964088e-02,-9.233412002403162955e-02
4.168168168168167931e+00,-2.439360025041808003e-02,-9.219886458505820170e-02
4.174174174174174468e+00,-2.440519438772191865e-02,-9.206381813120742552e-02
4.180180180180180116e+00,-2.441803966859771788e-02,-9.192898108495171916e-02
4.186186186186185765e+00,-2.443260714351308191e-02,-9.179435385698325733e-02
4.192192192192192302e+00,-2.445102183731223330e-02,-9.165993684636770944e-02
4.198198198198197950e+00,-2.446443503269032232e-02,-9.152573044069665931e-02
4.204204204204204487e+00,-2.447238443529838048e-02,-9.139173501623733264e-02
4.210210210210210136e+00,-2.448500851923553559e-02,-9.125795093808139469e-02
4.216216216216215784e+00,-2.449681928880417803e-02,-9.112437856029131922e-02
4.222222222222222321e+00,-2.451635117746418097e-02,-9.099101822604527268e-02
4.228228228228227970e+00,-2.452769212582600264e-02,-9.085787026778030517e-02
4.234234234234234506e+00,-2.453413706407817085e-02,-9.072493500733352922e-02
4.240240240240240155e+00,-2.454659718343205413e-02,-9.059221275608204949e-02
4.246246246246245803e+00,-2.455831345902856344e-02,-9.045970381508064428e-02
4.252252252252252340e+00,-2.457617600859409931e-02,-9.032740847519835081e-02
4.258258258258257989e+00,-2.458625985232730515e-02,-9.019532701725298252e-02
4.264264264264264526e+00,-2.459316153379256104e-02,-9.006345971214420321e-02
4.270270270270270174e+00,-2.460379205662188706e-02,-8.993180682098508849e-02
4.276276276276275823e+00,-2.461444415913206785e-02,-8.980036859523189696e-02
4.282282282282282360e+00,-2.462989215668426324e-02,-8.966914527681234259e-02
4.288288288288288008e+00,-2.464015986421843468e-02,-8.953813709825250711e-02
4.294294294294294545e+00,-2.464500555021862174e-02,-8.940734428280196211e-02
4.300300300300300194e+00,-2.465483649468271435e-02,-8.927676704455750345e-02
4.306306306306305842e+00,-2.467789326672210903e-02,-8.914640558858540065e-02
4.312312312312312379e+00,-2.466407121826693152e-02,-8.901626011104223080e-02
4.318318318318318028e+00,-2.468829026617663444e-02,-8.888633079929408876e-02
4.324324324324324564e+00,-2.469286647740740609e-02,-8.875661783203452060e-02
4.330330330330330213e+00,-2.470133468858122863e-02,-8.862712137940099988e-02
4.336336336336335862e+00,-2.470972212156338776e-02,-8.849784160308991898e-02
4.342342342342342398e+00,-2.472320896140724894e-02,-8.836877865647030372e-02
4.348348348348348047e+00,-2.473117089037278962e-02,-8.823993268469616791e-02
4.354354354354354584e+00,-2.473482767301705271e-02,-8.811130382481732748e-02
4.360360360360360232e+00,-2.474278262125834821e-02,-8.798289220588917381e-02
4.366366366366366769e+00,-2.475583146329882536e-02,-8.785469794908082330e-02
4.372372372372372418e+00,-2.476335764445901019e-02,-8.772672116778228169e-02
4.378378378378378066e+00,-2.477123293992742128e-02,-8.759896196770994292e-02
4.384384384384384603e+00,-2.477303219809093640e-02,-8.747142044701117225e-02
4.390390390390390252e+00,-2.477952985190697358e-02,-8.734409669636743201e-02
4.396396396396396788e+00,-2.479234654192802659e-02,-8.721699079909629726e-02
4.402402402402402437e+00,-2.479913709831952501e-02,-8.709010283125200036e-02
4.408408408408408086e+00,-2.480573394542557805e-02,-8.696343286172504572e-02
4.414414414414414622e+00,-2.480674185547863606e-02,-8.683698095234043679e-02
4.420420420420420271e+00,-2.481295636389961590e-02,-8.671074715795491772e-02
4.426426426426426808e+00,-2.482320266547652018e-02,-8.658473152655275784e-02
4.432432432432432456e+00,-2.482977001006522744e-02,-8.645893409934063412e-02
4.438438438438438105e+00,-2.483561768890258856e-02,-8.633335491084129232e-02
4.444444444444444642e+00,-2.483810081159350258e-02,-8.620799398898594534e-02
4.450450450450450290e+00,-2.484325040637981943e-02,-8.608285135520590825e-02
4.456456456456456827e+00,-2.485224152696404940e-02,-8.595792702452262346e-02
4.462462462462462476e+00,-2.485723769993149895e-02,-8.583322100563717250e-02
4.468468468468468124e+00,-2.486220659461275614e-02,-8.570873330101813625e-02
4.474474474474474661e+00,-2.486234326012964901e-02,-8.558446390698887241e-02
4.480480480480480310e+00,-2.486773942380566399e-02,-8.546041281381352994e-02
4.486486486486486847e+00,-2.487632836985071219e-02,-8.533658000578192571e-02
4.492492492492492495e+00,-2.488079534777253021e-02,-8.521296546129371319e-02
4.498498498498498144e+00,-2.488500431722898490e-02,-8.508956915294116352e-02
4.504504504504504681e+00,-2.488422822294046252e-02,-8.496639104759114158e-02
4.510510510510510329e+00,-2.488819654677718388e-02,-8.484343110646629105e-02
4.516516516516516866e+00,-2.489641767161219696e-02,-8.472068928522476228e-02
4.522522522522522515e+00,-2.489919311964267426e-02,-8.459816553403944062e-02
4.528528528528528163e+00,-2.490264303576374474e-02,-8.447585979767588404e-02
4.534534534534534700e+00,-2.490135703123182165e-02,-8.435377201556958082e-02
4.540540540540540349e+00,-2.490449059310110777e-02,-8.423190212190216630e-02
4.546546546546546885e+00,-2.491145402027061112e-02,-8.411025004567661278e-02
4.552552552552552534e+00,-2.491502317470816949e-02,-8.398881571079165609e-02
4.558558558558558182e+00,-2.491370916710242481e-02,-8.386759903611533395e-02
4.564564564564564719e+00,-2.491544060068132810e-02,-8.374659993555751136e-02
4.570570570570570368e+00,-2.491780353129108977e-02,-8.362581831814172584e-02
4.576576576576576905e+00,-2.492135516962947980e-02,-8.350525408807586702e-02
4.582582582582582553e+00,-2.492364214427779043e-02,-8.338490714482237054e-02
4.588588588588588202e+00,-2.492557409423622541e-02,-8.326477738316724608e-02
4.594594594594594739e+00,-2.492580504473269898e-02,-8.314486469328842555e-02
4.600600600600600387e+00,-2.492795022672331801e-02,-8.302516896082330622e-02
4.606606606606606924e+00,-2.492315192727285328e-02,-8.290569006693543352e-02
4.612612612612612573e+00,-2.492453475949406305e-02,-8.278642788838033728e-02
4.618618618618618221e+00,-2.492596002499650187e-02,-8.266738229757064627e-02
4.624624624624624758e+00,-2.493879944044517447e-02,-8.254855316264034237e-02
4.630630630630630407e+00,-2.493864444378738124e-02,-8.242994034750839027e-02
4.636636636636636943e+00,-2.493788363517567691e-02,-8.231154371194134012e-02
4.642642642642642592e+00,-2.493829137611612914e-02,-8.219336311161545838e-02
4.648648648648648241e+00,-2.493909388249702930e-02,-8.207539839817787342e-02
4.654654654654654777e+00,-2.494321085611692773e-02,-8.195764941930706871e-02
4.660660660660660426e+00,-2.494379320611552972e-02,-8.184011601877284880e-02
4.666666666666666963e+00,-2.494023558574296265e-02,-8.172279803649502850e-02
4.672672672672672611e+00,-2.494071888536517415e-02,-8.160569530860219134e-02
4.678678678678678260e+00,-2.494095325361262577e-02,-8.148880766748894944e-02
4.684684684684684797e+00,-2.493966924877841218e-02,-8.137213494187305052e-02
4.690690690690690445e+00,-2.494344563312502622e-02,-8.125567695685168013e-02
4.696696696696696982e+00,-2.494561433599645772e-02,-8.113943353395680624e-02
4.702702702702702631e+00,-2.494538916691197913e-02,-8.102340449121028798e-02
4.708708708708708279e+00,-2.494506691133520707e-02,-8.090758964317791568e-02
4.714714714714714816e+00,-2.493954145830589927e-02,-8.079198880102309022e-02
4.720720720720720465e+00,-2.493881986629995634e-02,-8.067660177255971121e-02
4.726726726726727001e+00,-2.494271496984960812e-02,-8.056142836230435755e-02
4.732732732732732650e+00,-2.494177034662202475e-02,-8.044646837152807928e-02
4.738738738738738299e+00,-2.494097862110200223e-02,-8.033172159830728742e-02
4.744744744744744835e+00,-2.493564333319820206e-02,-8.021718783757410265e-02
4.750750750750750484e+00,-2.493465345585982665e-02,-8.010286688116635689e-02
4.756756756756757021e+00,-2.493726412668435463e-02,-7.998875851787648483e-02
4.762762762762762669e+00,-2.493581265225701393e-02,-7.987486253350027654e-02
4.768768768768768318e+00,-2.493435339009706861e-02,-7.976117871088479749e-02
4.774774774774774855e+00,-2.492935402879855114e-02,-7.964770682997578122e-02
4.780780780780780503e+00,-2.492770741436257931e-02,-7.953444666786449457e-02
4.786786786786787040e+00,-2.492931869001524178e-02,-7.942139799883393692e-02
4.792792792792792689e+00,-2.492736302793574499e-02,-7.930856059440456740e-02
4.798798798798798337e+00,-2.492558183164100480e-02,-7.919593422337943556e-02
4.804804804804804874e+00,-2.491987822275036277e-02,-7.908351865188872898e-02
4.810810810810810523e+00,-2.491752930664074481e-02,-7.897131364343379367e-02
4.816816816816817060e+00,-2.491792421662383100e-02,-7.885931895893075194e-02
4.822822822822822708e+00,-2.491704065168650478e-02,-7.874753435675334312e-02
4.828828828828828357e+00,-2.491455953477324237e-02,-7.863595959277540348e-02
4.834834834834834894e+00,-2.490750017691158863e-02,-7.852459442041277715e-02
4.840840840840840542e+00,-2.490274712839447152e-02,-7.841343859066489397e-02
4.846846846846847079e+00,-2.490652288527037475e-02,-7.830249185215537588e-02
4.852852852852852727e+00,-2.490340235358162041e-02,-7.819175395117272664e-02
4.858858858858858376e+00,-2.490064793374417371e-02,-7.808122463171002225e-02
4.864864864864864913e+00,-2.489311322011347749e-02,-7.797090363550444880e-02
4.870870870870870561e+00,-2.488964959550798647e-02,-7.786079070207635455e-02
4.876876876876877098e+00,-2.489136920475585463e-02,-7.775088556876744161e-02
4.882882882882882747e+00,-2.488776356313620805e-02,-7.764118797077899925e-02
4.888888888888889284e+00,-2.488031086017243251e-02,-7.753169764120927676e-02
4.894894894894894932e+00,-2.487750641973341531e-02,-7.742241431109062044e-02
4.900900900900900581e+00,-2.487360736648558043e-02,-7.731333770942606931e-02
4.906906906906907118e+00,-2.487385099975271407e-02,-7.720446756322549287e-02
4.912912912912912766e+00,-2.487008339840706198e-02,-7.709580359754139578e-02
4.918918918918919303e+00,-2.486217434392187092e-02,-7.698734553550407034e-02
4.924924924924924952e+00,-2.485890097881714861e-02,-7.687909309835644356e-02
4.930930930930930600e+00,-2.485504513157280049e-02,-7.677104600548866065e-02
4.936936936936937137e+00,-2.485407889950730018e-02,-7.666320397447182189e-02
4.942942942942942786e+00,-2.484992014341791400e-02,-7.655556672109173344e-02
4.948948948948949322e+00,-2.484195981934726044e-02,-7.644813395938200584e-02
4.954954954954954971e+00,-2.483703383802863748e-02,-7.634090540165681948e-02
4.960960960960960620e+00,-2.483250550231913545e-02,-7.623388075854324597e-02
4.966966966966967156e+00,-2.483185179056486905e-02,-7.612705973901308376e-02
4.972972972972972805e+00,-2.482720240900647066e-02,-7.602044205041470770e-02
4.978978978978979342e+00,-2.481897019171050781e-02,-7.591402739850380832e-02
4.984984984984984990e+00,-2.481308342810660539e-02,-7.580781548747456133e-02
4.990990990990990639e+00,-2.480875024074995910e-02,-7.570180601998970082e-02
4.996996996996997176e+00,-2.480979465934330871e-02,-7.559599869721073118e-02
5.003003003003002824e+00,-2.480226585734570527e-02,-7.549039321882748677e-02
5.009009009009009361e+00,-2.479374703589420220e-02,-7.538498928308738634e-02
5.015015015015015010e+00,-2.478880515538022314e-02,-7.527978658682443758e-02
5.021021021021020658e+00,-2.478369873748373017e-02,-7.517478482548761720e-02
5.027027027027027195e+00,-2.478144182415686209e-02,-7.506998369316916775e-02
5.033033033033032844e+00,-2.477613621380184497e-02,-7.496538288263256133e-02
5.039039039039039380e+00,-2.476833791419505437e-02,-7.486098208533967235e-02
5.045045045045045029e+00,-2.476233401473976192e-02,-7.475678099147824163e-02
5.051051051051050678e+00,-2.475781789634455554e-02,-7.465277928998853563e-02
5.057057057057057214e+00,-2.475460881958947007e-02,-7.454897666858981142e-02
5.063063063063062863e+00,-2.474842481811518127e-02,-7.444537281380655958e-02
5.069069069069069400e+00,-2.473898557233469506e-02,-7.434196741099419192e-02
5.075075075075075048e+00,-2.473237639142123259e-02,-7.423876014436468773e-02
5.081081081081080697e+00,-2.472660056200183185e-02,-7.413575069701160147e-02
5.087087087087087234e+00,-2.472442159570534606e-02,-7.403293875093504284e-02
5.093093093093092882e+00,-2.471815100956731640e-02,-7.393032398706622654e-02
5.099099099099099419e+00,-2.470920752875994941e-02,-7.382790608529161969e-02
5.105105105105105068e+00,-2.470364126170104119e-02,-7.372568472447695032e-02
5.111111111111110716e+00,-2.469747636963581794e-02,-7.362365958249082742e-02
5.117117117117117253e+00,-2.469324878143291588e-02,-7.352183033622802788e-02
5.123123123123122902e+00,-2.468739471461644033e-02,-7.342019666163263070e-02
5.129129129129129439e+00,-2.467780697294186254e-02,-7.331875823372062395e-02
5.135135135135135087e+00,-2.467139564309180078e-02,-7.321751472660253945e-02
5.141141141141140736e+00,-2.466385429621471836e-02,-7.311646581350546292e-02
5.147147147147147273e+00,-2.466048179090654657e-02,-7.301561116679503027e-02
5.153153153153152921e+00,-2.465398608025703639e-02,-7.291495045799707697e-02
5.159159159159159458e+00,-2.464563499826759665e-02,-7.281448335781885717e-02
5.165165165165165106e+00,-2.463817402449612962e-02,-7.271420953617019345e-02
5.171171171171170755e+00,-2.463177830751333078e-02,-7.261412866218433515e-02
5.177177177177177292e+00,-2.462654532876952518e-02,-7.251424040423837258e-02
5.183183183183182940e+00,-2.461963805468137326e-02,-7.241454442997359575e-02
5.189189189189189477e+00,-2.461129217148850731e-02,-7.231504040631550612e-02
5.195195195195195126e+00,-2.460358545231196292e-02,-7.221572799949364796e-02
5.201201201201200774e+00,-2.459543141080558840e-02,-7.211660687506088463e-02
5.207207207207207311e+00,-2.459090955298693856e-02,-7.201767669791295234e-02
5.213213213213212960e+00,-2.458345219323296652e-02,-7.191893713230730623e-02
5.219219219219219497e+00,-2.457363036915925780e-02,-7.182038784188195246e-02
5.225225225225225145e+00,-2.456660698076313862e-02,-7.172202848967387800e-02
5.231231231231230794e+00,-2.455905082119164487e-02,-7.162385873813746640e-02
5.237237237237237331e+00,-2.455359813390064691e-02,-7.152587824916255277e-02
5.243243243243242979e+00,-2.454603528645695268e-02,-7.142808668409211803e-02
5.249249249249249516e+00,-2.453456092935300467e-02,-7.133048370374002467e-02
5.255255255255255165e+00,-2.452746744043137264e-02,-7.123306896840828073e-02
5.261261261261260813e+00,-2.451914658260975072e-02,-7.113584213790426214e-02
5.267267267267267350e+00,-2.451655283059431256e-02,-7.103880287155751871e-02
5.273273273273272999e+00,-2.450697625889263626e-02,-7.094195082823660792e-02
5.279279279279279535e+00,-2.449687141453813291e-02,-7.084528566636548452e-02
5.285285285285285184e+00,-2.448891834016077643e-02,-7.074880704393983477e-02
5.291291291291290833e+00,-2.448065952396771827e-02,-7.065251461854307746e-02
5.297297297297297369e+00,-2.447637163554845785e-02,-7.055640804736219851e-02
5.303303303303303018e+00,-2.446645291904548519e-02,-7.046048698720346060e-02
5.309309309309309555e+00,-2.445801746167640053e-02,-7.036475109450775201e-02
5.315315315315315203e+00,-2.444916632161992648e-02,-7.026920002536597709e-02
5.321321321321320852e+00,-2.444214775227049330e-02,-7.017383343553385000e-02
5.327327327327327389e+00,-2.443606089681830615e-02,-7.007865098044685492e-02
5.333333333333333037e+00,-2.442761323747990460e-02,-6.998365231523502594e-02
5.339339339339339574e+00,-2.441609722791058396e-02,-6.988883709473715788e-02
5.345345345345345223e+00,-2.440746559731681725e-02,-6.979420497351519759e-02
5.351351351351350871e+00,-2.439845510503858839e-02,-6.969975560586826047e-02
5.357357357357357408e+00,-2.439377973200924574e-02,-6.960548864584649442e-02
5.363363363363363057e+00,-2.438282864181202936e-02,-6.951140374726490212e-02
5.369369369369369593e+00,-2.437299939910951216e-02,-6.941750056371673305e-02
5.375375375375375242e+00,-2.436478107651506367e-02,-6.932377874858682010e-02
5.381381381381380891e+00,-2.435457244437765761e-02,-6.923023795506480504e-02
5.387387387387387427e+00,-2.434781299010906411e-02,-6.913687783615812821e-02
5.393393393393393076e+00,-2.433916696981939382e-02,-6.904369804470471272e-02
5.399399399399399613e+00,-2.432922413106777815e-02,-6.895069823338575987e-02
5.405405405405405261e+00,-2.431961729876071926e-02,-6.885787805473815582e-02
5.411411411411411798e+00,-2.431418198670070793e-02,-6.876523716116667018e-02
5.417417417417417447e+00,-2.430513433128798917e-02,-6.867277520495634890e-02
5.423423423423423095e+00,-2.429656702099952312e-02,-6.858049183828415774e-02
5.429429429429429632e+00,-2.428340624787576202e-02,-6.848838671323101424e-02
5.435435435435435281e+00,-2.427556932656588576e-02,-6.839645948179344515e-02
5.441441441441441818e+00,-2.426708821397692908e-02,-6.830470979589493841e-02
5.447447447447447466e+00,-2.425782420997943736e-02,-6.821313730739736458e-02
5.453453453453453115e+00,-2.425086921980711824e-02,-6.812174166811217624e-02
5.459459459459459651e+00,-2.423772682473814694e-02,-6.803052252981139914e-02
5.465465465465465300e+00,-2.422827118108610359e-02,-6.793947954423849855e-02
5.471471471471471837e+00,-2.422245255157182142e-02,-6.784861236311914845e-02
5.477477477477477485e+00,-2.421307826866720900e-02,-6.775792063817177857e-02
5.483483483483483134e+00,-2.420288166478627365e-02,-6.766740402111806607e-02
5.489489489489489671e+00,-2.419219372463734044e-02,-6.757706216369313568e-02
5.495495495495495319e+00,-2.418219536714989043e-02,-6.748689471765582926e-02
5.501501501501501856e+00,-2.417375590738408270e-02,-6.739690133479854517e-02
5.507507507507507505e+00,-2.416554600762953545e-02,-6.730708166695732741e-02
5.513513513513513153e+00,-2.415512342497716861e-02,-6.721743536602145519e-02
5.519519519519519690e+00,-2.414182916326126568e-02,-6.712796208394300468e-02
5.525525525525525339e+00,-2.413218408834807982e-02,-6.703866147274648024e-02
5.531531531531531876e+00,-2.412601375503527906e-02,-6.694953318453794600e-02
5.537537537537537524e+00,-2.411626588071126218e-02,-6.686057687151443496e-02
5.543543543543543173e+00,-2.410746064446907602e-02,-6.677179218597283084e-02
5.549549549549549710e+00,-2.409186054260419735e-02,-6.668317878031894408e-02
5.555555555555555358e+00,-2.408177763364605095e-02,-6.659473630707625491e-02
5.561561561561561895e+00,-2.407716477538444574e-02,-6.650646441889462857e-02
5.567567567567567544e+00,-2.406695064434675319e-02,-6.641836276855891952e-02
5.573573573573573192e+00,-2.405778613864274426e-02,-6.633043100899736755e-02
5.579579579579579729e+00,-2.404252077926518488e-02,-6.624266879328993829e-02
5.585585585585585378e+00,-2.403306182947503866e-02,-6.615507577467651112e-02
5.591591591591591914e+00,-2.402643091149089805e-02,-6.606765160656503932e-02
5.597597597597597563e+00,-2.401652023167441877e-02,-6.598039594253948814e-02
5.603603603603603212e+00,-2.400609870271791166e-02,-6.589330843636764801e-02
5.609609609609609748e+00,-2.399257342108801830e-02,-6.580638874200890609e-02
5.615615615615615397e+00,-2.398215713517044823e-02,-6.571963651362193459e-02
5.621621621621621934e+00,-2.396675253544650400e-02,-6.563305140557211537e-02
5.627627627627627582e+00,-2.395647696565905357e-02,-6.554663307243904780e-02
5.633633633633633231e+00,-2.395569743019752146e-02,-6.546038116902382076e-02
5.639639639639639768e+00,-2.394190343099626347e-02,-6.537429535035610417e-02
5.645645645645645416e+00,-2.393048359563013788e-02,-6.528837527170146260e-02
5.651651651651651953e+00,-2.392436530563478089e-02,-6.520262058856808596e-02
5.657657657657657602e+00,-2.391428294807455487e-02,-6.511703095671392272e-02
5.663663663663663250e+00,-2.390335674534807206e-02,-6.503160603215323021e-02
5.669669669669669787e+00,-2.388828812200523635e-02,-6.494634547116337475e-02
5.675675675675675436e+00,-2.387605695530784986e-02,-6.486124893029147909e-02
5.681681681681681972e+00,-2.387062406083070507e-02,-6.477631606636075068e-02
5.687687687687687621e+00,-2.385944590018077016e-02,-6.469154653647697650e-02
5.693693693693693270e+00,-2.384903472203781308e-02,-6.460693999803472642e-02
5.699699699699699806e+00,-2.383602465631948220e-02,-6.452249610872361207e-02
5.705705705705705455e+00,-2.382570274485756173e-02,-6.443821452653439308e-02
5.711711711711711992e+00,-2.381662128450820134e-02,-6.435409490976491675e-02
5.717717717717717640e+00,-2.380517321371304271e-02,-6.427013691702612719e-02
5.723723723723723289e+00,-2.379529606442555220e-02,-6.418634020724775513e-02
5.729729729729729826e+00,-2.378269356639225660e-02,-6.410270443968416054e-02
5.735735735735735474e+00,-2.377211893730736894e-02,-6.401922927392000862e-02
5.741741741741742011e+00,-2.376269069015864155e-02,-6.393591436987568211e-02
5.747747747747747660e+00,-2.375157106870607465e-02,-6.385275938781284633e-02
5.753753753753753308e+00,-2.374064666500663376e-02,-6.376976398833986148e-02
5.759759759759759845e+00,-2.372801915769669201e-02,-6.368692783241702848e-02
5.765765765765765494e+00,-2.371702838376621436e-02,-6.360425058136183474e-02
5.771771771771772030e+00,-2.370750266493683311e-02,-6.352173189685404731e-02
5.777777777777777679e+00,-2.369709977629941289e-02,-6.343937144094083380e-02
5.783783783783783328e+00,-2.368628851484158582e-02,-6.335716887604171677e-02
5.789789789789789864e+00,-2.367322176468684286e-02,-6.327512386495340313e-02
5.795795795795795513e+00,-2.366189388742897040e-02,-6.319323607085468308e-02
5.801801801801802050e+00,-2.365189424716486813e-02,-6.311150515731107913e-02
5.807807807807807698e+00,-2.364113414801331456e-02,-6.302993078827964779e-02
5.813813813813813347e+00,-2.363076553951935083e-02,-6.294851262811346215e-02
5.819819819819819884e+00,-2.361795565100938132e-02,-6.286725034156603886e-02
5.825825825825825532e+00,-2.360527154139145656e-02,-6.278614359379597332e-02
5.831831831831832069e+00,-2.359871757234903791e-02,-6.270519205037117239e-02
5.837837837837837718e+00,-2.358569081128561798e-02,-6.262439537727317040e-02
5.843843843843843366e+00,-2.357638187146484168e-02,-6.254375324090134802e-02
5.849849849849849903e+00,-2.356047596897616059e-02,-6.246326530807709554e-02
5.855855855855855552e+00,-2.355067039228429804e-02,-6.238293124604785828e-02
5.861861861861862089e+00,-2.353494687512506373e-02,-6.230275072249120277e-02
5.867867867867867737e+00,-2.354264093029205529e-02,-6.222272340551868869e-02
5.873873873873873386e+00,-2.353124686338252738e-02,-6.214284896367981009e-02
5.879879879879879923e+00,-2.350487986207754412e-02,-6.206312706596572165e-02
5.885885885885885571e+00,-2.349332703126138025e-02,-6.198355738181311053e-02
5.891891891891892108e+00,-2.348356771711821583e-02,-6.190413958110772136e-02
5.897897897897897757e+00,-2.347219533698906985e-02,-6.182487333418808240e-02
5.903903903903904293e+00,-2.345863036842069441e-02,-6.174575831184898889e-02
5.909909909909909942e+00,-2.344848810400627925e-02,-6.166679418534506268e-02
5.915915915915915591e+00,-2.343701693166481623e-02,-6.158798062639406212e-02
5.921921921921922127e+00,-2.342763266927075719e-02,-6.150931730718037227e-02
5.927927927927927776e+00,-2.341628678155727172e-02,-6.143080390035828009e-02
5.933933933933934313e+00,-2.340211090945745059e-02,-6.135244007905506919e-02
5.939939939939939961e+00,-2.338989669784832803e-02,-6.127422551687446844e-02
5.945945945945945610e+00,-2.337804577177145932e-02,-6.119615988789958022e-02
5.951951951951952147e+00,-2.336984181940318303e-02,-6.111824286669595430e-02
5.957957957957957795e+00,-2.335827186048393053e-02,-6.104047412831476588e-02
5.963963963963964332e+00,-2.334260174641266880e-02,-6.096285334829561198e-02
5.969969969969969981e+00,-2.333281443341040859e-02,-6.088538020266943268e-02
5.975975975975975629e+00,-2.331960643546077822e-02,-6.080805436796143243e-02
5.981981981981982166e+00,-2.331113343339998381e-02,-6.073087552119381394e-02
5.987987987987987815e+00,-2.329945976487833581e-02,-6.065384333988853294e-02
5.993993993993994351e+00,-2.328450693948585018e-02,-6.057695750206999741e-02
6.000000000000000000e+00,-2.327249873860369467e-02,-6.050021768626769048e-02
