# Re omega, K.-K. Re f_xc, Model Re f_xc
0.000000000000000000,-1066.652087117508472147,-1066.643580950855493938
0.006006006006006006,-1044.986780011559631021,-1013.563976139523447273
0.012012012012012012,-935.998294789820192818,-877.730564863721838265
0.018018018018018018,-802.154989074857439846,-709.741323641964299895
0.024024024024024024,-678.328699993440864091,-553.175635700851785259
0.030030030030030030,-578.504308119917936892,-429.124791860255584197
0.036036036036036036,-503.350199862367617243,-340.505404852941353511
0.042042042042042038,-448.530982210908859997,-281.631454769736933486
0.048048048048048048,-409.023949632175742863,-244.825890932693255309
0.054054054054054057,-380.603367372352977327,-223.322211528981597439
0.060060060060060060,-360.099532565278423135,-212.008523202375869232
0.066066066066066062,-345.239992560171060632,-207.297338347870095276
0.072072072072072071,-334.425893250153990266,-206.766195698816943604
0.078078078078078081,-326.524563300402405730,-208.813403423735167053
0.084084084084084076,-320.744131626463570228,-212.392858548587128098
0.090090090090090086,-316.524009083640464723,-216.827103308361415657
0.096096096096096095,-313.451602354390274741,-221.680959312213104795
0.102102102102102105,-311.243238009107926700,-226.677826718349564317
0.108108108108108114,-309.683147142039899791,-231.644738196291712029
0.114114114114114110,-308.607488947844103677,-236.476389202560426384
0.120120120120120119,-307.902601493719089376,-241.111577901576254135
0.126126126126126115,-307.488938336572289245,-245.517740190117649490
0.132132132132132124,-307.271500125816942273,-249.680771833848950791
0.138138138138138133,-307.229186848097697293,-253.598315021422081372
0.144144144144144143,-307.310214544513883084,-257.275324630951445215
0.150150150150150152,-307.486563159223464936,-260.721141395779625327
0.156156156156156162,-307.734554025016791456,-263.947565392306444210
0.162162162162162171,-308.043434389468075096,-266.967595983916964997
0.168168168168168153,-308.384059318912193248,-269.794616960050177568
0.174174174174174162,-308.755781491974005348,-272.441879451570628135
0.180180180180180172,-309.150195787271115933,-274.922183922446947690
0.186186186186186181,-309.554459318043768690,-277.247694877878757325
0.192192192192192191,-309.967772246774416089,-279.429843523867816657
0.198198198198198200,-310.385003899829598595,-281.479288113006418826
0.204204204204204209,-310.803065959930847839,-283.405911496138742223
0.210210210210210219,-311.221021768532978058,-285.218842031775238866
0.216216216216216228,-311.633362602326826618,-286.926488516903646087
0.222222222222222210,-312.039621016596072423,-288.536582880583978294
0.228228228228228219,-312.438498768461499822,-290.056226484811702448
0.234234234234234229,-312.826124519260872603,-291.491937314889355548
0.240240240240240238,-313.209665478307385911,-292.849696323381238017
0.246246246246246248,-313.588910595423726591,-294.134991860197033020
0.252252252252252229,-313.954236646266963362,-295.352861573963423325
0.258258258258258266,-314.311342149810684532,-296.507931473586893389
0.264264264264264248,-314.655973644786342902,-297.604452039969487487
0.270270270270270285,-314.997389820319369846,-298.646331408171818111
0.276276276276276267,-315.323804453604225273,-299.637165722078350427
0.282282282282282304,-315.643738466636818885,-300.580266812207469229
0.288288288288288286,-315.955668695103042865,-301.478687373420882523
0.294294294294294267,-316.260259728813593938,-302.335243830366039219
0.300300300300300305,-316.553850226918996213,-303.152537079695264310
0.306306306306306286,-316.838314217914160054,-303.932971293015100400
0.312312312312312323,-317.117714426284521778,-304.678770955592426617
0.318318318318318305,-317.384047362464343678,-305.391996304758208680
0.324324324324324342,-317.646923997395504102,-306.074557319836969782
0.330330330330330324,-317.901843108233833846,-306.728226403049404780
0.336336336336336306,-318.152285097041385598,-307.354649878667601115
0.342342342342342343,-318.391951667715488838,-307.955358426055454402
0.348348348348348325,-318.625188987877095315,-308.531776551276607279
0.354354354354354362,-318.851367405450616843,-309.085231191787556781
0.360360360360360343,-319.071334778885784544,-309.616959539389995371
0.366366366366366381,-319.287894166809621765,-310.128116158086982068
0.372372372372372362,-319.494739377844609862,-310.619779465744386471
0.378378378378378399,-319.699246712976105300,-311.092957641456621332
0.384384384384384381,-319.897541072020317188,-311.548594014205548319
0.390390390390390363,-320.089185083802533427,-311.987571982726649367
0.396396396396396400,-320.275599129691556755,-312.410719511403158322
0.402402402402402382,-320.457209760306284352,-312.818813242441649436
0.408408408408408419,-320.634996987825104497,-313.212582260495537412
0.414414414414414400,-320.805681476622226000,-313.592711542238589573
0.420420420420420438,-320.973337161322547217,-313.959845120120405682
0.426426426426426419,-321.137398551568026051,-314.314588986600710996
0.432432432432432456,-321.299154575911416032,-314.657513762542009772
0.438438438438438438,-321.454671847407951191,-314.989157151092513232
0.444444444444444420,-321.605860962595272667,-315.310026196291914857
0.450450450450450457,-321.754864402304406212,-315.620599363754308797
0.456456456456456439,-321.902931363104698903,-315.921328459097139785
0.462462462462462476,-322.038848489475185488,-316.212640398276391807
0.468468468468468457,-322.166180272325050282,-316.494938842635747278
0.474474474474474495,-322.310470912056132420,-316.768605710260715114
0.480480480480480476,-322.437409070963894919,-317.034002574141027253
0.486486486486486458,-322.560476811647106388,-317.291471956661212062
0.492492492492492495,-322.693483884906072490,-317.541338529061363261
0.498498498498498477,-322.813754077076225713,-317.783910223714087806
0.504504504504504458,-322.932810882250180384,-318.019479266350799662
0.510510510510510551,-323.049084900427772027,-318.248323134726319950
0.516516516516516533,-323.163455605845399532,-318.470705449630145267
0.522522522522522515,-323.270759089571697587,-318.686876803627342269
0.528528528528528496,-323.379727982804183739,-318.897075532439885137
0.534534534534534478,-323.487887939301572260,-319.101528433449630029
0.540540540540540571,-323.591574089125231239,-319.300451435416391632
0.546546546546546552,-323.693525778835407891,-319.494050223154829382
0.552552552552552534,-323.786225069649503894,-319.682520820593083499
0.558558558558558516,-323.889382350097378094,-319.866050135350462824
0.564564564564564608,-323.983818743147821806,-320.044816467706027652
0.570570570570570590,-324.076672418491455119,-320.218989986594749553
0.576576576576576572,-324.159865703611444587,-320.388733175048798785
0.582582582582582553,-324.255949813140148308,-320.554201247306195910
0.588588588588588535,-324.344716718405379652,-320.715542539628074792
0.594594594594594628,-324.430169195154803674,-320.872898876703743554
0.600600600600600609,-324.522092298607333305,-321.026405915371412902
0.606606606606606591,-324.595792378099758935,-321.176193467248765501
0.612612612612612573,-324.672915035008600171,-321.322385801739642375
0.618618618618618665,-324.751922929140107499,-321.465101930773244021
0.624624624624624647,-324.833081465694021972,-321.604455876524639280
0.630630630630630629,-324.908267490517573606,-321.740556923272151835
0.636636636636636610,-324.979514014761491580,-321.873509854458916379
0.642642642642642592,-325.056282609854747534,-322.003415175946088311
0.648648648648648685,-325.123846114497894177,-322.130369326371635452
0.654654654654654666,-325.197601101695966008,-322.254464875461223983
0.660660660660660648,-325.262625969524435732,-322.375790711075183026
0.666666666666666630,-325.332143200464372512,-322.494432215719882606
0.672672672672672611,-325.397987795633582664,-322.610471433197517399
0.678678678678678704,-325.464107925112216435,-322.723987226021506558
0.684684684684684686,-325.528947366664851870,-322.835055424179643069
0.690690690690690667,-325.587358896435603128,-322.943748965786085137
0.696696696696696649,-325.651547623471856241,-323.050138030125765454
0.702702702702702742,-325.709887127432125453,-323.154290163559437588
0.708708708708708723,-325.771322964478656559,-323.256270398725348514
0.714714714714714705,-325.827165912688883509,-323.356141367444820389
0.720720720720720687,-325.884190747101285979,-323.453963407709409239
0.726726726726726668,-325.942266145896098806,-323.549794665104059277
0.732732732732732761,-325.997912152678850362,-323.643691188995092034
0.738738738738738743,-326.051613790686133143,-323.735707023791803749
0.744744744744744724,-326.103081088182932490,-323.825894295568275538
0.750750750750750706,-326.157941709957299281,-323.914303294315516268
0.756756756756756799,-326.206756164128535147,-324.000982552073708121
0.762762762762762780,-326.259943224010271479,-324.085978917181478209
0.768768768768768762,-326.311293895519611397,-324.169337624860759206
0.774774774774774744,-326.356979023272742779,-324.251102364344887974
0.780780780780780725,-326.406795745371425710,-324.331315342741675067
0.786786786786786818,-326.452226394268564036,-324.410017345813855627
0.792792792792792800,-326.500642085781635160,-324.487247795845860310
0.798798798798798781,-326.544886696495950673,-324.563044806756636262
0.804804804804804763,-326.589956718571158945,-324.637445236608130017
0.810810810810810856,-326.634431706462578404,-324.710484737649551334
0.816816816816816837,-326.680092523554890249,-324.782197804029976851
0.822822822822822819,-326.722794223813536973,-324.852617817302871117
0.828828828828828801,-326.763753941952302284,-324.921777089839338259
0.834834834834834782,-326.806675647394229145,-324.989706906259812058
0.840840840840840875,-326.846489717565759747,-325.056437562987866841
0.846846846846846857,-326.887877429857724110,-325.121998406022328254
0.852852852852852839,-326.926789257953089418,-325.186417867020850281
0.858858858858858820,-326.965932893557749139,-325.249723497779996251
0.864864864864864913,-327.004297281129879593,-325.311942003193280470
0.870870870870870895,-327.043519035305905618,-325.373099272764989109
0.876876876876876876,-327.079974441588092304,-325.433220410751061991
0.882882882882882858,-327.115835869624902443,-325.492329764995247388
0.888888888888888840,-327.153498380475014073,-325.550450954526525038
0.894894894894894932,-327.187087324119829645,-325.607606895976687156
0.900900900900900914,-327.225679762621325608,-325.663819828877308282
0.906906906906906896,-327.261518071293721732,-325.719111339889536794
0.912912912912912877,-327.291491185629013216,-325.773502386018549259
0.918918918918918859,-327.328678192536926872,-325.827013316861211933
0.924924924924924952,-327.358845226971595821,-325.879663895933163076
0.930930930930930933,-327.395695638984079778,-325.931473321118289732
0.936936936936936915,-327.428442299110429303,-325.982460244283004158
0.942942942942942897,-327.458010261820902542,-326.032642790092950236
0.948948948948948989,-327.489309395744896847,-326.082038574070566028
0.954954954954954971,-327.524092795085493890,-326.130664719927608530
0.960960960960960953,-327.554695835995516973,-326.178537876206121382
0.966966966966966934,-327.582299785900602274,-326.225674232259962082
0.972972972972972916,-327.612355919922720204,-326.272089533605992528
0.978978978978979009,-327.641842904328541408,-326.317799096674093562
0.984984984984984990,-327.671510501423654205,-326.362817822982151483
0.990990990990990972,-327.699463872220690064,-326.407160212762789797
0.996996996996996954,-327.727315413199903560,-326.450840378064810920
1.003003003003003046,-327.755275386636185431,-326.493872055353619999
1.009009009009008917,-327.783044732480504990,-326.536268617631719735
1.015015015015015010,-327.810994696080115318,-326.578043086101217796
1.021021021021021102,-327.836899649016970670,-326.619208141386707211
1.027027027027026973,-327.863638539648661663,-326.659776134339097098
1.033033033033033066,-327.890029460056098287,-326.699759096436821437
1.039039039039038936,-327.914963436187633761,-326.739168749803127412
1.045045045045045029,-327.940334613855384305,-326.778016516853881512
1.051051051051051122,-327.965469289545239917,-326.816313529593401199
1.057057057057056992,-327.995689011748709163,-326.854070638571499785
1.063063063063063085,-328.014951560320753288,-326.891298421516637518
1.069069069069068956,-328.038499782023222906,-326.928007191658480224
1.075075075075075048,-328.062338216143700720,-326.964207005752484747
1.081081081081081141,-328.087209182543062980,-326.999907671819073585
1.087087087087087012,-328.109591553280608878,-327.035118756608540025
1.093093093093093104,-328.132469593908126626,-327.069849592803279847
1.099099099099099197,-328.155715079310880355,-327.104109285967695087
1.105105105105105068,-328.177481543443263945,-327.137906721255887987
1.111111111111111160,-328.201199056564860257,-327.171250569887092752
1.117117117117117031,-328.222365659594800036,-327.204149295397314745
1.123123123123123124,-328.244579753311143122,-327.236611159677408978
1.129129129129129216,-328.266488988230662471,-327.268644228804305385
1.135135135135135087,-328.286261877041511070,-327.300256378674646385
1.141141141141141180,-328.306260533706904425,-327.331455300448453727
1.147147147147147050,-328.329148815366522740,-327.362248505809247945
1.153153153153153143,-328.349530640266095816,-327.392643332049033233
1.159159159159159236,-328.368218892120921737,-327.422646946983604721
1.165165165165165106,-328.389559072045187804,-327.452266353705454094
1.171171171171171199,-328.404754604974527865,-327.481508395180355819
1.177177177177177070,-328.426463456360522741,-327.510379758692977248
1.183183183183183163,-328.446028886234614674,-327.538886980147765371
1.189189189189189255,-328.465170648267360320,-327.567036448230453516
1.195195195195195126,-328.483687037360994054,-327.594834408434905981
1.201201201201201219,-328.502748154860285013,-327.622286966960928112
1.207207207207207089,-328.518321983530768193,-327.649400094487418755
1.213213213213213182,-328.536374330840544644,-327.676179629825185202
1.219219219219219275,-328.550227569749608847,-327.702631283454593358
1.225225225225225145,-328.572260609528882469,-327.728760640951577443
1.231231231231231238,-328.590135153425080716,-327.754573166305874565
1.237237237237237331,-328.607458113816221612,-327.780074205136429555
1.243243243243243201,-328.627122102139992421,-327.805268987806130099
1.249249249249249294,-328.644723630867076736,-327.830162632441044934
1.255255255255255165,-328.658688406313274299,-327.854760147855984087
1.261261261261261257,-328.678075126960720809,-327.879066436391156003
1.267267267267267350,-328.693976122221158676,-327.903086296661911092
1.273273273273273221,-328.712280694518597102,-327.926824426225209663
1.279279279279279313,-328.722193875985851719,-327.950285424165599579
1.285285285285285184,-328.744024309348276347,-327.973473793603375270
1.291291291291291277,-328.758542743723751300,-327.996393944127532905
1.297297297297297369,-328.769900578569092886,-328.019050194156875477
1.303303303303303240,-328.785678445600694886,-328.041446773229949940
1.309309309309309333,-328.805589122694016169,-328.063587824228818590
1.315315315315315203,-328.816002674291951280,-328.085477405535982598
1.321321321321321296,-328.831042880417101060,-328.107119493129630428
1.327327327327327389,-328.845926525533400309,-328.128517982616529025
1.333333333333333259,-328.860607915998684803,-328.149676691206991563
1.339339339339339352,-328.875108937825075373,-328.170599359632319647
1.345345345345345223,-328.894271874785829368,-328.191289654007164245
1.351351351351351315,-328.909003706975681780,-328.211751167638681181
1.357357357357357408,-328.921712369355418559,-328.231987422784015962
1.363363363363363279,-328.935315765131008447,-328.252001872358221135
1.369369369369369371,-328.949872202178255520,-328.271797901593345159
1.375375375375375464,-328.963744767870593932,-328.291378829651648630
1.381381381381381335,-328.970788110814964966,-328.310747911192834181
1.387387387387387427,-328.985045468115743006,-328.329908337898018544
1.393393393393393298,-329.004225820492081311,-328.348863239951469950
1.399399399399399391,-329.013019427922301929,-328.367615687480906672
1.405405405405405483,-329.026700338668376844,-328.386168691958687305
1.411411411411411354,-329.042777016023080705,-328.404525207564006450
1.417417417417417447,-329.055321559725939551,-328.422688132508540093
1.423423423423423317,-329.064964659641873368,-328.440660310325313276
1.429429429429429410,-329.077508692689093550,-328.458444531123404886
1.435435435435435503,-329.093244112352635966,-328.476043532808034797
1.441441441441441373,-329.102272087353640018,-328.493460002268591325
1.447447447447447466,-329.114738417233638756,-328.510696576534542146
1.453453453453453337,-329.128362030492269241,-328.527755843900422406
1.459459459459459429,-329.140851877472300657,-328.544640345021093708
1.465465465465465522,-329.156389218525191609,-328.561352573978354030
1.471471471471471393,-329.164618847112819822,-328.577894979319012236
1.477477477477477485,-329.176197059735670791,-328.594269965065848282
1.483483483483483578,-329.187513984047484428,-328.610479891702595978
1.489489489489489449,-329.194660617516319689,-328.626527077132607246
1.495495495495495542,-329.206307947543280079,-328.642413797613244242
1.501501501501501412,-329.217529771330532640,-328.658142288666056174
1.507507507507507505,-329.228658210821663488,-328.673714745963309269
1.513513513513513598,-329.241490999468055634,-328.689133326192120421
1.519519519519519468,-329.255996007897067557,-328.704400147896308226
1.525525525525525561,-329.268836786244094128,-328.719517292297098265
1.531531531531531432,-329.272750893866259503,-328.734486804092796319
1.537537537537537524,-329.287705871763762389,-328.749310692238736920
1.543543543543543617,-329.298148861606705395,-328.763990930706881954
1.549549549549549488,-329.305534370085581486,-328.778529459227513598
1.555555555555555580,-329.315824219045566679,-328.792928184011145731
1.561561561561561451,-329.328678114682475098,-328.807188978453837080
1.567567567567567544,-329.338623946908057860,-328.821313683823973406
1.573573573573573636,-329.350440605024516572,-328.835304109932735628
1.579579579579579507,-329.359571162244094467,-328.849162035788083358
1.585585585585585600,-329.369698205175780004,-328.862889210232367532
1.591591591591591470,-329.375971004682014609,-328.876487352564879529
1.597597597597597563,-329.385655676930525715,-328.889958153148825204
1.603603603603603656,-329.395328463257612839,-328.903303274004201739
1.609609609609609526,-329.403179698127416941,-328.916524349385838377
1.615615615615615619,-329.414455164889488969,-328.929622986347681035
1.621621621621621712,-329.423849294910837671,-328.942600765294002940
1.627627627627627582,-329.435277291407260236,-328.955459240516859154
1.633633633633633675,-329.445077000223193409,-328.968199940721149233
1.639639639639639546,-329.454744460219444591,-328.980824369537401708
1.645645645645645638,-329.463515186593099315,-328.993334006021882487
1.651651651651651731,-329.472182640361836548,-329.005730305145789316
1.657657657657657602,-329.478531656491270496,-329.018014698271997531
1.663663663663663694,-329.487281944145195212,-329.030188593621744531
1.669669669669669565,-329.498643060065376176,-329.042253376729718184
1.675675675675675658,-329.504775433622285163,-329.054210410888742899
1.681681681681681750,-329.513329920159264930,-329.066061037584631777
1.687687687687687621,-329.524662187128171809,-329.077806576920409043
1.693693693693693714,-329.532904139340303118,-329.089448328031210167
1.699699699699699584,-329.540216858738460814,-329.100987569489859652
1.705705705705705677,-329.550124439917965447,-329.112425559702558076
1.711711711711711770,-329.557978694546022780,-329.123763537296383674
1.717717717717717640,-329.564985730407158826,-329.135002721497642142
1.723723723723723733,-329.574571508669180275,-329.146144312501462537
1.729729729729729826,-329.581215410175957459,-329.157189491833719330
1.735735735735735696,-329.590516383401734402,-329.168139422704314256
1.741741741741741789,-329.598181516707370520,-329.178995250352841140
1.747747747747747660,-329.605888536375005060,-329.189758102386576866
1.753753753753753752,-329.613918951934635970,-329.200429089110741643
1.759759759759759845,-329.621187384492827732,-329.211009303851994900
1.765765765765765716,-329.628453743583122559,-329.221499823274143637
1.771771771771771808,-329.633949068334686672,-329.231901707687541148
1.777777777777777679,-329.641537410702540001,-329.242216001351323484
1.783783783783783772,-329.652484408553164030,-329.252443732769336293
1.789789789789789864,-329.658787830888456938,-329.262585914979297286
1.795795795795795735,-329.667556495678866213,-329.272643545836160683
1.801801801801801828,-329.673359559100504157,-329.282617608289172040
1.807807807807807698,-329.681918785111804482,-329.292509070652556602
1.813813813813813791,-329.686898564990713112,-329.302318886871262293
1.819819819819819884,-329.697525828170967088,-329.312047996780449921
1.825825825825825754,-329.702379152845821864,-329.321697326359242197
1.831831831831831847,-329.709453596704747724,-329.331267787979868444
1.837837837837837718,-329.717089024320557655,-329.340760280651068115
1.843843843843843811,-329.723899126960020567,-329.350175690255980498
1.849849849849849903,-329.730293034644603267,-329.359514889785998548
1.855855855855855774,-329.738034389022232062,-329.368778739568881520
1.861861861861861867,-329.744989120435548102,-329.377968087492604354
1.867867867867867959,-329.751642904291998093,-329.387083769224148000
1.873873873873873830,-329.758938069556108985,-329.396126608424253845
1.879879879879879923,-329.764290904182189479,-329.405097416957232781
1.885885885885885793,-329.770661641536378283,-329.413996995096795217
1.891891891891891886,-329.777286703608069729,-329.422826131727561005
1.897897897897897979,-329.783884286010334108,-329.431585604542476631
1.903903903903903849,-329.790371838578550978,-329.440276180235969150
1.909909909909909942,-329.797567108464818375,-329.448898614693462150
1.915915915915915813,-329.803882727079951565,-329.457453653177026354
1.921921921921921905,-329.810035176531016532,-329.465942030507164873
1.927927927927927998,-329.816003250177004702,-329.474364471240789953
1.933933933933933869,-329.822095307493441396,-329.482721689846130175
1.939939939939939961,-329.828870662691542748,-329.491014390873374396
1.945945945945945832,-329.834719387250004274,-329.499243269122814581
1.951951951951951925,-329.841953479156529738,-329.507409009808782230
1.957957957957958017,-329.848215806410451023,-329.515512288720856304
1.963963963963963888,-329.853811646144094993,-329.523553772381887939
1.969969969969969981,-329.859032198132126723,-329.531534118202444006
1.975975975975975851,-329.864968728267228926,-329.539453974632749578
1.981981981981981944,-329.870844765572485358,-329.547313981311447151
1.987987987987988037,-329.876767815183484345,-329.555114769211286330
1.993993993993993907,-329.882103638500552734,-329.562856960782255555
2.000000000000000000,-329.888023865015952651,-329.570541170091644290
2.006006006006006093,-329.894796462660622183,-329.578168002961717775
2.012012012012012185,-329.900539798218858323,-329.585738057104435939
2.018018018018017834,-329.910136775245291574,-329.593251922253784869
2.024024024024023927,-329.910704278586024429,-329.600710180295266127
2.030030030030030019,-329.916257208903914488,-329.608113405393510220
2.036036036036036112,-329.923096999040126320,-329.615462164116706845
2.042042042042042205,-329.927599206024126488,-329.622757015559102456
2.048048048048047853,-329.932863696736546899,-329.629998511461224098
2.054054054054053946,-329.938132849554506265,-329.637187196327658967
2.060060060060060039,-329.943478486598280597,-329.644323607542446553
2.066066066066066131,-329.949131913890369106,-329.651408275482879162
2.072072072072072224,-329.954447436199075128,-329.658441723630460274
2.078078078078077873,-329.960023381484234051,-329.665424468680157588
2.084084084084083965,-329.964102243367392475,-329.672357020647837089
2.090090090090090058,-329.970555828646752161,-329.679239882975139153
2.096096096096096151,-329.975600137442313553,-329.686073552632876726
2.102102102102102243,-329.980794151303769013,-329.692858520222273455
2.108108108108107892,-329.986056046731391689,-329.699595270074439668
2.114114114114113985,-329.989930851270685253,-329.706284280348029370
2.120120120120120077,-329.995136514083355905,-329.712926023125135089
2.126126126126126170,-330.000714397469721462,-329.719520964505193206
2.132132132132132263,-330.005600864030441244,-329.726069564697297665
2.138138138138137911,-330.010785864808497081,-329.732572278111319974
2.144144144144144004,-330.015678076871438407,-329.739029553446414411
2.150150150150150097,-330.020301176472969473,-329.745441833778727414
2.156156156156156189,-330.025096283998436775,-329.751809556647287991
2.162162162162162282,-330.029929885270917111,-329.758133154138135978
2.168168168168167931,-330.034742881266140557,-329.764413052967256590
2.174174174174174023,-330.039497267927629309,-329.770649674561752818
2.180180180180180116,-330.044228415897634932,-329.776843435139994654
2.186186186186186209,-330.048866294990091319,-329.782994745789665103
2.192192192192192302,-330.053639780440619234,-329.789104012545180922
2.198198198198198394,-330.058348020092523711,-329.795171636463123832
2.204204204204204043,-330.062293442766303997,-329.801198013696762246
2.210210210210210136,-330.066736046758876455,-329.807183535568867683
2.216216216216216228,-330.071109827739633147,-329.813128588643792227
2.222222222222222321,-330.075849365521492018,-329.819033554797726993
2.228228228228228414,-330.080406745991922435,-329.824898811288107936
2.234234234234234062,-330.085314520568601893,-329.830724730821600588
2.240240240240240155,-330.089736569089609475,-329.836511681621061598
2.246246246246246248,-330.093765560525923775,-329.842260027491192886
2.252252252252252340,-330.098085160323705622,-329.847970127883229452
2.258258258258258433,-330.102144431707813510,-329.853642337958206099
2.264264264264264082,-330.107276610396070282,-329.859277008649769414
2.270270270270270174,-330.111561403175244322,-329.864874486725000224
2.276276276276276267,-330.115706969754967304,-329.870435114845008684
2.282282282282282360,-330.120049905696873793,-329.875959231624165113
2.288288288288288452,-330.127500426485823937,-329.881447171688137132
2.294294294294294101,-330.127495952076856156,-329.886899265731358355
2.300300300300300194,-330.131673359342755703,-329.892315840573189689
2.306306306306306286,-330.136192021681210917,-329.897697219213341668
2.312312312312312379,-330.139371300785228414,-329.903043720886046231
2.318318318318318472,-330.145839532660488658,-329.908355661113944279
2.324324324324324120,-330.148530741280865186,-329.913633351760381629
2.330330330330330213,-330.151861147046020051,-329.918877101081079672
2.336336336336336306,-330.156052108249809862,-329.924087213775237615
2.342342342342342398,-330.160534328097583057,-329.929263991035440995
2.348348348348348491,-330.164343870334278108,-329.934407730596717556
2.354354354354354140,-330.174079306460726002,-329.939518726785024683
2.360360360360360232,-330.174042948376154527,-329.944597270564827340
2.366366366366366325,-330.177891126356485074,-329.949643649585823368
2.372372372372372418,-330.181401325705905947,-329.954658148229043491
2.378378378378378510,-330.185247459474283005,-329.959641047652098678
2.384384384384384159,-330.189097299370644123,-329.964592625833574857
2.390390390390390252,-330.192860464425393729,-329.969513157617086563
2.396396396396396344,-330.196882770061677093,-329.974402914754080030
2.402402402402402437,-330.200625831851084513,-329.979262165946522600
2.408408408408408530,-330.204453160774221487,-329.984091176888398422
2.414414414414414178,-330.206438490389189155,-329.988890210306863082
2.420420420420420271,-330.210233886915091261,-329.993659526002488747
2.426426426426426364,-330.213656458785294490,-329.998399380889168242
2.432432432432432456,-330.216640295125785087,-330.003110029033166484
2.438438438438438549,-330.220854370107417708,-330.007791721691376097
2.444444444444444642,-330.224465763022010378,-330.012444707349516193
2.450450450450450290,-330.228426202881564677,-330.017069231759194281
2.456456456456456383,-330.232181810358667917,-330.021665537974513427
2.462462462462462476,-330.235769225116655434,-330.026233866388395199
2.468468468468468568,-330.239337925455288314,-330.030774454767708903
2.474474474474474661,-330.243030129183921417,-330.035287538288741871
2.480480480480480310,-330.247677326828011246,-330.039773349571191829
2.486486486486486402,-330.254275948455870093,-330.044232118712216106
2.492492492492492495,-330.254324390824422153,-330.048664073319685031
2.498498498498498588,-330.257885180867333474,-330.053069438545207959
2.504504504504504681,-330.264305406035873602,-330.057448437116249806
2.510510510510510329,-330.263167623619267488,-330.061801289367849677
2.516516516516516422,-330.271026453033073267,-330.066128213274339487
2.522522522522522515,-330.274351439613383263,-330.070429424479755198
2.528528528528528607,-330.277654812663001849,-330.074705136328418575
2.534534534534534700,-330.280947764313168591,-330.078955559894836824
2.540540540540540349,-330.280187231203740339,-330.083180904013033796
2.546546546546546441,-330.283673452496373102,-330.087381375305653819
2.552552552552552534,-330.286784607894389865,-330.091557178212440249
2.558558558558558627,-330.290123347798555642,-330.095708515018372964
2.564564564564564719,-330.293210705951196360,-330.099835585881237421
2.570570570570570368,-330.297349231433031491,-330.103938588859136871
2.576576576576576461,-330.303633840322277138,-330.108017719937151924
2.582582582582582553,-330.306054502741119450,-330.112073173053829578
2.588588588588588646,-330.305666938543822653,-330.116105140127217510
2.594594594594594739,-330.308190698649809747,-330.120113811080614141
2.600600600600600387,-330.316351041662414900,-330.124099373867693430
2.606606606606606480,-330.318516827513519729,-330.128062014497686505
2.612612612612612573,-330.318973155217179283,-330.132001917059426432
2.618618618618618665,-330.322033467096957793,-330.135919263746075103
2.624624624624624758,-330.325075885426258537,-330.139814234878485877
2.630630630630630407,-330.327039670152942108,-330.143687008928850446
2.636636636636636499,-330.330422682810819879,-330.147537762543834106
2.642642642642642592,-330.333828009526939695,-330.151366670567256278
2.648648648648648685,-330.333185556210480627,-330.155173906062486822
2.654654654654654777,-330.339264983407417731,-330.158959640334728647
2.660660660660660426,-330.341917438855261935,-330.162724042952618220
2.666666666666666519,-330.344852195899875369,-330.166467281769655528
2.672672672672672611,-330.347959548363576232,-330.170189522945634053
2.678678678678678704,-330.350900727139105584,-330.173890930967104396
2.684684684684684797,-330.351540919162061982,-330.177571668668235816
2.690690690690690445,-330.357805816272787069,-330.181231897250825114
2.696696696696696538,-330.360655214738187624,-330.184871776304362356
2.702702702702702631,-330.363489264040197213,-330.188491463825641858
2.708708708708708723,-330.366311807399256395,-330.192091116238316317
2.714714714714714816,-330.369126052590388554,-330.195670888411598298
2.720720720720720909,-330.371847053024453089,-330.199230933679530153
2.726726726726726557,-330.374627262704223085,-330.202771403859230759
2.732732732732732650,-330.377387600757060682,-330.206292449269426470
2.738738738738738743,-330.379927578421643375,-330.209794218748299954
2.744744744744744835,-330.382874841032105451,-330.213276859671339025
2.750750750750750928,-330.385600352829271742,-330.216740517968787572
2.756756756756756577,-330.386792929827549870,-330.220185338143096487
2.762762762762762669,-330.393218479569725332,-330.223611463285806167
2.768768768768768762,-330.392217480093506765,-330.227019035094429000
2.774774774774774855,-330.395232743351641602,-330.230408193888933965
2.780780780780780947,-330.398065762118392286,-330.233779078628117531
2.786786786786786596,-330.401720219087508212,-330.237131826925747191
2.792792792792792689,-330.403317923182669347,-330.240466575066250243
2.798798798798798781,-330.405844332551453135,-330.243783458020686794
2.804804804804804874,-330.408753631329830114,-330.247082609461926950
2.810810810810810967,-330.411449169255831748,-330.250364161779884853
2.816816816816816615,-330.414647853248254705,-330.253628246096695875
2.822822822822822708,-330.417212931619872052,-330.256874992281382220
2.828828828828828801,-330.419704041582974696,-330.260104528964518522
2.834834834834834894,-330.422239317442517859,-330.263316983552499551
2.840840840840840986,-330.424767990815382745,-330.266512482242092119
2.846846846846846635,-330.425924245366900323,-330.269691150033963822
2.852852852852852727,-330.428942046431131985,-330.272853110746893890
2.858858858858858820,-330.431442638604494277,-330.275998487031131390
2.864864864864864913,-330.435671633649519663,-330.279127400382151336
2.870870870870871006,-330.438131863278101719,-330.282239971153501301
2.876876876876876654,-330.438541174282192969,-330.285336318570273306
2.882882882882882747,-330.441123360537062581,-330.288416560741779904
2.888888888888888840,-330.443592730326088258,-330.291480814674400790
2.894894894894894932,-330.446129813417087462,-330.294529196283974670
2.900900900900901025,-330.448532552585447775,-330.297561820408418498
2.906906906906906674,-330.452584271651176095,-330.300578800819835124
2.912912912912912766,-330.454958566921618512,-330.303580250236564098
2.918918918918918859,-330.457325980983398495,-330.306566280335118790
2.924924924924924952,-330.459725523516056001,-330.309537001761839292
2.930930930930931044,-330.462066579816280409,-330.312492524144715844
2.936936936936936693,-330.464393096122648785,-330.315432956104473305
2.942942942942942786,-330.466710462655157698,-330.318358405266167210
2.948948948948948878,-330.469019387820651446,-330.321268978270097705
2.954954954954954971,-330.471314118815257643,-330.324164780783007700
2.960960960960961064,-330.473605402798909836,-330.327045917508655748
2.966966966966967156,-330.475918537461211599,-330.329912492198786822
2.972972972972972805,-330.476372605405629201,-330.332764607663534662
2.978978978978978898,-330.478581886760252928,-330.335602365781824119
2.984984984984984990,-330.481022105005308731,-330.338425867511716660
2.990990990990991083,-330.482771812139048961,-330.341235212900585339
2.996996996996997176,-330.483643386376002127,-330.344030501095119234
3.003003003003002824,-330.487489527987690963,-330.346811830351157369
3.009009009009008917,-330.489619012890557315,-330.349579298043408926
3.015015015015015010,-330.491777926418023981,-330.352333000675344010
3.021021021021021102,-330.494717441555337700,-330.355073033888345435
3.027027027027027195,-330.496137232871376455,-330.357799492471372105
3.033033033033032844,-330.500203087802617574,-330.360512470370110805
3.039039039039038936,-330.502356558130486519,-330.363212060696127992
3.045045045045045029,-330.504494141807697360,-330.365898355735907899
3.051051051051051122,-330.506631339091882182,-330.368571446959833793
3.057057057057057214,-330.508747284791297716,-330.371231425030885021
3.063063063063062863,-330.508889515809016757,-330.373878379813334050
3.069069069069068956,-330.512951548568423732,-330.376512400381500356
3.075075075075075048,-330.515041519997225805,-330.379133575027992720
3.081081081081081141,-330.517123367293265801,-330.381741991272178893
3.087087087087087234,-330.519257192071734153,-330.384337735868484742
3.093093093093092882,-330.519947988667468053,-330.386920894814466010
3.099099099099098975,-330.521782477730539540,-330.389491553358880083
3.105105105105105068,-330.521853316609849571,-330.392049796009700913
3.111111111111111160,-330.525602543014258572,-330.394595706541906566
3.117117117117117253,-330.527662458635120402,-330.397129368005209926
3.123123123123122902,-330.529096550730571380,-330.399650862731903089
3.129129129129128994,-330.531104510431987364,-330.402160272344076475
3.135135135135135087,-330.533139254946092933,-330.404657677761463219
3.141141141141141180,-330.536025492881037735,-330.407143159208430916
3.147147147147147273,-330.537997012563891985,-330.409616796221655477
3.153153153153152921,-330.536435137469766232,-330.412078667657056030
3.159159159159159014,-330.541045244883434862,-330.414528851696957190
3.165165165165165106,-330.544019152307384957,-330.416967425857194485
3.171171171171171199,-330.545964243785647341,-330.419394466993821879
3.177177177177177292,-330.546888951503035514,-330.421810051310274048
3.183183183183182940,-330.548205734051009586,-330.424214254363903365
3.189189189189189033,-330.551879986416622614,-330.426607151072630586
3.195195195195195126,-330.551862474889617260,-330.428988815721766059
3.201201201201201219,-330.554282269705254294,-330.431359321970376186
3.207207207207207311,-330.557498601293218599,-330.433718742857706729
3.213213213213213404,-330.559562702235609777,-330.436067150809492432
3.219219219219219053,-330.561278676643837571,-330.438404617644437167
3.225225225225225145,-330.563113536024616224,-330.440731214580353026
3.231231231231231238,-330.564932589184991230,-330.443047012240128879
3.237237237237237331,-330.566765361171633231,-330.445352080658039995
3.243243243243243423,-330.569231757582201681,-330.447646489285432381
3.249249249249249072,-330.569536797113414650,-330.449930306996918716
3.255255255255255165,-330.571364988355583137,-330.452203602096176382
3.261261261261261257,-330.573194231420245615,-330.454466442321574959
3.267267267267267350,-330.574998633076745591,-330.456718894852031099
3.273273273273273443,-330.576809627791362800,-330.458961026312408649
3.279279279279279091,-330.578606002408548648,-330.461192902779487213
3.285285285285285184,-330.580387966685748324,-330.463414589787078057
3.291291291291291277,-330.582170688710050399,-330.465626152331765297
3.297297297297297369,-330.585964883337794618,-330.467827654878021804
3.303303303303303462,-330.583886650379781713,-330.470019161363723015
3.309309309309309111,-330.588142969581440411,-330.472200735205206001
3.315315315315315203,-330.590115449099073430,-330.474372439302669591
3.321321321321321296,-330.591714052759925835,-330.476534336045176588
3.327327327327327389,-330.593665596622884095,-330.478686487315712839
3.333333333333333481,-330.595595910620090763,-330.480828954496189453
3.339339339339339130,-330.593751138391269251,-330.482961798472445025
3.345345345345345223,-330.599116381000214915,-330.485085079639134165
3.351351351351351315,-330.601431272727950272,-330.487198857904559191
3.357357357357357408,-330.603239247959379554,-330.489303192695388134
3.363363363363363501,-330.605030672488226173,-330.491398142961429585
3.369369369369369149,-330.602296238795133831,-330.493483767180237010
3.375375375375375242,-330.603980605265007853,-330.495560123361826754
3.381381381381381335,-330.606282446889849780,-330.497627269053225518
3.387387387387387427,-330.607949504004579921,-330.499685261342904141
3.393393393393393520,-330.609613668405586395,-330.501734156865211389
3.399399399399399169,-330.614935506789947794,-330.503774011804921429
3.405405405405405261,-330.615347680143202069,-330.505804881901497083
3.411411411411411354,-330.617108244584585464,-330.507826822453296245
3.417417417417417447,-330.617907099034823659,-330.509839888322062507
3.423423423423423539,-330.619534120577384328,-330.511844133937017887
3.429429429429429188,-330.622340040633787339,-330.513839613298841869
3.435435435435435281,-330.623624611005823226,-330.515826379984162031
3.441441441441441373,-330.625144997133531888,-330.517804487149248871
3.447447447447447466,-330.626425548162046653,-330.519773987534335902
3.453453453453453559,-330.627984164209124174,-330.521734933467314477
3.459459459459459651,-330.629834503566826243,-330.523687376867883358
3.465465465465465300,-330.631246927505628719,-330.525631369251357228
3.471471471471471393,-330.633319003795918434,-330.527566961732532036
3.477477477477477485,-330.634374743060106994,-330.529494205029436671
3.483483483483483578,-330.635930158170992854,-330.531413149467027779
3.489489489489489671,-330.637579421040015859,-330.533323844981168804
3.495495495495495319,-330.639184425299731629,-330.535226341121983751
3.501501501501501412,-330.637349103555322927,-330.537120687057608848
3.507507507507507505,-330.642108989579753597,-330.539006931578001058
3.513513513513513598,-330.643633711893869531,-330.540885123098121312
3.519519519519519690,-330.645153373325001667,-330.542755309661686169
3.525525525525525339,-330.645847322471524876,-330.544617538944464741
3.531531531531531432,-330.647352645098919766,-330.546471858258030352
3.537537537537537524,-330.648288244025366112,-330.548318314552830088
3.543543543543543617,-330.649824377874097081,-330.550156954421652244
3.549549549549549710,-330.651730645501061190,-330.551987824103093772
3.555555555555555358,-330.653351682674440326,-330.553810969484516136
3.561561561561561451,-330.654782669310861820,-330.555626436105683297
3.567567567567567544,-330.656437621222949019,-330.557434269161774409
3.573573573573573636,-330.658782479975627666,-330.559234513506453368
3.579579579579579729,-330.660241058516078283,-330.561027213655336254
3.585585585585585378,-330.661471573771621024,-330.562812413788719823
3.591591591591591470,-330.662926732177595568,-330.564590157755048949
3.597597597597597563,-330.664138979976257815,-330.566360489073645113
3.603603603603603656,-330.665578334387760151,-330.568123450937832786
3.609609609609609748,-330.667002638488497723,-330.569879086217952135
3.615615615615615397,-330.668176757694823209,-330.571627437464314880
3.621621621621621490,-330.669846854591639840,-330.573368546909989618
3.627627627627627582,-330.671263922246225775,-330.575102456473985058
3.633633633633633675,-330.673199091143374062,-330.576829207763580598
3.639639639639639768,-330.674599363542995434,-330.578548842077793779
3.645645645645645416,-330.675087753526440792,-330.580261400409597172
3.651651651651651509,-330.676544064489121411,-330.581966923449044771
3.657657657657657602,-330.678002394280042608,-330.583665451585829942
3.663663663663663694,-330.679408133558524696,-330.585357024912184443
3.669669669669669787,-330.680744704337428175,-330.587041683225208999
3.675675675675675436,-330.682973745016852263,-330.588719466029942851
3.681681681681681528,-330.681174935867034037,-330.590390412541580645
3.687687687687687621,-330.685694442825138140,-330.592054561688371450
3.693693693693693714,-330.686423312936824459,-330.593711952114063024
3.699699699699699806,-330.687946621236790179,-330.595362622180289236
3.705705705705705455,-330.686984857998538700,-330.597006609969469082
3.711711711711711548,-330.688331394311830991,-330.598643953286853048
3.717717717717717640,-330.689670595151710586,-330.600274689663251593
3.723723723723723733,-330.690999396636811980,-330.601898856357422574
3.729729729729729826,-330.691995963322483476,-330.603516490358344981
3.735735735735735918,-330.693649814304478696,-330.605127628387833738
3.741741741741741567,-330.697556148529315578,-330.606732306902756591
3.747747747747747660,-330.699564974835311659,-330.608330562097194161
3.753753753753753752,-330.700635816743670148,-330.609922429905225272
3.759759759759759845,-330.702138874046625006,-330.611507946002632252
3.765765765765765938,-330.703201331412401487,-330.613087145809629419
3.771771771771771586,-330.702832431824162995,-330.614660064492852598
3.777777777777777679,-330.704114139668490679,-330.616226736967632860
3.783783783783783772,-330.705483810457451455,-330.617787197900156571
3.789789789789789864,-330.707431087103657319,-330.619341481709795971
3.795795795795795957,-330.708766691925575287,-330.620889622570985011
3.801801801801801606,-330.710822155740970629,-330.622431654415606772
3.807807807807807698,-330.712082964093212922,-330.623967610934812456
3.813813813813813791,-330.713333841026553728,-330.625497525581408809
3.819819819819819884,-330.714388201285316882,-330.627021431571790799
3.825825825825825977,-330.718538080460746187,-330.628539361887817449
3.831831831831831625,-330.717011619474078543,-330.630051349279142414
3.837837837837837718,-330.718108942748870049,-330.631557426264862443
3.843843843843843811,-330.719337554210767394,-330.633057625135904800
3.849849849849849903,-330.720564747417029139,-330.634551977956618884
3.855855855855855996,-330.721967862562223672,-330.636040516566822589
3.861861861861861644,-330.722202072396214589,-330.637523272583791822
3.867867867867867737,-330.723550773460374330,-330.639000277404136341
3.873873873873873830,-330.724616231767811314,-330.640471562205732425
3.879879879879879923,-330.725768697383955441,-330.641937157949314496
3.885885885885886015,-330.727283997405663740,-330.643397095380692008
3.891891891891891664,-330.729337186388363534,-330.644851405032284219
3.897897897897897757,-330.730523952924443165,-330.646300117225166559
3.903903903903903849,-330.731708760284504933,-330.647743262070605397
3.909909909909909942,-330.732893671994816032,-330.649180869471933875
3.915915915915916035,-330.734073200944692417,-330.650612969126484586
3.921921921921921683,-330.735244086132354369,-330.652039590526953816
3.927927927927927776,-330.738335987611606015,-330.653460762963447905
3.933933933933933869,-330.733603648284372412,-330.654876515525074865
3.939939939939939961,-330.737600415716542557,-330.656286877101535993
3.945945945945946054,-330.738809957228568237,-330.657691876384888019
3.951951951951951703,-330.740164132528434493,-330.659091541871248410
3.957957957957957795,-330.741284136808189942,-330.660485901862159608
3.963963963963963888,-330.742387566422394229,-330.661874984466692240
3.969969969969969981,-330.743522924205990421,-330.663258817602525141
3.975975975975976073,-330.744936366583601739,-330.664637428997878033
3.981981981981982166,-330.745276437111840551,-330.666010846192875761
3.987987987987987815,-330.744179222078912517,-330.667379096541310446
3.993993993993993907,-330.745309664193371191,-330.668742207211948880
4.000000000000000000,-330.752663348991234216,-330.670100205190294673
4.006006006006005649,-330.750628846481049550,-330.671453117279838807
4.012012012012012185,-330.749740179395075756,-330.672800970103878626
4.018018018018017834,-330.752694244836618509,-330.674143790106654706
4.024024024024024371,-330.754747877827583125,-330.675481603555056154
4.030030030030030019,-330.754885219643028904,-330.676814436539984854
4.036036036036035668,-330.755945000329063532,-330.678142314977833394
4.042042042042042205,-330.757002793292940623,-330.679465264611792463
4.048048048048047853,-330.761421817374412058,-330.680783311013499315
4.054054054054054390,-330.759138172485677387,-330.682096479584117787
4.060060060060060039,-330.760234226274519642,-330.683404795555986766
4.066066066066065687,-330.763522921592709736,-330.684708283993927580
4.072072072072072224,-330.764579846884885228,-330.686006969796551402
4.078078078078077873,-330.765644290774901037,-330.687300877697566648
4.084084084084084409,-330.766701685057512350,-330.688590032267143215
4.090090090090090058,-330.767759318409275693,-330.689874457913447259
4.096096096096095707,-330.766546557581307297,-330.691154178883493842
4.102102102102102243,-330.769864320822023274,-330.692429219264965923
4.108108108108107892,-330.768839066555244699,-330.693699602987010167
4.114114114114114429,-330.773101156421148517,-330.694965353821828558
4.120120120120120077,-330.768553873511052643,-330.696226495385872113
4.126126126126125726,-330.769654819887705344,-330.697483051141034593
4.132132132132132263,-330.772556521846581745,-330.698735044395789373
4.138138138138137911,-330.777222066479794194,-330.699982498306724210
4.144144144144144448,-330.774742492696532281,-330.701225435879393899
4.150150150150150097,-330.778133334217955053,-330.702463879969741356
4.156156156156155745,-330.779149875590121610,-330.703697853285177644
4.162162162162162282,-330.780165393545587449,-330.704927378386003056
4.168168168168167931,-330.781173030159550308,-330.706152477686089242
4.174174174174174468,-330.782179122211175581,-330.707373173454470816
4.180180180180180116,-330.783179671476659678,-330.708589487816368546
4.186186186186185765,-330.782554565901705246,-330.709801442754269374
4.192192192192192302,-330.785180498345255273,-330.711009060109063284
4.198198198198197950,-330.783939361213413122,-330.712212361581123332
4.204204204204204487,-330.787158965129833632,-330.713411368731499351
4.210210210210210136,-330.786393174999659550,-330.714606102982997982
4.216216216216215784,-330.790075394453481294,-330.715796585621262693
4.222222222222222321,-330.788422764881659077,-330.716982837795626438
4.228228228228227970,-330.792020465608914037,-330.718164880520532733
4.234234234234234506,-330.789258428695291059,-330.719342734676445161
4.240240240240240155,-330.793015629351998541,-330.720516421010700014
4.246246246246245803,-330.794019402604703828,-330.721685960138813698
4.252252252252252340,-330.794981033803651371,-330.722851372545392223
4.258258258258257989,-330.795924383703436433,-330.724012678585154390
4.264264264264264526,-330.796877877109807287,-330.725169898483898123
4.270270270270270174,-330.797828301041249688,-330.726323052339523656
4.276276276276275823,-330.796485864585122272,-330.727472160123056710
4.282282282282282360,-330.797702265113855447,-330.728617241679557992
4.288288288288288008,-330.798724074636709247,-330.729758316729203216
4.294294294294294545,-330.799646315368192973,-330.730895404868135756
4.300300300300300194,-330.800728751754036239,-330.732028525569376143
4.306306306306305842,-330.803483462838300966,-330.733157698183902085
4.312312312312312379,-330.802505236380170572,-330.734282941941614808
4.318318318318318028,-330.805338515225628271,-330.735404275952078024
4.324324324324324564,-330.804261624004709574,-330.736521719205427416
4.330330330330330213,-330.807280663432493384,-330.737635290573564362
4.336336336336335862,-330.807117858487686135,-330.738745008810838044
4.342342342342342398,-330.808035947002167632,-330.739850892554954953
4.348348348348348047,-330.807921994781906960,-330.740952960327774690
4.354354354354354584,-330.810874193099095919,-330.742051230536446838
4.360360360360360232,-330.809666613233844146,-330.743145721474093079
4.366366366366366769,-330.812702300354487761,-330.744236451320716697
4.372372372372372418,-330.811552001312350058,-330.745323438143941530
4.378378378378378066,-330.813066844347019924,-330.746406699900092008
4.384384384384384603,-330.814009103918635901,-330.747486254434875264
4.390390390390390252,-330.815082310394188880,-330.748562119484233790
4.396396396396396788,-330.815961597921955217,-330.749634312675084402
4.402402402402402437,-330.816820904998792230,-330.750702851526341419
4.408408408408408086,-330.818840504434376726,-330.751767753449541942
4.414414414414414622,-330.818097232520756279,-330.752829035749812192
4.420420420420420271,-330.820591656847796003,-330.753886715626435944
4.426426426426426808,-330.821466005380159459,-330.754940810173877708
4.432432432432432456,-330.822337867639760134,-330.755991336382351165
4.438438438438438105,-330.820737901060510922,-330.757038311138842346
4.444444444444444642,-330.824059484743372650,-330.758081751227678069
4.450450450450450290,-330.822862967791991196,-330.759121673331264901
4.456456456456456827,-330.825784149410992541,-330.760158094030998654
4.462462462462462476,-330.824569600045947482,-330.761191029807946506
4.468468468468468124,-330.825433760318844634,-330.762220497043585965
4.474474474474474661,-330.826257161835087572,-330.763246512020486989
4.480480480480480310,-330.827086830863436262,-330.764269090923107797
4.486486486486486847,-330.831122073789344995,-330.765288249838420143
4.492492492492492495,-330.832419606774578824,-330.766304004756875656
4.498498498498498144,-330.833256685441824629,-330.767316371572803746
4.504504504504504681,-330.829331966223492145,-330.768325366085264250
4.510510510510510329,-330.833489956359471762,-330.769331003998729557
4.516516516516516866,-330.834245607861703320,-330.770333300923823572
4.522522522522522515,-330.831648313850621435,-330.771332272377890149
4.528528528528528163,-330.833723801334826931,-330.772327933785845744
4.534534534534534700,-330.836806147285528823,-330.773320300480634160
4.540540540540540349,-330.835807975431009709,-330.774309387704022356
4.546546546546546885,-330.838449622702114539,-330.775295210607339413
4.552552552552552534,-330.837420583572566102,-330.776277784251988123
4.558558558558558182,-330.840079014720799933,-330.777257123610070266
4.564564564564564719,-330.839233691015579097,-330.778233243565296107
4.570570570570570368,-330.841705055924762746,-330.779206158913268609
4.576576576576576905,-330.840848571971889669,-330.780175884362392935
4.582582582582582553,-330.843315662712541325,-330.781142434534274344
4.588588588588588202,-330.844119007672532007,-330.782105823964684532
4.594594594594594739,-330.844914843561070938,-330.783066067103675323
4.600600600600600387,-330.845710299621032391,-330.784023178316715530
4.606606606606606924,-330.846502587396003037,-330.784977171885032021
4.612612612612612573,-330.847298081217388699,-330.785928062006064465
4.618618618618618221,-330.846759628272707232,-330.786875862794488512
4.624624624624624758,-330.847063051659631583,-330.787820588282329481
4.630630630630630407,-330.847799071648694280,-330.788762252419928700
4.636636636636636943,-330.848642435935573758,-330.789700869076398249
4.642642642642642592,-330.849306398357214221,-330.790636452040018867
4.648648648648648241,-330.852829271466191585,-330.791569015019092603
4.654654654654654777,-330.851190532581767911,-330.792498571642454408
4.660660660660660426,-330.854373288853594204,-330.793425135459756348
4.666666666666666963,-330.851108006402512274,-330.794348719942433945
4.672672672672672611,-330.855901843443120924,-330.795269338484047239
4.678678678678678260,-330.856667063967336162,-330.796187004400678688
4.684684684684684797,-330.857429649066602906,-330.797101730931899510
4.690690690690690445,-330.854410459169059777,-330.798013531240826524
4.696696696696696982,-330.858959447456868475,-330.798922418415088487
4.702702702702702631,-330.855931928722327484,-330.799828405466996628
4.708708708708708279,-330.857554071461152034,-330.800731505334283611
4.714714714714714816,-330.857678008909431355,-330.801631730880671967
4.720720720720720465,-330.857387971395723980,-330.802529094896158313
4.726726726726727001,-330.858915581561859653,-330.803423610097752317
4.732732732732732650,-330.858604554919679686,-330.804315289129874600
4.738738738738738299,-330.864192871320199174,-330.805204144564925173
4.744744744744744835,-330.861815467927613099,-330.806090188903567650
4.750750750750750484,-330.865667937331465964,-330.806973434575695592
4.756756756756757021,-330.863776035474529635,-330.807853893940375656
4.762762762762762669,-330.867139021348407368,-330.808731579286700253
4.768768768768768318,-330.864950571154963654,-330.809606502834242292
4.774774774774774855,-330.864137289589450575,-330.810478676733396242
4.780780780780780503,-330.865101884377622810,-330.811348113065776033
4.786786786786787040,-330.869754750598360715,-330.812214823845124556
4.792792792792792689,-330.866791824307824754,-330.813078821017256814
4.798798798798798337,-330.868289084483592433,-330.813940116460855734
4.804804804804804874,-330.868986771750087428,-330.814798721987813224
4.810810810810810523,-330.869122747770461501,-330.815654649343684923
4.816816816816817060,-330.870213200743876314,-330.816507910208315479
4.822822822822822708,-330.870967273828568977,-330.817358516195952234
4.828828828828828357,-330.874467251999590189,-330.818206478856041031
4.834834834834834894,-330.874192528413686887,-330.819051809673396747
4.840840840840840542,-330.875874279174752246,-330.819894520068828569
4.846846846846847079,-330.876575490062066365,-330.820734621399481057
4.852852852852852727,-330.877274313312796039,-330.821572124959402572
4.858858858858858376,-330.875517344062359371,-330.822407041979658970
4.864864864864864913,-330.878670826605002731,-330.823239383629129406
4.870870870870870561,-330.877220368877715373,-330.824069161014790552
4.876876876876877098,-330.880062780833611669,-330.824896385181943970
4.882882882882882747,-330.878693036613583445,-330.825721067114955076
4.888888888888889284,-330.881441311915239112,-330.826543217737480518
4.894894894894894932,-330.879535190860735838,-330.827362847912809229
4.900900900900900581,-330.882811511964007423,-330.828179968444544556
4.906906906906907118,-330.881325252440319673,-330.828994590076661098
4.912912912912912766,-330.883207105354983923,-330.829806723494129983
4.918918918918919303,-330.882501586433306784,-330.830616379323316778
4.924924924924924952,-330.884592035902926455,-330.831423568132208857
4.930930930930930600,-330.885077404108869814,-330.832228300430983836
4.936936936936937137,-330.885752658018816419,-330.833030586672350637
4.942942942942942786,-330.886425019185423935,-330.833830437251833700
4.948948948948949322,-330.888571663578602511,-330.834627862508284579
4.954954954954954971,-330.889237002726474657,-330.835422872724166155
4.960960960960960620,-330.887198261216212813,-330.836215478125950540
4.966966966966967156,-330.889278202286277519,-330.837005688884516985
4.972972972972972805,-330.888607340766384368,-330.837793515115606624
4.978978978978979342,-330.889255593935331490,-330.838578966879879317
4.984984984984984990,-330.889897092419914770,-330.839362054183766304
4.990990990990990639,-330.891940700503141670,-330.840142786979299672
4.996996996996997176,-330.891917379058611459,-330.840921175164794477
5.003003003003002824,-330.893243934684676333,-330.841697228585303492
5.009009009009009361,-330.892297719503972075,-330.842470957032503520
5.015015015015015010,-330.894546262355902400,-330.843242370245604889
5.021021021021020658,-330.895208431338915034,-330.844011477911237762
5.027027027027027195,-330.895854446938187721,-330.844778289664134263
5.033033033033032844,-330.895268638320828813,-330.845542815087242161
5.039039039039039380,-330.897135323104862437,-330.846305063712179617
5.045045045045045029,-330.898005610032271306,-330.847065045019519403
5.051051051051050678,-330.897154179976041632,-330.847822768439186802
5.057057057057057214,-330.897769988885784187,-330.848578243350630146
5.063063063063062863,-330.898376321032458236,-330.849331479083389240
5.069069069069069400,-330.899015355951746642,-330.850082484917322745
5.075075075075075048,-330.899688436485462262,-330.850831270082721858
5.081081081081080697,-330.899455580837752677,-330.851577843760992437
5.087087087087087234,-330.901365495394884420,-330.852322215084768686
5.093093093093092882,-330.900714136183239589,-330.853064393138140531
5.099099099099099419,-330.902481880967343386,-330.853804386957222050
5.105105105105105068,-330.901965163054796903,-330.854542205530208321
5.111111111111110716,-330.904507858328258862,-330.855277857797943852
5.117117117117117253,-330.903211749371848782,-330.856011352653865742
5.123123123123122902,-330.905936884351376648,-330.856742698944742642
5.129129129129129439,-330.904451266704370482,-330.857471905470674756
5.135135135135135087,-330.907109288622280019,-330.858198980985434901
5.141141141141140736,-330.907724887628432953,-330.858923934196866412
5.147147147147147273,-330.908468632013693878,-330.859646773767110517
5.153153153153152921,-330.909114651879519897,-330.860367508312890550
5.159159159159159458,-330.908048177727039274,-330.861086146405853015
5.165165165165165106,-330.908712230886521866,-330.861802696572794957
5.171171171171170755,-330.908734085260562097,-330.862517167295948184
5.177177177177177292,-330.909339420075923499,-330.863229567013377164
5.183183183183182940,-330.909942201149078755,-330.863939904119092716
5.189189189189189477,-330.910542840701282330,-330.864648186963506760
5.195195195195195126,-330.911140426887811827,-330.865354423853545995
5.201201201201200774,-330.912267621315152155,-330.866058623053049814
5.207207207207207311,-330.915659215110395053,-330.866760792782883982
5.213213213213212960,-330.913446308564914489,-330.867460941221509074
5.219219219219219497,-330.916834691591816409,-330.868159076504923632
5.225225225225225145,-330.913164583242178196,-330.868855206727118912
5.231231231231230794,-330.915091824843614177,-330.869549339940306254
5.237237237237237331,-330.916053664000628487,-330.870241484155144462
5.243243243243242979,-330.918446255931655742,-330.870931647341024018
5.249249249249249516,-330.916992178787552348,-330.871619837426351296
5.255255255255255165,-330.919603036608805269,-330.872306062298775942
5.261261261261260813,-330.920175538191585929,-330.872990329805475085
5.267267267267267350,-330.920466257904820395,-330.873672647753380716
5.273273273273272999,-330.921326520011973571,-330.874353023909407057
5.279279279279279535,-330.921903829172379119,-330.875031466000791625
5.285285285285285184,-330.922476503884354315,-330.875707981715208916
5.291291291291290833,-330.921095995681980639,-330.876382578701168313
5.297297297297297369,-330.923619511051754216,-330.877055264568070925
5.303303303303303018,-330.922008743916592266,-330.877726046886778022
5.309309309309309555,-330.924751416100889401,-330.878394933189383664
5.315315315315315203,-330.923197594563021084,-330.879061930969839977
5.321321321321320852,-330.925869074852073481,-330.879727047684070840
5.327327327327327389,-330.924596046545502759,-330.880390290750142412
5.333333333333333037,-330.926987333383124223,-330.881051667548661044
5.339339339339339574,-330.925706228523097252,-330.881711185422773269
5.345345345345345223,-330.927821034499004327,-330.882368851678506871
5.351351351351350871,-330.928385661224353953,-330.883024673585168784
5.357357357357357408,-330.928939787506578796,-330.883678658375288251
5.363363363363363057,-330.929488624518910456,-330.884330813245071568
5.369369369369369593,-330.930036126915354089,-330.884981145354345244
5.375375375375375242,-330.930584483503707816,-330.885629661827181280
5.381381381381380891,-330.930294964058418827,-330.886276369751726634
5.387387387387387427,-330.930847023137516771,-330.886921276180714813
5.393393393393393076,-330.931467270255609492,-330.887564388131522719
5.399399399399399613,-330.930608646307803156,-330.888205712586284335
5.405405405405405261,-330.931180348333555230,-330.888845256492516000
5.411411411411411798,-330.931876159341015864,-330.889483026762775353
5.417417417417417447,-330.932401326706497002,-330.890119030275400291
5.423423423423423095,-330.934915049333596926,-330.890753273874338447
5.429429429429429632,-330.934270604577307040,-330.891385764369431399
5.435435435435435281,-330.935984518871634918,-330.892016508536812580
5.441441441441441818,-330.934657746799416600,-330.892645513119020961
5.447447447447447466,-330.937047953306432646,-330.893272784824944210
5.453453453453453115,-330.936023942782924223,-330.893898330330443969
5.459459459459459651,-330.938111246244659469,-330.894522156278242164
5.465465465465465300,-330.937124741096056368,-330.895144269278318916
5.471471471471471837,-330.939965113516564088,-330.895764675907912533
5.477477477477477485,-330.938672348074760521,-330.896383382711974264
5.483483483483483134,-330.938603722853997624,-330.897000396203111450
5.489489489489489671,-330.939136597588344557,-330.897615722861871745
5.495495495495495319,-330.939641180348132821,-330.898229369137027334
5.501501501501501856,-330.940724476263426368,-330.898841341445688613
5.507507507507507505,-330.941269774946420057,-330.899451646173417885
5.513513513513513153,-330.941763943146270321,-330.900060289674513569
5.519519519519519690,-330.942281776071524746,-330.900667278272294425
5.525525525525525339,-330.942794847296795524,-330.901272618258929015
5.531531531531531876,-330.943299698612804605,-330.901876315896174674
5.537537537537537524,-330.943811799227489701,-330.902478377414979605
5.543543543543543173,-330.943981133316810883,-330.903078809016108153
5.549549549549549710,-330.944831503999239430,-330.903677616869970279
5.555555555555555358,-330.945144691495386269,-330.904274807117189994
5.561561561561561895,-330.945848068615305237,-330.904870385868377980
5.567567567567567544,-330.945834098758439268,-330.905464359204586344
5.573573573573573192,-330.946664179387198601,-330.906056733177422302
5.579579579579579729,-330.947169673059249817,-330.906647513809161865
5.585585585585585378,-330.947861042761587669,-330.907236707092920369
5.591591591591591914,-330.948110802586711543,-330.907824318992936696
5.597597597597597563,-330.948864818203105642,-330.908410355444630113
5.603603603603603212,-330.949362227121469004,-330.908994822354827647
5.609609609609609748,-330.952646639573515586,-330.909577725601877773
5.615615615615615397,-330.950082895025445850,-330.910159071035934630
5.621621621621621934,-330.950577421338039130,-330.910738864478901178
5.627627627627627582,-330.951387136954963353,-330.911317111724940787
5.633633633633633231,-330.952966556473541004,-330.911893818540193024
5.639639639639639768,-330.952314003216429228,-330.912468990663398927
5.645645645645645416,-330.951635380788218299,-330.913042633805730475
5.651651651651651953,-330.955683974902285627,-330.913614753651131650
5.657657657657657602,-330.953993482988096275,-330.914185355856261594
5.663663663663663250,-330.956647491191063182,-330.914754446051006198
5.669669669669669787,-330.955963892536146886,-330.915322029838250728
5.675675675675675436,-330.957606487200052925,-330.915888112794391418
5.681681681681681972,-330.956966049242566896,-330.916452700469108095
5.687687687687687621,-330.956205894567119685,-330.917015798385932612
5.693693693693693270,-330.956684833840597548,-330.917577412042021479
5.699699699699699806,-330.957161407551893717,-330.918137546908610602
5.705705705705705455,-330.957638704384464745,-330.918696208430901606
5.711711711711711992,-330.958113673591356019,-330.919253402028516575
5.717717717717717640,-330.958364309054786645,-330.919809133095327525
5.723723723723723289,-330.959207602632943690,-330.920363406999797462
5.729729729729729826,-330.959820008842768857,-330.920916229085094074
5.735735735735735474,-330.961481222228769639,-330.921467604669260254
5.741741741741742011,-330.961981739810880754,-330.922017539045214107
5.747747747747747660,-330.962513259423189993,-330.922566037481146850
5.753753753753753308,-330.961186195698815027,-330.923113105220295438
5.759759759759759845,-330.963492349588648267,-330.923658747481624687
5.765765765765765494,-330.962116834922994713,-330.924202969459315682
5.771771771771772030,-330.962958488415040392,-330.924745776323504742
5.777777777777777679,-330.963044494159646547,-330.925287173219942360
5.783783783783783328,-330.963505939852666415,-330.925827165270561636
5.789789789789789864,-330.966857834047345932,-330.926365757573307746
5.795795795795795513,-330.964726753928573544,-330.926902955202194789
5.801801801801802050,-330.967767579553651558,-330.927438763207931061
5.807807807807807698,-330.965627442941979552,-330.927973186617521151
5.813813813813813347,-330.965832086929196976,-330.928506230434663848
5.819819819819819884,-330.966357514556648312,-330.929037899639808984
5.825825825825825532,-330.966789287482640702,-330.929568199190441646
5.831831831831832069,-330.967311295888634959,-330.930097134020854810
5.837837837837837718,-330.966550083437368812,-330.930624709042717768
5.843843843843843366,-330.970912157461157221,-330.931150929144962447
5.849849849849849903,-330.967608862223812594,-330.931675799193783405
5.855855855855855552,-330.971798586707166123,-330.932199324033206267
5.861861861861862089,-330.968477984371418188,-330.932721508484632977
5.867867867867867737,-330.972355064897385546,-330.933242357347523921
5.873873873873873386,-330.970141993664242364,-330.933761875399056862
5.879879879879879923,-330.973233293506893915,-330.934280067394695379
5.885885885885885571,-330.971363651989463506,-330.934796938067847805
5.891891891891892108,-330.974111117032578022,-330.935312492130435658
5.897897897897897757,-330.972298665355197045,-330.935826734272552585
5.903903903903904293,-330.974979379090200382,-330.936339669163089638
5.909909909909909942,-330.973072295236704576,-330.936851301449394214
5.915915915915915591,-330.973686512739845966,-330.937361635757781642
5.921921921921922127,-330.974024892832858313,-330.937870676693250971
5.927927927927927776,-330.974689140864256842,-330.938378428839996559
5.933933933933934313,-330.975105748883834167,-330.938884896761294385
5.939939939939939961,-330.976953150049951091,-330.939390084999615738
5.945945945945945610,-330.977384113305276969,-330.939893998076854587
5.951951951951952147,-330.978416701201354044,-330.940396640494327585
5.957957957957957795,-330.978842805791259707,-330.940898016733001441
5.963963963963964332,-330.978664975642800528,-330.941398131253549764
5.969969969969969981,-330.979090308254171759,-330.941896988496409904
5.975975975975975629,-330.978026304660545520,-330.942394592881953486
5.981981981981982166,-330.979937330514758287,-330.942890948810713780
5.987987987987987815,-330.978342711744801363,-330.943386060663101489
5.993993993993994351,-330.980778023329321513,-330.943879932800143706
6.000000000000000000,-330.979292712963342638,-330.944372569562915487
