# Re omega, K.-K. Re f_xc, Model Re f_xc
0.000000000000000000,-13341.566307940775004681,-13341.474972601103218039
0.006006006006006006,-8226.574665397834905889,-6650.525463831222623412
0.012012012012012012,-5806.661287081333284732,-4188.836426546950860939
0.018018018018018018,-5303.403924160153110279,-4196.794101007996687258
0.024024024024024024,-5198.017362042844069947,-4451.119633144392537361
0.030030030030030030,-5188.620562980007889564,-4663.531186643330329389
0.036036036036036036,-5204.457977732023209683,-4819.234820577736172709
0.042042042042042038,-5225.930924143027368700,-4932.820785310408609803
0.048048048048048048,-5247.105018863544501073,-5017.300738330847707402
0.054054054054054057,-5266.278261043798011087,-5081.621701908487011679
0.060060060060060060,-5283.143243863579300523,-5131.702124226019805064
0.066066066066066062,-5297.828925202918981086,-5171.485658199119825440
0.072072072072072071,-5310.587573433830584690,-5203.652735532291444542
0.078078078078078081,-5321.708674778546992457,-5230.067069151575196884
0.084084084084084076,-5331.450028146361546533,-5252.053801916900738433
0.090090090090090086,-5340.002654119487488060,-5270.575027722385129891
0.096096096096096095,-5347.604279811971537129,-5286.342734952522732783
0.102102102102102105,-5354.231570559011743171,-5299.893043197002953093
0.108108108108108114,-5360.226164757827973517,-5311.636034005367037025
0.114114114114114110,-5365.543821311262945528,-5321.889874059649628180
0.120120120120120119,-5370.393641529073647689,-5330.904622074404869636
0.126126126126126115,-5374.709067103645793395,-5338.879127781526221952
0.132132132132132124,-5378.708405587906781875,-5345.973220264406336355
0.138138138138138133,-5382.289803676213523431,-5352.316628954601583246
0.144144144144144143,-5385.567281913205079036,-5358.015602309729729313
0.150150150150150152,-5388.549402893096157641,-5363.157880217259844358
0.156156156156156162,-5391.305914561731697177,-5367.816473108198806585
0.162162162162162171,-5393.856374480370504898,-5372.052565127363777719
0.168168168168168153,-5396.210197260893437488,-5375.917766713763739972
0.174174174174174162,-5398.351198717109582503,-5379.455878653577201476
0.180180180180180172,-5400.397039053184016666,-5382.704285536569841497
0.186186186186186181,-5402.236172053833797690,-5385.695065385537418479
0.192192192192192191,-5404.011530690172548930,-5388.455879964565610862
0.198198198198198200,-5405.651352636057708878,-5391.010694188047636999
0.204204204204204209,-5407.174979955384515051,-5393.380361311606066010
0.210210210210210219,-5408.604925262972756173,-5395.583101931180863176
0.216216216216216228,-5409.893826251064638200,-5397.634898377409626846
0.222222222222222210,-5411.203950379795969639,-5399.549821259864074818
0.228228228228228219,-5412.405394582171538786,-5401.340301258897852676
0.234234234234234229,-5413.515359894036009791,-5403.017356474158077617
0.240240240240240238,-5414.567252669443405466,-5404.590783496399126307
0.246246246246246248,-5415.566030996849804069,-5406.069318711742198502
0.252252252252252229,-5416.480904534918408899,-5407.460775056702914299
0.258258258258258266,-5417.359816491483798018,-5408.772158430643685278
0.264264264264264248,-5418.267546957868944446,-5410.009767174685293867
0.270270270270270285,-5419.076170552686562587,-5411.179277393568554544
0.276276276276276267,-5419.791485768188977090,-5412.285816392691231158
0.282282282282282304,-5420.522785363677940040,-5413.334026098323192855
0.288288288288288286,-5421.255073672839898791,-5414.328118003445524664
0.294294294294294267,-5421.892277864322750247,-5415.271920918173236714
0.300300300300300305,-5422.544320250342025247,-5416.168922589480644092
0.306306306306306286,-5423.192676350064175494,-5417.022306080023554387
0.312312312312312323,-5423.714919633703175350,-5417.834981652405986097
0.318318318318318305,-5424.303371791810604918,-5418.609614787112150225
0.324324324324324342,-5424.841895767224741576,-5419.348650864730188914
0.330330330330330324,-5425.291935159914828546,-5420.054336962100933306
0.336336336336336306,-5425.827794505297788419,-5420.728741144598643587
0.342342342342342343,-5426.289534418306175212,-5421.373769580430234782
0.348348348348348325,-5426.731094134132945328,-5421.991181755610341497
0.354354354354354362,-5427.177788063474508817,-5422.582604028589230438
0.360360360360360343,-5427.588747405191497819,-5423.149541730002056283
0.366366366366366381,-5427.987346596809402399,-5423.693389984676286986
0.372372372372372362,-5428.375753771485506149,-5424.215443409010731557
0.378378378378378399,-5428.739891787283340818,-5424.716904816373244103
0.384384384384384381,-5429.089514566987418220,-5425.198893045716431516
0.390390390390390363,-5429.436607833641573961,-5425.662450013701345597
0.396396396396396400,-5429.777175079596418072,-5426.108547077805269510
0.402402402402402382,-5430.096454654975786980,-5426.538090786900284002
0.408408408408408419,-5430.413795672111518797,-5426.951928086313273525
0.414414414414414400,-5430.672223645922713331,-5427.350851036184394616
0.420420420420420438,-5430.994868361814951641,-5427.735601094875164563
0.426426426426426419,-5431.266545728580240393,-5428.106873013005497342
0.432432432432432456,-5431.547484191226430994,-5428.465318378398478671
0.438438438438438438,-5431.807936238631555170,-5428.811548847513222427
0.444444444444444420,-5432.061887451936854632,-5429.146139094937097980
0.450450450450450457,-5432.309587199366433197,-5429.469629508913385507
0.456456456456456439,-5432.539926552854922193,-5429.782528657814509643
0.462462462462462476,-5432.778459220597142121,-5430.085315549704318983
0.468468468468468457,-5433.003289974459221412,-5430.378441704765464237
0.474474474474474495,-5433.215350076993672701,-5430.662333058241529216
0.480480480480480476,-5433.444690150224232639,-5430.937391709676376195
0.486486486486486458,-5433.649342398085536843,-5431.203997532600624254
0.492492492492492495,-5433.850178228829463478,-5431.462509657349983172
0.498498498498498477,-5434.043556600496231113,-5431.713267838410502009
0.504504504504504458,-5434.218542598262501997,-5431.956593716537099681
0.510510510510510551,-5434.418219641216637683,-5432.192791984884024714
0.516516516516516533,-5434.577484980675762927,-5432.422151467461844732
0.522522522522522515,-5434.785968119259450759,-5432.644946117446124845
0.528528528528528496,-5434.968669948065326025,-5432.861435942123534915
0.534534534534534478,-5435.134564077246068337,-5433.071867860627207847
0.540540540540540571,-5435.256297999902017182,-5433.276476500033822958
0.546546546546546552,-5435.412956885817038710,-5433.475484934877385967
0.552552552552552534,-5435.557030619350371126,-5433.669105374661739916
0.558558558558558516,-5435.703292400778082083,-5433.857539803555482649
0.564564564564564608,-5435.844604439935210394,-5434.040980576049150841
0.570570570570570590,-5435.999348186609495315,-5434.219610972058944753
0.576576576576576572,-5436.135625112299749162,-5434.393605714601108048
0.582582582582582553,-5436.255597510545158002,-5434.563131452941888710
0.588588588588588535,-5436.390433594945534423,-5434.728347213838787866
0.594594594594594628,-5436.494715256802919612,-5434.889404823280528944
0.600600600600600609,-5436.639767721618227370,-5435.046449300939457316
0.606606606606606591,-5436.782374934895415208,-5435.199619229337258730
0.612612612612612573,-5436.900892658658449363,-5435.349047099585732212
0.618618618618618665,-5437.016935667547841149,-5435.494859635400644038
0.624624624624624647,-5437.112562772344972473,-5435.637178096942079719
0.630630630630630629,-5437.220767637776589254,-5435.776118565927390591
0.636636636636636610,-5437.323751777740653779,-5435.911792213320950395
0.642642642642642592,-5437.430064196256353171,-5436.044305550833996676
0.648648648648648685,-5437.545021786812867504,-5436.173760667337774066
0.654654654654654666,-5437.635676066393898509,-5436.300255451241355331
0.660660660660660648,-5437.748019002681758138,-5436.423883799770010228
0.666666666666666630,-5437.849394086106258328,-5436.544735816033607989
0.672672672672672611,-5437.927764394457881281,-5436.662897994710874627
0.678678678678678704,-5438.028798772783375171,-5436.778453397073462838
0.684684684684684686,-5438.080878754956756893,-5436.891481816082887235
0.690690690690690667,-5438.175881986428976234,-5437.002059932176962320
0.696696696696696649,-5438.308319657005085901,-5437.110261460362380603
0.702702702702702742,-5438.385040849761935533,-5437.216157289165494149
0.708708708708708723,-5438.463598810231815150,-5437.319815611946069112
0.714714714714714705,-5438.546720272066522739,-5437.421302051073325856
0.720720720720720687,-5438.627547517546190647,-5437.520679775390817667
0.726726726726726668,-5438.691574608161317883,-5437.618009611393972591
0.732732732732732761,-5438.784265160715222009,-5437.713350148505924153
0.738738738738738743,-5438.862080524179873464,-5437.806757838801786420
0.744744744744744724,-5438.930293874122071429,-5437.898287091526981385
0.750750750750750706,-5439.005638012181407248,-5437.987990362717027892
0.756756756756756799,-5439.049911578824321623,-5438.075918240200735454
0.762762762762762780,-5439.124760156050797377,-5438.162119524276931770
0.768768768768768762,-5439.212989619136351394,-5438.246641304297554598
0.774774774774774744,-5439.294500660426820104,-5438.329529031407219009
0.780780780780780725,-5439.353222738879594544,-5438.410826587658448261
0.786786786786786818,-5439.412656101907487027,-5438.490576351703566615
0.792792792792792800,-5439.488688837939662335,-5438.568819261264252418
0.798798798798798781,-5439.554648187644488644,-5438.645594872557012422
0.804804804804804763,-5439.604510730639049143,-5438.720941416838286386
0.810810810810810856,-5439.665747565323727031,-5438.794895854244714428
0.816816816816816837,-5439.736833966701851750,-5438.867493925061353366
0.822822822822822819,-5439.789506129096480436,-5438.938770198558813718
0.828828828828828801,-5439.868487548978009727,-5439.008758119552112476
0.834834834834834782,-5439.924943403094403038,-5439.077490052771281626
0.840840840840840875,-5439.980332945753616514,-5439.144997325185613590
0.846846846846846857,-5439.987959671695534780,-5439.211310266385225987
0.852852852852852839,-5440.088662573901274300,-5439.276458247109076183
0.858858858858858820,-5440.124661751814528543,-5439.340469716037659964
0.864864864864864913,-5440.173557562433416024,-5439.403372234917696915
0.870870870870870895,-5440.244647325383994030,-5439.465192512129760871
0.876876876876876876,-5440.294625948395150772,-5439.525956434748877655
0.882882882882882858,-5440.324212627592714853,-5439.585689099207229447
0.888888888888888840,-5440.381990497717197286,-5439.644414840602621553
0.894894894894894932,-5440.439871222341935209,-5439.702157260736385069
0.900900900900900914,-5440.473087503683927935,-5439.758939254935285135
0.906906906906906896,-5440.515668932640437561,-5439.814783037728375348
0.912912912912912877,-5440.535891738802092732,-5439.869710167422454106
0.918918918918918859,-5440.600845473260960716,-5439.923741569637059001
0.924924924924924952,-5440.648285754818061832,-5439.976897559851749975
0.930930930930930933,-5440.711949534643281368,-5440.029197865004789492
0.936936936936936915,-5440.734490055797323294,-5440.080661644198698923
0.942942942942942897,-5440.779939761217974592,-5440.131307508549980412
0.948948948948948989,-5440.847346636032852984,-5440.181153540218474518
0.954954954954954971,-5440.888221087518104468,-5440.230217310668194841
0.960960960960960953,-5440.886334934955812059,-5440.278515898186014965
0.966966966966966934,-5440.968093291053264693,-5440.326065904690040043
0.972972972972972916,-5440.959869156522472622,-5440.372883471868590277
0.978978978978979009,-5441.014313252071588067,-5440.418984296678900137
0.984984984984984990,-5441.041104100238044339,-5440.464383646230089653
0.990990990990990972,-5441.114563834958971711,-5440.509096372081330628
0.996996996996996954,-5441.123085494966289843,-5440.553136923980673600
1.003003003003003046,-5441.165638302338265930,-5440.596519363073639397
1.009009009009008917,-5441.213107076915548532,-5440.639257374597946182
1.015015015015015010,-5441.229338600547634996,-5440.681364280093475827
1.021021021021021102,-5441.269303116689115996,-5440.722853049144760007
1.027027027027026973,-5441.318220236600609496,-5440.763736310678723385
1.033033033033033066,-5441.352278000998012431,-5440.804026363839511760
1.039039039039038936,-5441.362754445485734323,-5440.843735188445862150
1.045045045045045029,-5441.395925903660099721,-5440.882874455071032571
1.051051051051051122,-5441.428574428824504139,-5440.921455534742563032
1.057057057057056992,-5441.484177647148499091,-5440.959489508282786119
1.063063063063063085,-5441.499774378286019783,-5440.996987175309186568
1.069069069069068956,-5441.529649327258994163,-5441.033959062911890214
1.075075075075075048,-5441.559443663901220134,-5441.070415434004644339
1.081081081081081141,-5441.589532315974793164,-5441.106366295388397702
1.087087087087087012,-5441.642932039965671720,-5441.141821405514747312
1.093093093093093104,-5441.650682360087557754,-5441.176790281981084263
1.099099099099099197,-5441.687471190139149257,-5441.211282208751072176
1.105105105105105068,-5441.727428438318383996,-5441.245306243131381052
1.111111111111111160,-5441.755799650728476990,-5441.278871222494672111
1.117117117117117031,-5441.783808194470111630,-5441.311985770772480464
1.123123123123123124,-5441.814424373600559193,-5441.344658304721633613
1.129129129129129216,-5441.827616423450308503,-5441.376897039974210202
1.135135135135135087,-5441.849597628347510181,-5441.408709996880133986
1.141141141141141180,-5441.878374180160790274,-5441.440105006150588451
1.147147147147147050,-5441.904588479317681049,-5441.471089714310437557
1.153153153153153143,-5441.918200894499022979,-5441.501671588964200055
1.159159159159159236,-5441.971286361866987136,-5441.531857923884672346
1.165165165165165106,-5442.010346026326260471,-5441.561655843936023302
1.171171171171171199,-5442.010017205585427291,-5441.591072309827723075
1.177177177177177070,-5442.032397053980275814,-5441.620114122713857796
1.183183183183183163,-5442.056915426752311760,-5441.648787928641468170
1.189189189189189255,-5442.112164339943774394,-5441.677100222847911937
1.195195195195195126,-5442.135785776110424194,-5441.705057353927259101
1.201201201201201219,-5442.159255666573699273,-5441.732665527854805987
1.207207207207207089,-5442.150686911671073176,-5441.759930811880622059
1.213213213213213182,-5442.175022301213175524,-5441.786859138303952932
1.219219219219219275,-5442.202379512109473580,-5441.813456308122113114
1.225225225225225145,-5442.223126959512228495,-5441.839727994564782421
1.231231231231231238,-5442.240752196877110691,-5441.865679746518253523
1.237237237237237331,-5442.264727927630701743,-5441.891316991835992667
1.243243243243243201,-5442.313099626956500288,-5441.916645040556431923
1.249249249249249294,-5442.327316785648690711,-5441.941669088005255617
1.255255255255255165,-5442.329706939032803348,-5441.966394217814013246
1.261261261261261257,-5442.369260235153888061,-5441.990825404843235447
1.267267267267267350,-5442.389857694533020549,-5442.014967518008234038
1.273273273273273221,-5442.394221916926653648,-5442.038825323024866520
1.279279279279279313,-5442.437758155725532561,-5442.062403485074355558
1.285285285285285184,-5442.447055887057103973,-5442.085706571376249485
1.291291291291291277,-5442.455834490525376168,-5442.108739053699537180
1.297297297297297369,-5442.477207198362521012,-5442.131505310779175488
1.303303303303303240,-5442.495789100375986891,-5442.154009630679865950
1.309309309309309333,-5442.513928237601248838,-5442.176256213074339030
1.315315315315315203,-5442.551094790173920046,-5442.198249171463430685
1.321321321321321296,-5442.569703785060482915,-5442.219992535325218341
1.327327327327327389,-5442.588165628345450386,-5442.241490252204130229
1.333333333333333259,-5442.606253205401117157,-5442.262746189736390079
1.339339339339339352,-5442.623552279517753050,-5442.283764137619982648
1.345345345345345223,-5442.625768401044297207,-5442.304547809526411584
1.351351351351351315,-5442.632223299062388833,-5442.325100844952430634
1.357357357357357408,-5442.676341816703825316,-5442.345426811025390634
1.363363363363363279,-5442.663563108309972449,-5442.365529204255835793
1.369369369369369371,-5442.690615790918855055,-5442.385411452234620810
1.375375375375375464,-5442.704109342795163684,-5442.405076915290919715
1.381381381381381335,-5442.716146308015595423,-5442.424528888092027046
1.387387387387387427,-5442.734361099792295136,-5442.443770601209507731
1.393393393393393298,-5442.756208210361364763,-5442.462805222637143743
1.399399399399399391,-5442.775386053290276323,-5442.481635859262496524
1.405405405405405483,-5442.791527475383190904,-5442.500265558302999125
1.411411411411411354,-5442.807419448817199736,-5442.518697308700211579
1.417417417417417447,-5442.821383675425749971,-5442.536934042478605988
1.423423423423423317,-5442.852194897887784464,-5442.554978636059786368
1.429429429429429410,-5442.853231679974669532,-5442.572833911550333141
1.435435435435435503,-5442.869438718059427629,-5442.590502637988720380
1.441441441441441373,-5442.885896685183070076,-5442.607987532558581734
1.447447447447447466,-5442.900269676109019201,-5442.625291261771963036
1.453453453453453337,-5442.920315323472095770,-5442.642416442617104622
1.459459459459459429,-5442.929501280073964153,-5442.659365643682576774
1.465465465465465522,-5442.945534660527300730,-5442.676141386243216402
1.471471471471471393,-5442.953090719240208273,-5442.692746145321507356
1.477477477477477485,-5442.990311016475970973,-5442.709182350718947418
1.483483483483483578,-5442.987224149572284659,-5442.725452388026496919
1.489489489489489449,-5443.024201350642215402,-5442.741558599599557056
1.495495495495495542,-5443.013719635451707290,-5442.757503285512029834
1.501501501501501412,-5443.030706177836691495,-5442.773288704486731149
1.507507507507507505,-5443.045618410458700964,-5442.788917074801247509
1.513513513513513598,-5443.041126282589175389,-5442.804390575166507915
1.519519519519519468,-5443.071556053698259348,-5442.819711345588075346
1.525525525525525561,-5443.086965903622512997,-5442.834881488204700872
1.531531531531531432,-5443.083639931259313016,-5442.849903068098683434
1.537537537537537524,-5443.133030359572330781,-5442.864778114098044171
1.543543543543543617,-5443.101741812039108481,-5442.879508619545049442
1.549549549549549488,-5443.113780032720569579,-5442.894096543057457893
1.555555555555555580,-5443.162867799729610852,-5442.908543809259754198
1.561561561561561451,-5443.175236659466463607,-5442.922852309505287849
1.567567567567567544,-5443.152402182015975995,-5442.937023902574765089
1.573573573573573636,-5443.199452509984439530,-5442.951060415361098421
1.579579579579579507,-5443.234984661800808681,-5442.964963643530609261
1.585585585585585600,-5443.171927178772421030,-5442.978735352178773610
1.591591591591591470,-5443.262072856555278122,-5442.992377276462320879
1.597597597597597563,-5443.212267108897322032,-5443.005891122214052302
1.603603603603603656,-5443.258281095723759790,-5443.019278566551292897
1.609609609609609526,-5443.293278171328893222,-5443.032541258458877564
1.615615615615615619,-5443.228071898399321071,-5443.045680819371227699
1.621621621621621712,-5443.291885907335199590,-5443.058698843725323968
1.627627627627627582,-5443.283387354835213046,-5443.071596899510950607
1.633633633633633675,-5443.296767559100771905,-5443.084376528808206785
1.639639639639639546,-5443.293326682074621203,-5443.097039248303190107
1.645645645645645638,-5443.336865924816265760,-5443.109586549800951616
1.651651651651651731,-5443.316689207196759526,-5443.122019900721170416
1.657657657657657602,-5443.330586255356138281,-5443.134340744583823835
1.663663663663663694,-5443.369515681197299273,-5443.146550501483943663
1.669669669669669565,-5443.350852081699486007,-5443.158650568552729965
1.675675675675675658,-5443.377925180608144728,-5443.170642320412298432
1.681681681681681750,-5443.370883551769111364,-5443.182527109614056826
1.687687687687687621,-5443.380500449934515927,-5443.194306267073443450
1.693693693693693714,-5443.444582507819177408,-5443.205981102489204204
1.699699699699699584,-5443.419023301268680370,-5443.217552904758122168
1.705705705705705677,-5443.418580275299063942,-5443.229022942373376281
1.711711711711711770,-5443.439080212009685056,-5443.240392463821081037
1.717717717717717640,-5443.449045895534254669,-5443.251662697963183746
1.723723723723723733,-5443.451219832327296899,-5443.262834854412176355
1.729729729729729826,-5443.468403900331395562,-5443.273910123903078784
1.735735735735735696,-5443.478044046653849364,-5443.284889678646322864
1.741741741741741789,-5443.486487884894813760,-5443.295774672681545781
1.747747747747747660,-5443.495706272615279886,-5443.306566242220469576
1.753753753753753752,-5443.493930395941788447,-5443.317265505982504692
1.759759759759759845,-5443.514491211541098892,-5443.327873565523077559
1.765765765765765716,-5443.523763702682117582,-5443.338391505553772731
1.771771771771771808,-5443.532481995587659185,-5443.348820394255199062
1.777777777777777679,-5443.542625064395906520,-5443.359161283586217905
1.783783783783783772,-5443.551088232949950907,-5443.369415209580438386
1.789789789789789864,-5443.544165697822791117,-5443.379583192644531664
1.795795795795795735,-5443.552913116749550682,-5443.389666237841083785
1.801801801801801828,-5443.604916145810420858,-5443.399665335172358027
1.807807807807807698,-5443.571649099884780298,-5443.409581459854962304
1.813813813813813791,-5443.621982737859980261,-5443.419415572585421614
1.819819819819819884,-5443.630582314583989501,-5443.429168619810297969
1.825825825825825754,-5443.596711538635645411,-5443.438841533975391940
1.831831831831831847,-5443.647220102834580757,-5443.448435233785858145
1.837837837837837718,-5443.655585353933929582,-5443.457950624447221344
1.843843843843843811,-5443.609929238475160673,-5443.467388597910030512
1.849849849849849903,-5443.671912777445868414,-5443.476750033104508475
1.855855855855855774,-5443.649795934524263430,-5443.486035796174292045
1.861861861861861867,-5443.643427731026349647,-5443.495246740700167720
1.867867867867867959,-5443.696025641213964263,-5443.504383707925626368
1.873873873873873830,-5443.703885104052460520,-5443.513447526970594481
1.879879879879879923,-5443.662452765758644091,-5443.522439015046074928
1.885885885885885793,-5443.719406208211694320,-5443.531358977662421239
1.891891891891891886,-5443.681343790481150791,-5443.540208208833064418
1.897897897897897979,-5443.690042735557653941,-5443.548987491275511275
1.903903903903903849,-5443.742264881123446685,-5443.557697596605976287
1.909909909909909942,-5443.704735729745152639,-5443.566339285530375491
1.915915915915915813,-5443.712189420914910443,-5443.574913308035320370
1.921921921921921905,-5443.751479685292906652,-5443.583420403568197798
1.927927927927927998,-5443.727663821350688522,-5443.591861301221797476
1.933933933933933869,-5443.737340439303807216,-5443.600236719906206417
1.939939939939939961,-5443.773504249215875461,-5443.608547368527979415
1.945945945945945832,-5443.778585830910742516,-5443.616793946154757577
1.951951951951951925,-5443.761054537315430935,-5443.624977142182615353
1.957957957957958017,-5443.795096947531419573,-5443.633097636500679073
1.963963963963963888,-5443.777875285521986370,-5443.641156099651198019
1.969969969969969981,-5443.809184225189710560,-5443.649153192983249028
1.975975975975975851,-5443.816205491023538343,-5443.657089568809169577
1.981981981981981944,-5443.810508012470563699,-5443.664965870552805427
1.987987987987988037,-5443.817734846381426905,-5443.672782732898667746
1.993993993993993907,-5443.834753945943703002,-5443.680540781937452266
2.000000000000000000,-5443.819498704309808090,-5443.688240635304282478
2.006006006006006093,-5443.850415527096629376,-5443.695882902320590802
2.012012012012012185,-5443.844385070349744637,-5443.703468184131452290
2.018018018018017834,-5443.840017444053046347,-5443.710997073836551863
2.024024024024023927,-5443.858655284071573988,-5443.718470156622061040
2.030030030030030019,-5443.874793442653754028,-5443.725888009890695685
2.036036036036036112,-5443.858901672696447349,-5443.733251203388135764
2.042042042042042205,-5443.887752195720167947,-5443.740560299322169158
2.048048048048047853,-5443.894229713959248329,-5443.747815852491839905
2.054054054054053946,-5443.863706688395723177,-5443.755018410398406559
2.060060060060060039,-5443.906915884327645472,-5443.762168513370852452
2.066066066066066131,-5443.891730888958591095,-5443.769266694670477591
2.072072072072072224,-5443.919452043834098731,-5443.776313480612770945
2.078078078078077873,-5443.902560803646338172,-5443.783309390672911832
2.084084084084083965,-5443.931702906045757118,-5443.790254937593090290
2.090090090090090058,-5443.915964094362607284,-5443.797150627492555941
2.096096096096096151,-5443.943927776695090870,-5443.803996959969481395
2.102102102102102243,-5443.929379504993448791,-5443.810794428203735151
2.108108108108107892,-5443.936134831757954089,-5443.817543519057835510
2.114114114114113985,-5443.961874129943680600,-5443.824244713174266508
2.120120120120120077,-5443.949154352540062973,-5443.830898485075522331
2.126126126126126170,-5443.989783198863733560,-5443.837505303255056788
2.132132132132132263,-5443.963279208073799964,-5443.844065630271870759
2.138138138138137911,-5443.973890337531884143,-5443.850579922845099645
2.144144144144144004,-5443.970570255716665997,-5443.857048631938596372
2.150150150150150097,-5444.010213316765657510,-5443.863472202855518844
2.156156156156156189,-5443.983187318626733031,-5443.869851075318365474
2.162162162162162282,-5443.994754142552665144,-5443.876185683559015160
2.168168168168167931,-5444.026878498779296933,-5443.882476456402400800
2.174174174174174023,-5443.985501379323068250,-5443.888723817343816336
2.180180180180180116,-5444.035135834121319931,-5443.894928184633499768
2.186186186186186209,-5444.043809010924633185,-5443.901089971357578179
2.192192192192192302,-5444.019558835357202042,-5443.907209585510827310
2.198198198198198394,-5444.053958408460857754,-5443.913287430075797602
2.204204204204204043,-5444.059292253523381078,-5443.919323903098302253
2.210210210210210136,-5444.029221708520708489,-5443.925319397760176798
2.216216216216216228,-5444.056744917299511144,-5443.931274302452948177
2.222222222222222321,-5444.041048636412597261,-5443.937189000846046838
2.228228228228228414,-5444.067228905259071325,-5443.943063871961385303
2.234234234234234062,-5444.054090051453385968,-5443.948899290237022797
2.240240240240240155,-5444.077946672594407573,-5443.954695625599924824
2.246246246246246248,-5444.065896515161512070,-5443.960453243525080325
2.252252252252252340,-5444.087753435733247898,-5443.966172505110080238
2.258258258258258433,-5444.075376135934675403,-5443.971853767131506174
2.264264264264264082,-5444.079222000474146625,-5443.977497382109504542
2.270270270270270174,-5444.102793241594554274,-5443.983103698373270163
2.276276276276276267,-5444.088737232541461708,-5443.988673060117434943
2.282282282282282360,-5444.105619464473420521,-5443.994205807464823010
2.288288288288288452,-5444.100276234519697027,-5443.999702276522839384
2.294294294294294101,-5444.122431928046353278,-5444.005162799442587129
2.300300300300300194,-5444.109158919305627933,-5444.010587704477984516
2.306306306306306286,-5444.131954779450097703,-5444.015977316034877731
2.312312312312312379,-5444.120568006076609890,-5444.021331954733796010
2.318318318318318472,-5444.141780726710749150,-5444.026651937458154862
2.324324324324324120,-5444.146475224550158600,-5444.031937577410644735
2.330330330330330213,-5444.134755003573445720,-5444.037189184162343736
2.336336336336336306,-5444.155541528104549798,-5444.042407063707287307
2.342342342342342398,-5444.141693615390067862,-5444.047591518511580944
2.348348348348348491,-5444.146886375511712686,-5444.052742847560693917
2.354354354354354140,-5444.149275480521282589,-5444.057861346413119463
2.360360360360360232,-5444.173913099898527435,-5444.062947307244030526
2.366366366366366325,-5444.159595646578054584,-5444.068001018893482978
2.372372372372372418,-5444.182873279617524531,-5444.073022766913709347
2.378378378378378510,-5444.170186837398432544,-5444.078012833615503041
2.384384384384384159,-5444.174364189282641746,-5444.082971498110055109
2.390390390390390252,-5444.178873395740083652,-5444.087899036357157456
2.396396396396396344,-5444.200383387909823796,-5444.092795721204311121
2.402402402402402437,-5444.186751165400892205,-5444.097661822432201006
2.408408408408408530,-5444.209072636102064280,-5444.102497606797442131
2.414414414414414178,-5444.213351139178485028,-5444.107303338071687904
2.420420420420420271,-5444.200749451995761774,-5444.112079277083466877
2.426426426426426364,-5444.221852278659753210,-5444.116825681757291022
2.432432432432432456,-5444.209964094100541843,-5444.121542807154582988
2.438438438438438549,-5444.230237585561553715,-5444.126230905511874880
2.444444444444444642,-5444.217717657228604367,-5444.130890226279007038
2.450450450450450290,-5444.238535406090704782,-5444.135521016156417318
2.456456456456456383,-5444.225644341509905644,-5444.140123519129701890
2.462462462462462476,-5444.246714233743659861,-5444.144697976512361492
2.468468468468468568,-5444.233637985158566153,-5444.149244626973995764
2.474474474474474661,-5444.254833495432649215,-5444.153763706581230508
2.480480480480480310,-5444.277077264520812605,-5444.158255448830459500
2.486486486486486402,-5444.248461680236687243,-5444.162720084680586297
2.492492492492492495,-5444.258910858367926267,-5444.167157842588494532
2.498498498498498588,-5444.243018155497338739,-5444.171568948540880228
2.504504504504504681,-5444.274670291124493815,-5444.175953626087903103
2.510510510510510329,-5444.260905531427852111,-5444.180312096375018882
2.516516516516516422,-5444.292205208702398522,-5444.184644578172992624
2.522522522522522515,-5444.268653643023753830,-5444.188951287912459520
2.528528528528528607,-5444.299799410217019613,-5444.193232439709390746
2.534534534534534700,-5444.276519426993218076,-5444.197488245399654261
2.540540540540540349,-5444.280724503523742897,-5444.201718914566299645
2.546546546546546441,-5444.311056150027070544,-5444.205924654571390420
2.552552552552552534,-5444.314755993354083330,-5444.210105670579650905
2.558558558558558627,-5444.289226477003467153,-5444.214262165593027021
2.564564564564564719,-5444.322108366096472309,-5444.218394340473423654
2.570570570570570368,-5444.332681644053991477,-5444.222502393972717982
2.576576576576576461,-5444.301610931130198878,-5444.226586522760953812
2.582582582582582553,-5444.318823947459350165,-5444.230646921449078945
2.588588588588588646,-5444.312583910923422081,-5444.234683782618958503
2.594594594594594739,-5444.340158997120852291,-5444.238697296847021789
2.600600600600600387,-5444.318530713594554982,-5444.242687652729728143
2.606606606606606480,-5444.347223487656265206,-5444.246655036911761272
2.612612612612612573,-5444.329170958032591443,-5444.250599634104219149
2.618618618618618665,-5444.354230908349563833,-5444.254521627117355820
2.624624624624624758,-5444.332716529949721007,-5444.258421196877861803
2.630630630630630407,-5444.335964627669454785,-5444.262298522454329941
2.636636636636636499,-5444.364686169368724222,-5444.266153781081811758
2.642642642642642592,-5444.342597580951405689,-5444.269987148183645331
2.648648648648648685,-5444.371503805329666648,-5444.273798797395102156
2.654654654654654777,-5444.352976952950484701,-5444.277588900583396025
2.660660660660660426,-5444.378243296236178139,-5444.281357627872239391
2.666666666666666519,-5444.360594721851157374,-5444.285105147660942748
2.672672672672672611,-5444.384895900569972582,-5444.288831626648061501
2.678678678678678704,-5444.362047617494681617,-5444.292537229850495351
2.684684684684684797,-5444.391430139980002423,-5444.296222120626225660
2.690690690690690445,-5444.379812931391825259,-5444.299886460690686363
2.696696696696696538,-5444.372609846577688586,-5444.303530410143139306
2.702702702702702631,-5444.386392196774977492,-5444.307154127480316674
2.708708708708708723,-5444.372002904955479607,-5444.310757769619158353
2.714714714714714816,-5444.391641533738948056,-5444.314341491915911320
2.720720720720720909,-5444.396115540961545776,-5444.317905448182500550
2.726726726726726557,-5444.399317392708326224,-5444.321449790710175876
2.732732732732732650,-5444.397404542506592406,-5444.324974670283154410
2.738738738738738743,-5444.405620917483247467,-5444.328480236197719933
2.744744744744744835,-5444.401100047302861640,-5444.331966636283141270
2.750750750750750928,-5444.423562703464995138,-5444.335434016915314714
2.756756756756756577,-5444.407057786509540165,-5444.338882523037682404
2.762762762762762669,-5444.428553204150375677,-5444.342312298174874741
2.768768768768768762,-5444.413395437132749066,-5444.345723484451809782
2.774774774774774855,-5444.434666430331162701,-5444.349116222610973637
2.780780780780780947,-5444.419148514696644270,-5444.352490652026062889
2.786786786786786596,-5444.422667792120591912,-5444.355846910721083987
2.792792792792792689,-5444.445953955981167383,-5444.359185135384905152
2.798798798798798781,-5444.429438556720015185,-5444.362505461386717798
2.804804804804804874,-5444.451869119397088070,-5444.365808022794226417
2.810810810810810967,-5444.434640989145918866,-5444.369092952382743533
2.816816816816816615,-5444.457781249995605322,-5444.372360381657927064
2.822822822822822708,-5444.441396794512002089,-5444.375610440865784767
2.828828828828828801,-5444.462426735239205300,-5444.378843259009045141
2.834834834834834894,-5444.440342032168700825,-5444.382058963859890355
2.840840840840840986,-5444.468161022608001076,-5444.385257681977236643
2.846846846846846635,-5444.471010324104099709,-5444.388439538718557742
2.852852852852852727,-5444.455246782211361278,-5444.391604658254436799
2.858858858858858820,-5444.465074024677960551,-5444.394753163583118294
2.864864864864864913,-5444.469065742825478083,-5444.397885176541421970
2.870870870870871006,-5444.482184222697469522,-5444.401000817820204247
2.876876876876876654,-5444.462094772452473990,-5444.404100206979819632
2.882882882882882747,-5444.487739465123013360,-5444.407183462455577683
2.888888888888888840,-5444.467868263957825548,-5444.410250701580480381
2.894894894894894932,-5444.482428650265319447,-5444.413302040588860109
2.900900900900901025,-5444.477390770531201269,-5444.416337594634569541
2.906906906906906674,-5444.481488380521113868,-5444.419357477801895584
2.912912912912912766,-5444.506989819161390187,-5444.422361803114654322
2.918918918918918859,-5444.492154875922096835,-5444.425350682553471415
2.924924924924924952,-5444.505121630986650416,-5444.428324227064877050
2.930930930930931044,-5444.519438324568909593,-5444.431282546569491387
2.936936936936936693,-5444.504920858404148021,-5444.434225749982033449
2.942942942942942786,-5444.505803599851788022,-5444.437153945212230610
2.948948948948948878,-5444.520914991151585127,-5444.440067239185736980
2.954954954954954971,-5444.510405036796328204,-5444.442965737848680874
2.960960960960961064,-5444.526595679700221808,-5444.445849546180397738
2.966966966966967156,-5444.520514082390036492,-5444.448718768206163077
2.972972972972972805,-5444.513932695192124811,-5444.451573507003558916
2.978978978978978898,-5444.510383831588114845,-5444.454413864718844707
2.984984984984984990,-5444.533570328161658836,-5444.457239942570595304
2.990990990990991083,-5444.525922479117980401,-5444.460051840865162376
2.996996996996997176,-5444.540679013289263821,-5444.462849659004859859
3.003003003003002824,-5444.531407537802806473,-5444.465633495497058902
3.009009009009008917,-5444.533523733620313578,-5444.468403447965101805
3.015015015015015010,-5444.551081282292216201,-5444.471159613157396961
3.021021021021021102,-5444.539904693607240915,-5444.473902086958332802
3.027027027027027195,-5444.554578651164774783,-5444.476630964395553747
3.033033033033032844,-5444.542521100868725625,-5444.479346339650874143
3.039039039039038936,-5444.557834155115415342,-5444.482048306069373211
3.045045045045045029,-5444.550341599979219609,-5444.484736956167580502
3.051051051051051122,-5444.549290181590549764,-5444.487412381641661341
3.057057057057057214,-5444.552781621341637219,-5444.490074673381059256
3.063063063063062863,-5444.555930056766555936,-5444.492723921469405468
3.069069069069068956,-5444.556519360402489838,-5444.495360215200889797
3.075075075075075048,-5444.540942764577266644,-5444.497983643082989147
3.081081081081081141,-5444.590169071727359551,-5444.500594292849200428
3.087087087087087234,-5444.592445788205623103,-5444.503192251463588036
3.093093093093092882,-5444.563602124492717849,-5444.505777605131697783
3.099099099099098975,-5444.596973751609766623,-5444.508350439307832858
3.105105105105105068,-5444.554642592229356524,-5444.510910838701420289
3.111111111111111160,-5444.556814742761162051,-5444.513458887287924881
3.117117117117117253,-5444.595282746126940765,-5444.515994668316125171
3.123123123123122902,-5444.561252546287505538,-5444.518518264310841914
3.129129129129128994,-5444.563753805388842011,-5444.521029757088399492
3.135135135135135087,-5444.602019851535260386,-5444.523529227758444904
3.141141141141141180,-5444.612528338258016447,-5444.526016756733042712
3.147147147147147273,-5444.572352912230599031,-5444.528492423735769989
3.153153153153152921,-5444.616862639168175519,-5444.530956307803535310
3.159159159159159014,-5444.578532652725698426,-5444.533408487301130663
3.165165165165165106,-5444.581433278033728129,-5444.535849039922140946
3.171171171171171199,-5444.623314262178610079,-5444.538278042700767401
3.177177177177177292,-5444.625436384923887090,-5444.540695572013646597
3.183183183183182940,-5444.588676507270974980,-5444.543101703591673868
3.189189189189189033,-5444.629652388611248170,-5444.545496512520912802
3.195195195195195126,-5444.631746436861249094,-5444.547880073257147160
3.201201201201201219,-5444.600031194208895613,-5444.550252459624061885
3.207207207207207311,-5444.602546695088676643,-5444.552613744824157038
3.213213213213213404,-5444.637991638960556884,-5444.554964001447842747
3.219219219219219053,-5444.602803638213117665,-5444.557303301471620216
3.225225225225225145,-5444.642083446839023964,-5444.559631716272633639
3.231231231231231238,-5444.645405178901455656,-5444.561949316629579698
3.237237237237237331,-5444.608721017353673233,-5444.564256172730893013
3.243243243243243423,-5444.610794624161826505,-5444.566552354181112605
3.249249249249249072,-5444.650771112034817634,-5444.568837930005429371
3.255255255255255165,-5444.615285427077651548,-5444.571112968656052544
3.261261261261261257,-5444.617616305898081919,-5444.573377538018576161
3.267267267267267350,-5444.657461417667946080,-5444.575631705417436024
3.273273273273273443,-5444.614384620244891266,-5444.577875537621366675
3.279279279279279091,-5444.661404434908945404,-5444.580109100848858361
3.285285285285285184,-5444.663356555729478714,-5444.582332460773614002
3.291291291291291277,-5444.621163408782194892,-5444.584545682530915656
3.297297297297297369,-5444.623129730598520837,-5444.586748830723081483
3.303303303303303462,-5444.669127427025159704,-5444.588941969422194234
3.309309309309309111,-5444.628017794433617382,-5444.591125162179196195
3.315315315315315203,-5444.672920468936354155,-5444.593298472025708179
3.321321321321321296,-5444.674815659186606354,-5444.595461961482214974
3.327327327327327389,-5444.643256572528116521,-5444.597615692559884337
3.333333333333333481,-5444.646903028344240738,-5444.599759726768752444
3.339339339339339130,-5444.680479661114077317,-5444.601894125121361867
3.345345345345345223,-5444.650821642494520347,-5444.604018948135490064
3.351351351351351315,-5444.652596674405685917,-5444.606134255844153813
3.357357357357357408,-5444.688210288389200286,-5444.608240107794699725
3.363363363363363501,-5444.690053543706198980,-5444.610336563057899184
3.369369369369369149,-5444.691865702695395157,-5444.612423680230676837
3.375375375375375242,-5444.660046396254983847,-5444.614501517438839073
3.381381381381381335,-5444.651486499908969563,-5444.616570132347987965
3.387387387387387427,-5444.653733461644151248,-5444.618629582159883284
3.393393393393393520,-5444.664167181901575532,-5444.620679923623356444
3.399399399399399169,-5444.646505931578758464,-5444.622721213034310495
3.405405405405405261,-5444.667813597518943425,-5444.624753506243905576
3.411411411411411354,-5444.701129082794977876,-5444.626776858661287406
3.417417417417417447,-5444.702907737989335146,-5444.628791325254496769
3.423423423423423539,-5444.659981462714313238,-5444.630796960561383457
3.429429429429429188,-5444.706432673357994645,-5444.632793818688696774
3.435435435435435281,-5444.689971807211804844,-5444.634781953317542502
3.441441441441441373,-5444.691984346896788338,-5444.636761417707930377
3.447447447447447466,-5444.684437169400553103,-5444.638732264702412067
3.453453453453453559,-5444.686234141703607747,-5444.640694546729719150
3.459459459459459651,-5444.695958405472993036,-5444.642648315811129578
3.465465465465465300,-5444.689812335617716599,-5444.644593623559558182
3.471471471471471393,-5444.686178276074315363,-5444.646530521188651619
3.477477477477477485,-5444.687881386815206497,-5444.648459059512788372
3.483483483483483578,-5444.723093621608313697,-5444.650379288952535717
3.489489489489489671,-5444.721238134311533940,-5444.652291259539197199
3.495495495495495319,-5444.695952244760519534,-5444.654195020915722125
3.501501501501501412,-5444.728126024654557114,-5444.656090622343072027
3.507507507507507505,-5444.729793738387343183,-5444.657978112702949147
3.513513513513513598,-5444.700567338559267228,-5444.659857540500524919
3.519519519519519690,-5444.702416579584678402,-5444.661728953869896941
3.525525525525525339,-5444.704648368793641566,-5444.663592400574088970
3.531531531531531432,-5444.706220753818342928,-5444.665447928013236378
3.537537537537537524,-5444.734564558166312054,-5444.667295583224586153
3.543543543543543617,-5444.736191871862502012,-5444.669135412885225378
3.549549549549549710,-5444.711947496170978411,-5444.670967463320266688
3.555555555555555358,-5444.739428931449765514,-5444.672791780499210290
3.561561561561561451,-5444.744475562562911364,-5444.674608410045948403
3.567567567567567544,-5444.706513705406905501,-5444.676417397236036777
3.573573573573573636,-5444.718025697480698000,-5444.678218787005789636
3.579579579579579729,-5444.749254028383802506,-5444.680012623951370188
3.585585585585585378,-5444.721322812570178939,-5444.681798952330609609
3.591591591591591470,-5444.750527469047483464,-5444.683577816071192501
3.597597597597597563,-5444.752097242339004879,-5444.685349258770656888
3.603603603603603656,-5444.725978377167848521,-5444.687113323698213208
3.609609609609609748,-5444.727729504141279904,-5444.688870053801110771
3.615615615615615397,-5444.756741303549461009,-5444.690619491703728272
3.621621621621621490,-5444.722996940071425342,-5444.692361679713940248
3.627627627627627582,-5444.734943677840419696,-5444.694096659824936069
3.633633633633633675,-5444.761357451310686884,-5444.695824473716129432
3.639639639639639768,-5444.726977748574427096,-5444.697545162757705839
3.645645645645645416,-5444.764408681091481412,-5444.699258768015170062
3.651651651651651509,-5444.765926986586237035,-5444.700965330247527163
3.657657657657657602,-5444.741564366395323304,-5444.702664889915467938
3.663663663663663694,-5444.744421837532172503,-5444.704357487180459430
3.669669669669669787,-5444.768870783496822696,-5444.706043161906563910
3.675675675675675436,-5444.738437357770635572,-5444.707721953666805348
3.681681681681681528,-5444.773424097273164080,-5444.709393901743169408
3.687687687687687621,-5444.774897846664316603,-5444.711059045129331935
3.693693693693693714,-5444.743185767598333769,-5444.712717422535206424
3.699699699699699806,-5444.744843760174262570,-5444.714369072387853521
3.705705705705705455,-5444.779288426737366535,-5444.716014032831481018
3.711711711711711548,-5444.747644247517200711,-5444.717652341736538801
3.717717717717717640,-5444.755259643035060435,-5444.719284036696080875
3.723723723723723733,-5444.782202620395764825,-5444.720909155030312832
3.729729729729729826,-5444.783644463473137876,-5444.722527733790229831
3.735735735735735918,-5444.758525198865754646,-5444.724139809757616604
3.741741741741741567,-5444.786502022350759944,-5444.725745419450504414
3.747747747747747660,-5444.760617864950290823,-5444.727344599121352076
3.753753753753753752,-5444.759277830608880322,-5444.728937384764321905
3.759759759759759845,-5444.790749836026407138,-5444.730523812111641746
3.765765765765765938,-5444.792158592141277040,-5444.732103916642699915
3.771771771771771586,-5444.764142724309749610,-5444.733677733580407221
3.777777777777777679,-5444.794956287419154251,-5444.735245297896653938
3.783783783783783772,-5444.796343985457497183,-5444.736806644314128789
3.789789789789789864,-5444.770134882864113024,-5444.738361807306318951
3.795795795795795957,-5444.799104436927336792,-5444.739910821103876515
3.801801801801801606,-5444.771359496726290672,-5444.741453719690980506
3.807807807807807698,-5444.773043977796987747,-5444.742990536814431835
3.813813813813813791,-5444.785795528674498200,-5444.744521305978196324
3.819819819819819884,-5444.787184656361205271,-5444.746046060452499660
3.825825825825825977,-5444.778037829601998965,-5444.747564833271098905
3.831831831831831625,-5444.807241651495132828,-5444.749077657234920480
3.837837837837837718,-5444.780666482312881271,-5444.750584564912969654
3.843843843843843811,-5444.777422653031862865,-5444.752085588648697012
3.849849849849849903,-5444.811249390512784885,-5444.753580760554541484
3.855855855855855996,-5444.812575459153777047,-5444.755070112520115799
3.861861861861861644,-5444.787049409514111176,-5444.756553676212206483
3.867867867867867737,-5444.815192801803277689,-5444.758031483074773860
3.873873873873873830,-5444.816504030563010019,-5444.759503564335318515
3.879879879879879923,-5444.806205404660431668,-5444.760969951000333822
3.885885885885886015,-5444.794499272962639225,-5444.762430673863491393
3.891891891891891664,-5444.795727011374765425,-5444.763885763503822091
3.897897897897897757,-5444.797019323008498759,-5444.765335250287535018
3.903903903903903849,-5444.822962533670761331,-5444.766779164372564992
3.909909909909909942,-5444.824238842133127037,-5444.768217535705844057
3.915915915915916035,-5444.800780419146576605,-5444.769650394031486940
3.921921921921921683,-5444.826788983660662780,-5444.771077768885334081
3.927927927927927776,-5444.828056808097244357,-5444.772499689600408601
3.933933933933933869,-5444.808280983313125034,-5444.773916185311463778
3.939939939939939961,-5444.809688690910661535,-5444.775327284948616580
3.945945945945946054,-5444.831834802989760647,-5444.776733017247352109
3.951951951951951703,-5444.809557347532063432,-5444.778133410746704612
3.957957957957957795,-5444.835293188796640607,-5444.779528493789257482
3.963963963963963888,-5444.836527709981965018,-5444.780918294524781231
3.969969969969969981,-5444.812392968151470996,-5444.782302840912961983
3.975975975975976073,-5444.804659012411320873,-5444.783682160721582477
3.981981981981982166,-5444.840229045144042175,-5444.785056281531069544
3.987987987987987815,-5444.807613001754361903,-5444.786425230734494107
3.993993993993993907,-5444.816861166900707758,-5444.787789035540299665
4.000000000000000000,-5444.843852112748209038,-5444.789147722974121280
4.006006006006005649,-5444.819922914175549522,-5444.790501319876057096
4.012012012012012185,-5444.821021885853951972,-5444.791849852907944296
4.018018018018017834,-5444.843044838838977739,-5444.793193348552449606
4.024024024024024371,-5444.844254382181134133,-5444.794531833113069297
4.030030030030030019,-5444.825254910179864964,-5444.795865332718676655
4.036036036036035668,-5444.851725098543283821,-5444.797193873322612490
4.042042042042042205,-5444.852888988677477755,-5444.798517480702685134
4.048048048048047853,-5444.854058775075827725,-5444.799836180467536906
4.054054054054054390,-5444.832888293664836965,-5444.801149998054825119
4.060060060060060039,-5444.834188465114493738,-5444.802458958730312588
4.066066066066065687,-5444.857562007972774154,-5444.803763087596053083
4.072072072072072224,-5444.840957995758799370,-5444.805062409583115368
4.078078078078077873,-5444.841899692364677321,-5444.806356949460678152
4.084084084084084409,-5444.843029474244758603,-5444.807646731832392106
4.090090090090090058,-5444.863033307519799564,-5444.808931781140927342
4.096096096096095707,-5444.846077288834749197,-5444.810212121665244922
4.102102102102102243,-5444.847354279362662055,-5444.811487777527872822
4.108108108108107892,-5444.848023354297765763,-5444.812758772688539466
4.114114114114114429,-5444.849192243224024423,-5444.814025130953268672
4.120120120120120077,-5444.859472429448032926,-5444.815286875970741676
4.126126126126125726,-5444.851524969843012514,-5444.816544031233206624
4.132132132132132263,-5444.851279344571594265,-5444.817796620081935544
4.138138138138137911,-5444.863079136170199490,-5444.819044665704495856
4.144144144144144448,-5444.864613715487394074,-5444.820288191136569367
4.150150150150150097,-5444.873706481708723004,-5444.821527219265590247
4.156156156156155745,-5444.854565526247824891,-5444.822761772828926041
4.162162162162162282,-5444.867465559829724953,-5444.823991874417515646
4.168168168168167931,-5444.868782705641933717,-5444.825217546473140828
4.174174174174174468,-5444.860161413870628166,-5444.826438811296611675
4.180180180180180116,-5444.860386608705994149,-5444.827655691040490638
4.186186186186185765,-5444.862388307577930391,-5444.828868207717277983
4.192192192192192302,-5444.863380806483291963,-5444.830076383196683310
4.198198198198197950,-5444.877230184025393100,-5444.831280239206535043
4.204204204204204487,-5444.878305279587948462,-5444.832479797336418414
4.210210210210210136,-5444.866689078175113536,-5444.833675079036765965
4.216216216216215784,-5444.880455689754853665,-5444.834866105621586030
4.222222222222222321,-5444.881531331348014646,-5444.836052898267553246
4.228228228228227970,-5444.869954549523754395,-5444.837235478014918044
4.234234234234234506,-5444.871904513051049435,-5444.838413865772054123
4.240240240240240155,-5444.884696914544292667,-5444.839588082312729966
4.246246246246245803,-5444.864395881941163680,-5444.840758148278837325
4.252252252252252340,-5444.868112840674257313,-5444.841924084180391219
4.258258258258257989,-5444.870153262378153158,-5444.843085910399167915
4.264264264264264526,-5444.898041446525894571,-5444.844243647186885937
4.270270270270270174,-5444.899062833970674546,-5444.845397314665206068
4.276276276276275823,-5444.873005763814035163,-5444.846546932831188315
4.282282282282282360,-5444.871115055746486178,-5444.847692521554563427
4.288288288288288008,-5444.893021017012870288,-5444.848834100581370876
4.294294294294294545,-5444.894049525076297869,-5444.849971689530320873
4.300300300300300194,-5444.869861538215445762,-5444.851105307900070329
4.306306306306305842,-5444.896088896783112432,-5444.852234975065584877
4.312312312312312379,-5444.897146277488900523,-5444.853360710280867352
4.318318318318318028,-5444.877203817386543960,-5444.854482532678048301
4.324324324324324564,-5444.878179659582201566,-5444.855600461271023960
4.330330330330330213,-5444.900171866891469108,-5444.856714514955456252
4.336336336336335862,-5444.881718369832015014,-5444.857824712507863296
4.342342342342342398,-5444.875768782287195791,-5444.858931072589257383
4.348348348348348047,-5444.903186729706249025,-5444.860033613744235481
4.354354354354354584,-5444.904176977773204271,-5444.861132354402798228
4.360360360360360232,-5444.887113852021684579,-5444.862227312878530938
4.366366366366366769,-5444.895768200794918812,-5444.863318507374970068
4.372372372372372418,-5444.880166379652109754,-5444.864405955981055740
4.378378378378378066,-5444.908098981716648268,-5444.865489676673860231
4.384384384384384603,-5444.909074476485329797,-5444.866569687322225946
4.390390390390390252,-5444.892802292009946541,-5444.867646005682217947
4.396396396396396788,-5444.899926903932282585,-5444.868718649401671428
4.402402402402402437,-5444.918547443377974560,-5444.869787636021101207
4.408408408408408086,-5444.884038367700668459,-5444.870852982970973244
4.414414414414414622,-5444.894609963858783885,-5444.871914707578980597
4.420420420420420271,-5444.902557378317396797,-5444.872972827063676959
4.426426426426426808,-5444.903534344274703471,-5444.874027358539933630
4.432432432432432456,-5444.892582911978934135,-5444.875078319018030015
4.438438438438438105,-5444.924889015206645126,-5444.876125725403653632
4.444444444444444642,-5444.925814655918657081,-5444.877169594501538086
4.450450450450450290,-5444.900421541840842110,-5444.878209943013644079
4.456456456456456827,-5444.908445946502979496,-5444.879246787540978403
4.462462462462462476,-5444.926020557456467941,-5444.880280144581774948
4.468468468468468124,-5444.926942195857918705,-5444.881310030538770661
4.474474474474474661,-5444.904419416347991501,-5444.882336461711929587
4.480480480480480310,-5444.903470803669733868,-5444.883359454304809333
4.486486486486486847,-5444.911026160566507315,-5444.884379024422742077
4.492492492492492495,-5444.931096272348440834,-5444.885395188073744066
4.498498498498498144,-5444.906502257522333821,-5444.886407961171244096
4.504504504504504681,-5444.901346246581852029,-5444.887417359532264527
4.510510510510510329,-5444.932882342900484218,-5444.888423398877421278
4.516516516516516866,-5444.915204308428656077,-5444.889426094837290293
4.522522522522522515,-5444.919049796217223047,-5444.890425462945131585
4.528528528528528163,-5444.921070392335423094,-5444.891421518643255695
4.534534534534534700,-5444.921982247600681148,-5444.892414277283023694
4.540540540540540349,-5444.923143463385713403,-5444.893403754122118698
4.546546546546546885,-5444.914016194081341382,-5444.894389964328183851
4.552552552552552534,-5444.941032722568706959,-5444.895372922981550801
4.558558558558558182,-5444.915733428832027130,-5444.896352645068873244
4.564564564564564719,-5444.909443131270563754,-5444.897329145491312374
4.570570570570570368,-5444.943647619201328780,-5444.898302439059989410
4.576576576576576905,-5444.944509550054135616,-5444.899272540500533069
4.582582582582582553,-5444.927207350995558954,-5444.900239464450351079
4.588588588588588202,-5444.921034800116103725,-5444.901203225460449175
4.594594594594594739,-5444.929290546236188675,-5444.902163837997250084
4.600600600600600387,-5444.929876537933523650,-5444.903121316441684030
4.606606606606606924,-5444.930764710667972395,-5444.904075675091007724
4.612612612612612573,-5444.923856289419745735,-5444.905026928156985377
4.618618618618618221,-5444.939425752602801367,-5444.905975089769526676
4.624624624624624758,-5444.934279858317495382,-5444.906920173976686783
4.630630630630630407,-5444.928936956528559676,-5444.907862194743756845
4.636636636636636943,-5444.935893581222444482,-5444.908801165954173484
4.642642642642642592,-5444.936876384593233524,-5444.909737101411337790
4.648648648648648241,-5444.937858219247573288,-5444.910670014838615316
4.654654654654654777,-5444.931818356991243490,-5444.911599919877517095
4.660660660660660426,-5444.939465909817045031,-5444.912526830094066099
4.666666666666666963,-5444.937011048374188249,-5444.913450758973340271
4.672672672672672611,-5444.933395054724314832,-5444.914371719922201009
4.678678678678678260,-5444.935154271396640979,-5444.915289726272021653
4.684684684684684797,-5444.943196008570339472,-5444.916204791275049502
4.690690690690690445,-5444.944035773397445155,-5444.917116928109862783
4.696696696696696982,-5444.961776146500596951,-5444.918026149875913688
4.702702702702702631,-5444.938449440348449571,-5444.918932469599894830
4.708708708708708279,-5444.963382165668008383,-5444.919835900233010761
4.714714714714714816,-5444.964186889870688901,-5444.920736454651887470
4.720720720720720465,-5444.941174276529636700,-5444.921634145660391368
4.726726726726727001,-5444.942279604140821903,-5444.922528985988719796
4.732732732732732650,-5444.949872717709695280,-5444.923420988293401024
4.738738738738738299,-5444.945939635422291758,-5444.924310165160932229
4.744744744744744835,-5444.946504942495266732,-5444.925196529103232024
4.750750750750750484,-5444.952343037468381226,-5444.926080092564916413
4.756756756756757021,-5444.953156343379305326,-5444.926960867916022835
4.762762762762762669,-5444.948353788712665846,-5444.927838867458376626
4.768768768768768318,-5444.954798570189268503,-5444.928714103423772031
4.774774774774774855,-5444.955604245458744117,-5444.929586587975791190
4.780780780780780503,-5444.956393635417953192,-5444.930456333207985153
4.786786786786787040,-5444.955189722747491032,-5444.931323351145692868
4.792792792792792689,-5444.951508912444296584,-5444.932187653746041178
4.798798798798798337,-5444.958790375695571129,-5444.933049252901582804
4.804804804804804874,-5444.959586819105425093,-5444.933908160434839374
4.810810810810810523,-5444.958288414425624069,-5444.934764388102848898
4.816816816816817060,-5444.959491065528709441,-5444.935617947597165767
4.822822822822822708,-5444.961946914592772373,-5444.936468850542951259
4.828828828828828357,-5444.961299444996257080,-5444.937317108502611518
4.834834834834834894,-5444.964389384907917702,-5444.938162732972159574
4.840840840840840542,-5444.964307650429873320,-5444.939005735382124840
4.846846846846847079,-5444.965083665286329051,-5444.939846127101191087
4.852852852852852727,-5444.957630723601141653,-5444.940683919435286953
4.858858858858858376,-5444.980142045374122972,-5444.941519123625766952
4.864864864864864913,-5444.980894481506766169,-5444.942351750853049452
4.870870870870870561,-5444.960316398916802427,-5444.943181812234797690
4.876876876876877098,-5444.968853897069493541,-5444.944009318825919763
4.882882882882882747,-5444.969719865916886192,-5444.944834281622206618
4.888888888888889284,-5444.970481282619402918,-5444.945656711558513052
4.894894894894894932,-5444.963014760264741199,-5444.946476619506938732
4.900900900900900581,-5444.963842830736211909,-5444.947294016283194651
4.906906906906907118,-5444.964544739091252268,-5444.948108912640236667
4.912912912912912766,-5444.986655987964695669,-5444.948921319273722474
4.918918918918919303,-5444.987383402963132539,-5444.949731246820192609
4.924924924924924952,-5444.966442141979314329,-5444.950538705857979949
4.930930930930930600,-5444.988835053273760423,-5444.951343706906300213
4.936936936936937137,-5444.989555418350391847,-5444.952146260427980451
4.942942942942942786,-5444.968602490842386032,-5444.952946376829459041
4.948948948948949322,-5444.971300741345658025,-5444.953744066458057205
4.954954954954954971,-5444.991730185606684245,-5444.954539339606526482
4.960960960960960620,-5444.970837362036036211,-5444.955332206510320248
4.966966966966967156,-5444.973047456677704758,-5444.956122677350322192
4.972972972972972805,-5444.993874439070168592,-5444.956910762251936831
4.978978978978979342,-5444.994579548580986739,-5444.957696471285089501
4.984984984984984990,-5444.974238590911227220,-5444.958479814464226365
4.990990990990990639,-5444.975021820856454724,-5444.959260801751952386
4.996996996996997176,-5444.996678163785873039,-5444.960039443055393349
5.003003003003002824,-5444.997383173457819794,-5444.960815748228924349
5.009009009009009361,-5444.977398439005810360,-5444.961589727072350797
5.015015015015015010,-5444.971842359154834412,-5444.962361389334546402
5.021021021021020658,-5444.999468474824425357,-5444.963130744710724684
5.027027027027027195,-5445.000154820668285538,-5444.963897802845167462
5.033033033033032844,-5444.973971178589636111,-5444.964662573327586870
5.039039039039039380,-5444.974672115316934651,-5444.965425065700401319
5.045045045045045029,-5445.002203492660555639,-5444.966185289451459539
5.051051051051050678,-5444.976133443272374279,-5444.966943254019497545
5.057057057057057214,-5444.977186017669737339,-5444.967698968793229142
5.063063063063062863,-5444.990841146411185036,-5444.968452443108617445
5.069069069069069400,-5444.991540531473219744,-5444.969203686256150831
5.075075075075075048,-5444.984423592818529869,-5444.969952707472657494
5.081081081081080697,-5444.992928035073418869,-5444.970699515948581393
5.087087087087087234,-5444.993619240343832644,-5444.971444120824344282
5.093093093093092882,-5444.986776102727162652,-5444.972186531192164693
5.099099099099099419,-5444.987453753760746622,-5444.972926756096967438
5.105105105105105068,-5444.988392775301690563,-5444.973664804533655115
5.111111111111110716,-5444.994833489009579353,-5444.974400685450746096
5.117117117117117253,-5444.995521447243845614,-5444.975134407751284016
5.123123123123122902,-5444.996434191069056396,-5444.975865980288290302
5.129129129129129439,-5444.997228619509769487,-5444.976595411869311647
5.135135135135135087,-5444.997544452818146965,-5444.977322711257329502
5.141141141141140736,-5444.993726591077574994,-5444.978047887167122099
5.147147147147147273,-5444.994365374413973768,-5444.978770948267083440
5.153153153153152921,-5445.003554511315996933,-5444.979491903183770773
5.159159159159159458,-5445.004220731179884751,-5444.980210760493719135
5.165165165165165106,-5444.996286188975318510,-5444.980927528732536302
5.171171171171170755,-5445.005535830700864608,-5444.981642216390355316
5.177177177177177292,-5445.006200393043400254,-5444.982354831910924986
5.183183183183182940,-5444.998236227843335655,-5444.983065383696157369
5.189189189189189477,-5444.998538388162160118,-5444.983773880104308773
5.195195195195195126,-5445.008170207180228317,-5444.984480329448160774
5.201201201201200774,-5445.008822942286315083,-5444.985184739999567682
5.207207207207207311,-5445.001394937825352827,-5444.985887119984909077
5.213213213213212960,-5445.001979534391466586,-5444.986587477591456263
5.219219219219219497,-5445.010748156689260213,-5444.987285820961915306
5.225225225225225145,-5445.011391756813281972,-5444.987982158195336524
5.231231231231230794,-5445.004221553806928569,-5444.988676497352571459
5.237237237237237331,-5445.010342841367673827,-5444.989368846449906414
5.243243243243242979,-5445.025054437529433926,-5444.990059213463609922
5.249249249249249516,-5445.025670298780823941,-5444.990747606329023256
5.255255255255255165,-5445.012797296127246227,-5444.991434032939650933
5.261261261261260813,-5445.015226984301989432,-5444.992118501150798693
5.267267267267267350,-5445.015856905643886421,-5444.992801018774116528
5.273273273273272999,-5445.014616641091379279,-5444.993481593583965150
5.279279279279279535,-5445.001104929130633536,-5444.994160233313778008
5.285285285285285184,-5445.029025836525761406,-5444.994836945656970784
5.291291291291290833,-5445.016477662086799683,-5444.995511738268760382
5.297297297297297369,-5445.016388066415856883,-5444.996184618765255436
5.303303303303303018,-5445.016982476986413531,-5444.996855594723456306
5.309309309309309555,-5445.020216288417941541,-5444.997524673681255081
5.315315315315315203,-5445.020833904422943306,-5444.998191863138345070
5.321321321321320852,-5445.018267361990183417,-5444.998857170557130303
5.327327327327327389,-5445.019117596913019952,-5444.999520603361816029
5.333333333333333037,-5445.022695626484164677,-5445.000182168938408722
5.339339339339339574,-5445.023307782329538895,-5445.000841874636535067
5.345345345345345223,-5445.021101917792293534,-5445.001499727768532466
5.351351351351350871,-5445.024528331847250229,-5445.002155735608539544
5.357357357357357408,-5445.025131974628493481,-5445.002809905395224632
5.363363363363363057,-5445.017709362359710212,-5445.003462244330876274
5.369369369369369593,-5445.018426760239890427,-5445.004112759581403225
5.375375375375375242,-5445.024732090956604225,-5445.004761458275424957
5.381381381381380891,-5445.025699104056911892,-5445.005408347507000144
5.387387387387387427,-5445.020119258813792840,-5445.006053434335626662
5.393393393393393076,-5445.039130448148171126,-5445.006696725782603608
5.399399399399399613,-5445.039707830645056674,-5445.007338228836488270
5.405405405405405261,-5445.014162750115247036,-5445.007977950450367643
5.411411411411411798,-5445.014815973097938695,-5445.008615897541858430
5.417417417417417447,-5445.041429848157349625,-5445.009252076994926028
5.423423423423423095,-5445.042575597536597343,-5445.009886495658975036
5.429429429429429632,-5445.043144160231349815,-5445.010519160348849255
5.435435435435435281,-5445.018521132267778739,-5445.011150077845741180
5.441441441441441818,-5445.019169804557350290,-5445.011779254898101499
5.447447447447447466,-5445.044832620779743593,-5445.012406698219820100
5.453453453453453115,-5445.020506736927927705,-5445.013032414492045064
5.459459459459459651,-5445.021095717370371858,-5445.013656410361363669
5.465465465465465300,-5445.046522297610863461,-5445.014278692444349872
5.471471471471471837,-5445.047090023410419235,-5445.014899267323016829
5.477477477477477485,-5445.034755528218738618,-5445.015518141547545383
5.483483483483483134,-5445.048183634905399231,-5445.016135321634465072
5.489489489489489671,-5445.048738818743004231,-5445.016750814070292108
5.495495495495495319,-5445.031537521515929257,-5445.017364625307891401
5.501501501501501856,-5445.032158710790099576,-5445.017976761770114535
5.507507507507507505,-5445.037542448308158782,-5445.018587229847071285
5.513513513513513153,-5445.050921443261358945,-5445.019196035897948605
5.519519519519519690,-5445.033129227478639223,-5445.019803186250101135
5.525525525525525339,-5445.033689816723381227,-5445.020408687201779685
5.531531531531531876,-5445.052555654217030678,-5445.021012545018493256
5.537537537537537524,-5445.053095283441507490,-5445.021614765935737523
5.543543543543543173,-5445.036330577528133290,-5445.022215356158994837
5.549549549549549710,-5445.036469904993282398,-5445.022814321864643716
5.555555555555555358,-5445.054721689075449831,-5445.023411669195411378
5.561561561561561895,-5445.055254662687730161,-5445.024007404268559185
5.567567567567567544,-5445.037040557962427556,-5445.024601533169516188
5.573573573573573192,-5445.055659873863987741,-5445.025194061952788616
5.579579579579579729,-5445.056191349727669149,-5445.025784996646507352
5.585585585585585378,-5445.040579907237770385,-5445.026374343247880461
5.591591591591591914,-5445.041171419000420428,-5445.026962107725012174
5.597597597597597563,-5445.044164107958749810,-5445.027548296018721885
5.603603603603603212,-5445.045507233480748255,-5445.028132914039815660
5.609609609609609748,-5445.032833889552421169,-5445.028715967669995734
5.615615615615615397,-5445.058491895541919803,-5445.029297462764589000
5.621621621621621934,-5445.051869302477825840,-5445.029877405149818514
5.627627627627627582,-5445.044864277282613330,-5445.030455800623713003
5.633633633633633231,-5445.045404502390738344,-5445.031032654957016348
5.639639639639639768,-5445.037050937747153512,-5445.031607973892278096
5.645645645645645416,-5445.062443483782772091,-5445.032181763143853459
5.651651651651651953,-5445.062125023460794182,-5445.032754028401541291
5.657657657657657602,-5445.045073001026139536,-5445.033324775325127121
5.663663663663663250,-5445.063571488974957902,-5445.033894009548930626
5.669669669669669787,-5445.064083008632223937,-5445.034461736679077148
5.675675675675675436,-5445.046172592125003575,-5445.035027962297135673
5.681681681681681972,-5445.046750705975682649,-5445.035592691955571354
5.687687687687687621,-5445.052451995737101242,-5445.036155931182292989
5.693693693693693270,-5445.048876794019633962,-5445.036717685478834028
5.699699699699699806,-5445.049379352080904937,-5445.037277960319443082
5.705705705705705455,-5445.066330859145637078,-5445.037836761153812404
5.711711711711711992,-5445.055638370212363952,-5445.038394093405258900
5.717717717717717640,-5445.056386573085546843,-5445.038949962470724131
5.723723723723723289,-5445.056903002440776618,-5445.039504373724412289
5.729729729729729826,-5445.056636193659869605,-5445.040057332510514243
5.735735735735735474,-5445.057150413676936296,-5445.040608844153211976
5.741741741741742011,-5445.058232199169651722,-5445.041158913947583642
5.747747747747747660,-5445.054083839935628930,-5445.041707547166879522
5.753753753753753308,-5445.070370080485190556,-5445.042254749056155561
5.759759759759759845,-5445.070866098304577463,-5445.042800524839549325
5.765765765765765494,-5445.047430036723199009,-5445.043344879713913542
5.771771771771772030,-5445.047996606731430802,-5445.043887818853363569
5.777777777777777679,-5445.072332332924816001,-5445.044429347407458408
5.783783783783783328,-5445.056279773175447190,-5445.044969470501200703
5.789789789789789864,-5445.056876333323998551,-5445.045508193235946237
5.795795795795795513,-5445.061054506588334334,-5445.046045520689403929
5.801801801801802050,-5445.060266392493758758,-5445.046581457915635838
5.807807807807807698,-5445.059164402846363373,-5445.047116009945966653
5.813813813813813347,-5445.068298047675853013,-5445.047649181785345718
5.819819819819819884,-5445.068788970092100499,-5445.048180978420532483
5.825825825825825532,-5445.060851433991047088,-5445.048711404810092063
5.831831831831832069,-5445.061384388410260726,-5445.049240465892580687
5.837837837837837718,-5445.061592734905389079,-5445.049768166581998230
5.843843843843843366,-5445.070743994008807931,-5445.050294511772335682
5.849849849849849903,-5445.071229996072361246,-5445.050819506332118181
5.855855855855855552,-5445.063070027718822530,-5445.051343155108042993
5.861861861861862089,-5445.063600305797990586,-5445.051865462924979511
5.867867867867867737,-5445.072682911760239222,-5445.052386434586878750
5.873873873873873386,-5445.064494395664951298,-5445.052906074872225872
5.879879879879879923,-5445.064964087839143758,-5445.053424388541316148
5.885885885885885571,-5445.074106656863477838,-5445.053941380329888489
5.891891891891892108,-5445.074586681104847230,-5445.054457054952763428
5.897897897897897757,-5445.066348133400424558,-5445.054971417102933628
5.903903903903904293,-5445.066829273123403254,-5445.055484471453382866
5.909909909909909942,-5445.085458514221500081,-5445.055996222654357553
5.915915915915915591,-5445.069128561616707884,-5445.056506675334276224
5.921921921921922127,-5445.069639994082535850,-5445.057015834102458030
5.927927927927927776,-5445.077424731357496057,-5445.057523703544575255
5.933933933933934313,-5445.087923648616197170,-5445.058030288228110294
5.939939939939939961,-5445.065826253390696365,-5445.058535592698717664
5.945945945945945610,-5445.070330452979760594,-5445.059039621479314519
5.951951951951952147,-5445.077520244393781468,-5445.059542379076447105
5.957957957957957795,-5445.077987697112803289,-5445.060043869972105313
5.963963963963964332,-5445.081306084626703523,-5445.060544098631908128
5.969969969969969981,-5445.067506353218959703,-5445.061043069496918179
5.975975975975975629,-5445.090373261224158341,-5445.061540786991827190
5.981981981981982166,-5445.081570271440796205,-5445.062037255519499013
5.987987987987987815,-5445.073576598586441833,-5445.062532479462788615
5.993993993993994351,-5445.074042460685632250,-5445.063026463186361070
6.000000000000000000,-5445.081117439191984886,-5445.063519211033963074
